<?xml version="1.0" encoding="UTF-8"?>
<session version="1.0">
<refactoring comment="Convert local variable &apos;com.example.myapplication.rotinas.ConvArquivosProcess.ConvArquivosProcess().arrayLinhas&apos; in &apos;com.example.myapplication.rotinas.ConvArquivosProcess.ConvArquivosProcess()&apos; to field&#x0D;&#x0A;- Original project: &apos;myapplication&apos;&#x0D;&#x0A;- Original element: &apos;com.example.myapplication.rotinas.ConvArquivosProcess.ConvArquivosProcess().arrayLinhas&apos;&#x0D;&#x0A;- Field name: &apos;arrayLinhas&apos;&#x0D;&#x0A;- Initialize field in method&#x0D;&#x0A;- Declared visibility: &apos;private&apos;" description="Convert local variable &apos;arrayLinhas&apos; to field" final="false" flags="2" id="org.eclipse.jdt.ui.promote.temp" initialize="1" input="/src\/main\/java&lt;com.example.myapplication.rotinas{ConvArquivosProcess.java" name="arrayLinhas" selection="1307 20" stamp="1534559236964" static="false" version="1.0" visibility="2"/>
</session>