127.0.0.1 - - [21/Mar/2018:00:21:07 -0400] "GET / HTTP/1.1" 404 951
0:0:0:0:0:0:0:1 - - [21/Mar/2018:00:21:08 -0400] "GET /myapplication/servlet/com.example.myapplication.MyUI$MyUIServlet HTTP/1.1" 200 1912
0:0:0:0:0:0:0:1 - - [21/Mar/2018:00:21:11 -0400] "GET /myapplication/servlet/com.example.myapplication.MyUI$MyUIServlet HTTP/1.1" 200 1861
0:0:0:0:0:0:0:1 - - [21/Mar/2018:00:21:11 -0400] "GET /myapplication/VAADIN/vaadinBootstrap.js?v=8.3.1 HTTP/1.1" 200 3837
0:0:0:0:0:0:0:1 - - [21/Mar/2018:00:21:11 -0400] "GET /myapplication/VAADIN/widgetsets/com.vaadin.DefaultWidgetSet/com.vaadin.DefaultWidgetSet.nocache.js?1521606071436 HTTP/1.1" 200 3231
0:0:0:0:0:0:0:1 - - [21/Mar/2018:00:21:11 -0400] "GET /myapplication/VAADIN/themes/mytheme/styles.css?v=8.3.1 HTTP/1.1" 200 380400
0:0:0:0:0:0:0:1 - - [21/Mar/2018:00:21:11 -0400] "GET /myapplication/VAADIN/themes/valo/shared/img/spinner.gif HTTP/1.1" 200 7194
0:0:0:0:0:0:0:1 - - [21/Mar/2018:00:21:11 -0400] "GET /myapplication/VAADIN/widgetsets/com.vaadin.DefaultWidgetSet/99065197202814696C2A1A56BF276C09.cache.js HTTP/1.1" 200 352405
0:0:0:0:0:0:0:1 - - [21/Mar/2018:00:21:11 -0400] "GET /favicon.ico HTTP/1.1" 404 973
0:0:0:0:0:0:0:1 - - [21/Mar/2018:00:21:14 -0400] "POST /myapplication/servlet/com.example.myapplication.MyUI$MyUIServlet?v-1521606071436 HTTP/1.1" 200 6324
0:0:0:0:0:0:0:1 - - [21/Mar/2018:00:21:14 -0400] "GET /myapplication/VAADIN/widgetsets/com.vaadin.DefaultWidgetSet/deferredjs/99065197202814696C2A1A56BF276C09/8.cache.js HTTP/1.1" 200 1196
0:0:0:0:0:0:0:1 - - [21/Mar/2018:00:21:14 -0400] "POST /myapplication/UIDL/?v-uiId=0 HTTP/1.1" 200 137
0:0:0:0:0:0:0:1 - - [21/Mar/2018:00:21:14 -0400] "GET /myapplication/VAADIN/widgetsets/com.vaadin.DefaultWidgetSet/deferredjs/99065197202814696C2A1A56BF276C09/2.cache.js HTTP/1.1" 200 183
0:0:0:0:0:0:0:1 - - [21/Mar/2018:00:22:56 -0400] "GET /myapplication/servlet/com.example.myapplication.MyUI$MyUIServlet HTTP/1.1" 200 1861
0:0:0:0:0:0:0:1 - - [21/Mar/2018:00:22:56 -0400] "GET /myapplication/VAADIN/widgetsets/com.vaadin.DefaultWidgetSet/com.vaadin.DefaultWidgetSet.nocache.js?1521606176573 HTTP/1.1" 200 3231
0:0:0:0:0:0:0:1 - - [21/Mar/2018:00:22:56 -0400] "GET /myapplication/VAADIN/themes/mytheme/styles.css?v=8.3.1 HTTP/1.1" 200 380400
0:0:0:0:0:0:0:1 - - [21/Mar/2018:00:22:59 -0400] "POST /myapplication/servlet/com.example.myapplication.MyUI$MyUIServlet?v-1521606176573 HTTP/1.1" 200 6361
0:0:0:0:0:0:0:1 - - [21/Mar/2018:00:22:59 -0400] "POST /myapplication/UIDL/?v-uiId=1 HTTP/1.1" 200 137
0:0:0:0:0:0:0:1 - - [21/Mar/2018:00:23:01 -0400] "POST /myapplication/UIDL/?v-uiId=1 HTTP/1.1" 200 190
0:0:0:0:0:0:0:1 - - [21/Mar/2018:00:23:01 -0400] "POST /myapplication/UIDL/?v-uiId=1 HTTP/1.1" 200 137
0:0:0:0:0:0:0:1 - - [21/Mar/2018:00:23:04 -0400] "POST /myapplication/UIDL/?v-uiId=1 HTTP/1.1" 200 190
0:0:0:0:0:0:0:1 - - [21/Mar/2018:00:23:04 -0400] "POST /myapplication/UIDL/?v-uiId=1 HTTP/1.1" 200 5369
0:0:0:0:0:0:0:1 - - [21/Mar/2018:00:23:04 -0400] "GET /myapplication/VAADIN/themes/valo/fonts/themeicons-webfont/themeicons-webfont.woff HTTP/1.1" 200 7868
0:0:0:0:0:0:0:1 - - [21/Mar/2018:00:23:04 -0400] "GET /myapplication/VAADIN/themes/mytheme/imagens/logo-prosaude.png HTTP/1.1" 200 21928
0:0:0:0:0:0:0:1 - - [21/Mar/2018:00:23:04 -0400] "GET /myapplication/VAADIN/themes/valo/fonts/open-sans/OpenSans-Semibold-webfont.woff HTTP/1.1" 200 22908
0:0:0:0:0:0:0:1 - - [21/Mar/2018:00:23:05 -0400] "POST /myapplication/UIDL/?v-uiId=1 HTTP/1.1" 200 983
0:0:0:0:0:0:0:1 - - [21/Mar/2018:00:23:06 -0400] "POST /myapplication/UIDL/?v-uiId=1 HTTP/1.1" 200 7503
0:0:0:0:0:0:0:1 - - [21/Mar/2018:00:23:06 -0400] "GET /myapplication/VAADIN/themes/mytheme/imagens/library/insert.png HTTP/1.1" 200 733
0:0:0:0:0:0:0:1 - - [21/Mar/2018:00:23:06 -0400] "GET /myapplication/VAADIN/themes/mytheme/imagens/library/update.png HTTP/1.1" 200 450
0:0:0:0:0:0:0:1 - - [21/Mar/2018:00:23:06 -0400] "GET /myapplication/VAADIN/themes/mytheme/imagens/library/find.png HTTP/1.1" 200 659
0:0:0:0:0:0:0:1 - - [21/Mar/2018:00:23:06 -0400] "GET /myapplication/VAADIN/themes/valo/fonts/fontawesome-webfont/fontawesome-webfont.woff HTTP/1.1" 200 83588
0:0:0:0:0:0:0:1 - - [21/Mar/2018:00:23:07 -0400] "POST /myapplication/UIDL/?v-uiId=1 HTTP/1.1" 200 11427
0:0:0:0:0:0:0:1 - - [21/Mar/2018:00:23:07 -0400] "GET /myapplication/VAADIN/themes/mytheme/imagens/library/lupa.png HTTP/1.1" 200 871
0:0:0:0:0:0:0:1 - - [21/Mar/2018:00:23:07 -0400] "GET /myapplication/VAADIN/themes/mytheme/imagens/library/cancel.png HTTP/1.1" 200 587
0:0:0:0:0:0:0:1 - - [21/Mar/2018:00:23:07 -0400] "GET /myapplication/VAADIN/themes/mytheme/imagens/library/money.png HTTP/1.1" 200 546
0:0:0:0:0:0:0:1 - - [21/Mar/2018:00:23:07 -0400] "GET /myapplication/VAADIN/themes/mytheme/imagens/library/disk.png HTTP/1.1" 200 620
0:0:0:0:0:0:0:1 - - [21/Mar/2018:00:23:10 -0400] "POST /myapplication/UIDL/?v-uiId=1 HTTP/1.1" 200 376
0:0:0:0:0:0:0:1 - - [21/Mar/2018:00:23:10 -0400] "POST /myapplication/UIDL/?v-uiId=1 HTTP/1.1" 200 139
0:0:0:0:0:0:0:1 - - [21/Mar/2018:00:23:12 -0400] "POST /myapplication/UIDL/?v-uiId=1 HTTP/1.1" 200 139
0:0:0:0:0:0:0:1 - - [21/Mar/2018:00:23:12 -0400] "POST /myapplication/UIDL/?v-uiId=1 HTTP/1.1" 200 139
0:0:0:0:0:0:0:1 - - [21/Mar/2018:00:23:13 -0400] "POST /myapplication/UIDL/?v-uiId=1 HTTP/1.1" 200 139
0:0:0:0:0:0:0:1 - - [21/Mar/2018:00:23:30 -0400] "POST /myapplication/UIDL/?v-uiId=1 HTTP/1.1" 200 139
0:0:0:0:0:0:0:1 - - [21/Mar/2018:00:23:31 -0400] "POST /myapplication/UIDL/?v-uiId=1 HTTP/1.1" 200 139
0:0:0:0:0:0:0:1 - - [21/Mar/2018:00:23:32 -0400] "POST /myapplication/UIDL/?v-uiId=1 HTTP/1.1" 200 139
0:0:0:0:0:0:0:1 - - [21/Mar/2018:00:23:32 -0400] "POST /myapplication/UIDL/?v-uiId=1 HTTP/1.1" 200 139
0:0:0:0:0:0:0:1 - - [21/Mar/2018:00:23:34 -0400] "POST /myapplication/UIDL/?v-uiId=1 HTTP/1.1" 200 139
0:0:0:0:0:0:0:1 - - [21/Mar/2018:00:23:34 -0400] "POST /myapplication/UIDL/?v-uiId=1 HTTP/1.1" 200 139
0:0:0:0:0:0:0:1 - - [21/Mar/2018:00:23:36 -0400] "POST /myapplication/UIDL/?v-uiId=1 HTTP/1.1" 200 139
0:0:0:0:0:0:0:1 - - [21/Mar/2018:00:23:36 -0400] "POST /myapplication/UIDL/?v-uiId=1 HTTP/1.1" 200 139
0:0:0:0:0:0:0:1 - - [21/Mar/2018:00:23:37 -0400] "POST /myapplication/UIDL/?v-uiId=1 HTTP/1.1" 200 139
0:0:0:0:0:0:0:1 - - [21/Mar/2018:00:23:37 -0400] "POST /myapplication/UIDL/?v-uiId=1 HTTP/1.1" 200 139
0:0:0:0:0:0:0:1 - - [21/Mar/2018:00:23:37 -0400] "POST /myapplication/UIDL/?v-uiId=1 HTTP/1.1" 200 139
0:0:0:0:0:0:0:1 - - [21/Mar/2018:00:23:38 -0400] "POST /myapplication/UIDL/?v-uiId=1 HTTP/1.1" 200 139
0:0:0:0:0:0:0:1 - - [21/Mar/2018:00:23:48 -0400] "POST /myapplication/UIDL/?v-uiId=1 HTTP/1.1" 200 139
0:0:0:0:0:0:0:1 - - [21/Mar/2018:00:23:48 -0400] "POST /myapplication/UIDL/?v-uiId=1 HTTP/1.1" 200 139
0:0:0:0:0:0:0:1 - - [21/Mar/2018:00:23:48 -0400] "POST /myapplication/UIDL/?v-uiId=1 HTTP/1.1" 200 139
0:0:0:0:0:0:0:1 - - [21/Mar/2018:00:23:48 -0400] "POST /myapplication/UIDL/?v-uiId=1 HTTP/1.1" 200 139
0:0:0:0:0:0:0:1 - - [21/Mar/2018:00:23:49 -0400] "POST /myapplication/UIDL/?v-uiId=1 HTTP/1.1" 200 139
0:0:0:0:0:0:0:1 - - [21/Mar/2018:00:23:49 -0400] "POST /myapplication/UIDL/?v-uiId=1 HTTP/1.1" 200 139
0:0:0:0:0:0:0:1 - - [21/Mar/2018:00:23:50 -0400] "POST /myapplication/UIDL/?v-uiId=1 HTTP/1.1" 200 139
0:0:0:0:0:0:0:1 - - [21/Mar/2018:00:24:19 -0400] "POST /myapplication/UIDL/?v-uiId=1 HTTP/1.1" 200 139
0:0:0:0:0:0:0:1 - - [21/Mar/2018:00:24:30 -0400] "POST /myapplication/UIDL/?v-uiId=1 HTTP/1.1" 200 139
0:0:0:0:0:0:0:1 - - [21/Mar/2018:00:24:42 -0400] "POST /myapplication/UIDL/?v-uiId=1 HTTP/1.1" 200 235
0:0:0:0:0:0:0:1 - - [21/Mar/2018:00:24:43 -0400] "GET /myapplication/servlet/com.example.myapplication.MyUI$MyUIServlet HTTP/1.1" 200 1861
0:0:0:0:0:0:0:1 - - [21/Mar/2018:00:24:43 -0400] "GET /myapplication/VAADIN/widgetsets/com.vaadin.DefaultWidgetSet/com.vaadin.DefaultWidgetSet.nocache.js?1521606283392 HTTP/1.1" 200 3231
0:0:0:0:0:0:0:1 - - [21/Mar/2018:00:24:43 -0400] "GET /myapplication/VAADIN/themes/mytheme/styles.css?v=8.3.1 HTTP/1.1" 200 380400
0:0:0:0:0:0:0:1 - - [21/Mar/2018:00:24:46 -0400] "POST /myapplication/servlet/com.example.myapplication.MyUI$MyUIServlet?v-1521606283392 HTTP/1.1" 200 6324
0:0:0:0:0:0:0:1 - - [21/Mar/2018:00:24:46 -0400] "POST /myapplication/UIDL/?v-uiId=0 HTTP/1.1" 200 137
0:0:0:0:0:0:0:1 - - [21/Mar/2018:00:24:49 -0400] "POST /myapplication/UIDL/?v-uiId=0 HTTP/1.1" 200 191
0:0:0:0:0:0:0:1 - - [21/Mar/2018:00:24:49 -0400] "POST /myapplication/UIDL/?v-uiId=0 HTTP/1.1" 200 137
0:0:0:0:0:0:0:1 - - [21/Mar/2018:00:24:51 -0400] "POST /myapplication/UIDL/?v-uiId=0 HTTP/1.1" 200 311
0:0:0:0:0:0:0:1 - - [21/Mar/2018:00:24:51 -0400] "POST /myapplication/UIDL/?v-uiId=0 HTTP/1.1" 200 211
0:0:0:0:0:0:0:1 - - [21/Mar/2018:00:24:54 -0400] "POST /myapplication/UIDL/?v-uiId=0 HTTP/1.1" 200 268
0:0:0:0:0:0:0:1 - - [21/Mar/2018:00:24:55 -0400] "POST /myapplication/UIDL/?v-uiId=0 HTTP/1.1" 200 5335
0:0:0:0:0:0:0:1 - - [21/Mar/2018:00:24:56 -0400] "POST /myapplication/UIDL/?v-uiId=0 HTTP/1.1" 200 983
0:0:0:0:0:0:0:1 - - [21/Mar/2018:00:24:57 -0400] "POST /myapplication/UIDL/?v-uiId=0 HTTP/1.1" 200 7422
0:0:0:0:0:0:0:1 - - [21/Mar/2018:00:24:58 -0400] "POST /myapplication/UIDL/?v-uiId=0 HTTP/1.1" 200 11399
0:0:0:0:0:0:0:1 - - [21/Mar/2018:00:24:59 -0400] "POST /myapplication/UIDL/?v-uiId=0 HTTP/1.1" 200 378
0:0:0:0:0:0:0:1 - - [21/Mar/2018:00:24:59 -0400] "POST /myapplication/UIDL/?v-uiId=0 HTTP/1.1" 200 139
0:0:0:0:0:0:0:1 - - [21/Mar/2018:00:25:00 -0400] "POST /myapplication/UIDL/?v-uiId=0 HTTP/1.1" 200 139
0:0:0:0:0:0:0:1 - - [21/Mar/2018:00:25:00 -0400] "POST /myapplication/UIDL/?v-uiId=0 HTTP/1.1" 200 139
0:0:0:0:0:0:0:1 - - [21/Mar/2018:00:25:00 -0400] "POST /myapplication/UIDL/?v-uiId=0 HTTP/1.1" 200 139
0:0:0:0:0:0:0:1 - - [21/Mar/2018:00:25:00 -0400] "POST /myapplication/UIDL/?v-uiId=0 HTTP/1.1" 200 139
0:0:0:0:0:0:0:1 - - [21/Mar/2018:00:25:01 -0400] "POST /myapplication/UIDL/?v-uiId=0 HTTP/1.1" 200 139
0:0:0:0:0:0:0:1 - - [21/Mar/2018:00:25:01 -0400] "POST /myapplication/UIDL/?v-uiId=0 HTTP/1.1" 200 139
0:0:0:0:0:0:0:1 - - [21/Mar/2018:00:25:01 -0400] "POST /myapplication/UIDL/?v-uiId=0 HTTP/1.1" 200 139
0:0:0:0:0:0:0:1 - - [21/Mar/2018:00:25:01 -0400] "POST /myapplication/UIDL/?v-uiId=0 HTTP/1.1" 200 139
0:0:0:0:0:0:0:1 - - [21/Mar/2018:00:25:01 -0400] "POST /myapplication/UIDL/?v-uiId=0 HTTP/1.1" 200 139
0:0:0:0:0:0:0:1 - - [21/Mar/2018:00:25:01 -0400] "POST /myapplication/UIDL/?v-uiId=0 HTTP/1.1" 200 139
0:0:0:0:0:0:0:1 - - [21/Mar/2018:00:25:01 -0400] "POST /myapplication/UIDL/?v-uiId=0 HTTP/1.1" 200 139
0:0:0:0:0:0:0:1 - - [21/Mar/2018:00:25:02 -0400] "POST /myapplication/UIDL/?v-uiId=0 HTTP/1.1" 200 139
0:0:0:0:0:0:0:1 - - [21/Mar/2018:00:25:02 -0400] "POST /myapplication/UIDL/?v-uiId=0 HTTP/1.1" 200 139
0:0:0:0:0:0:0:1 - - [21/Mar/2018:00:25:02 -0400] "POST /myapplication/UIDL/?v-uiId=0 HTTP/1.1" 200 139
0:0:0:0:0:0:0:1 - - [21/Mar/2018:00:25:02 -0400] "POST /myapplication/UIDL/?v-uiId=0 HTTP/1.1" 200 139
0:0:0:0:0:0:0:1 - - [21/Mar/2018:00:25:03 -0400] "POST /myapplication/UIDL/?v-uiId=0 HTTP/1.1" 200 139
0:0:0:0:0:0:0:1 - - [21/Mar/2018:00:25:11 -0400] "POST /myapplication/UIDL/?v-uiId=0 HTTP/1.1" 200 139
0:0:0:0:0:0:0:1 - - [21/Mar/2018:00:25:11 -0400] "POST /myapplication/UIDL/?v-uiId=0 HTTP/1.1" 200 203
0:0:0:0:0:0:0:1 - - [21/Mar/2018:00:25:12 -0400] "POST /myapplication/UIDL/?v-uiId=0 HTTP/1.1" 200 6364
0:0:0:0:0:0:0:1 - - [21/Mar/2018:00:25:15 -0400] "POST /myapplication/UIDL/?v-uiId=0 HTTP/1.1" 200 155
0:0:0:0:0:0:0:1 - - [21/Mar/2018:00:25:17 -0400] "POST /myapplication/UIDL/?v-uiId=0 HTTP/1.1" 200 696
0:0:0:0:0:0:0:1 - - [21/Mar/2018:00:25:18 -0400] "POST /myapplication/UIDL/?v-uiId=0 HTTP/1.1" 200 6521
0:0:0:0:0:0:0:1 - - [21/Mar/2018:00:25:38 -0400] "POST /myapplication/UIDL/?v-uiId=0 HTTP/1.1" 200 10640
0:0:0:0:0:0:0:1 - - [21/Mar/2018:00:25:41 -0400] "POST /myapplication/UIDL/?v-uiId=0 HTTP/1.1" 200 378
0:0:0:0:0:0:0:1 - - [21/Mar/2018:00:25:41 -0400] "POST /myapplication/UIDL/?v-uiId=0 HTTP/1.1" 200 139
0:0:0:0:0:0:0:1 - - [21/Mar/2018:00:25:41 -0400] "POST /myapplication/UIDL/?v-uiId=0 HTTP/1.1" 200 139
0:0:0:0:0:0:0:1 - - [21/Mar/2018:00:25:41 -0400] "POST /myapplication/UIDL/?v-uiId=0 HTTP/1.1" 200 139
0:0:0:0:0:0:0:1 - - [21/Mar/2018:00:25:41 -0400] "POST /myapplication/UIDL/?v-uiId=0 HTTP/1.1" 200 139
0:0:0:0:0:0:0:1 - - [21/Mar/2018:00:25:41 -0400] "POST /myapplication/UIDL/?v-uiId=0 HTTP/1.1" 200 139
0:0:0:0:0:0:0:1 - - [21/Mar/2018:00:25:42 -0400] "POST /myapplication/UIDL/?v-uiId=0 HTTP/1.1" 200 139
0:0:0:0:0:0:0:1 - - [21/Mar/2018:00:25:42 -0400] "POST /myapplication/UIDL/?v-uiId=0 HTTP/1.1" 200 139
0:0:0:0:0:0:0:1 - - [21/Mar/2018:00:25:43 -0400] "POST /myapplication/UIDL/?v-uiId=0 HTTP/1.1" 200 139
0:0:0:0:0:0:0:1 - - [21/Mar/2018:00:25:44 -0400] "POST /myapplication/UIDL/?v-uiId=0 HTTP/1.1" 200 139
0:0:0:0:0:0:0:1 - - [21/Mar/2018:00:29:47 -0400] "POST /myapplication/HEARTBEAT/?v-uiId=0 HTTP/1.1" 410 1021
0:0:0:0:0:0:0:1 - - [21/Mar/2018:00:31:28 -0400] "GET /myapplication/servlet/com.example.myapplication.MyUI$MyUIServlet HTTP/1.1" 200 1861
0:0:0:0:0:0:0:1 - - [21/Mar/2018:00:31:28 -0400] "GET /myapplication/VAADIN/widgetsets/com.vaadin.DefaultWidgetSet/com.vaadin.DefaultWidgetSet.nocache.js?1521606688155 HTTP/1.1" 200 3231
0:0:0:0:0:0:0:1 - - [21/Mar/2018:00:31:28 -0400] "GET /myapplication/VAADIN/themes/mytheme/styles.css?v=8.3.1 HTTP/1.1" 200 380400
0:0:0:0:0:0:0:1 - - [21/Mar/2018:00:31:31 -0400] "POST /myapplication/servlet/com.example.myapplication.MyUI$MyUIServlet?v-1521606688156 HTTP/1.1" 200 6329
0:0:0:0:0:0:0:1 - - [21/Mar/2018:00:31:32 -0400] "POST /myapplication/UIDL/?v-uiId=0 HTTP/1.1" 200 137
0:0:0:0:0:0:0:1 - - [21/Mar/2018:00:31:49 -0400] "POST /myapplication/UIDL/?v-uiId=0 HTTP/1.1" 200 192
0:0:0:0:0:0:0:1 - - [21/Mar/2018:00:31:49 -0400] "POST /myapplication/UIDL/?v-uiId=0 HTTP/1.1" 200 137
0:0:0:0:0:0:0:1 - - [21/Mar/2018:00:31:51 -0400] "POST /myapplication/UIDL/?v-uiId=0 HTTP/1.1" 200 191
0:0:0:0:0:0:0:1 - - [21/Mar/2018:00:31:52 -0400] "POST /myapplication/UIDL/?v-uiId=0 HTTP/1.1" 200 5339
0:0:0:0:0:0:0:1 - - [21/Mar/2018:00:31:53 -0400] "POST /myapplication/UIDL/?v-uiId=0 HTTP/1.1" 200 983
0:0:0:0:0:0:0:1 - - [21/Mar/2018:00:31:54 -0400] "POST /myapplication/UIDL/?v-uiId=0 HTTP/1.1" 200 7426
0:0:0:0:0:0:0:1 - - [21/Mar/2018:00:32:03 -0400] "POST /myapplication/UIDL/?v-uiId=0 HTTP/1.1" 200 11412
0:0:0:0:0:0:0:1 - - [21/Mar/2018:00:32:14 -0400] "POST /myapplication/UIDL/?v-uiId=0 HTTP/1.1" 200 376
0:0:0:0:0:0:0:1 - - [21/Mar/2018:00:32:40 -0400] "POST /myapplication/UIDL/?v-uiId=0 HTTP/1.1" 200 139
0:0:0:0:0:0:0:1 - - [21/Mar/2018:00:32:40 -0400] "GET /myapplication/servlet/com.example.myapplication.MyUI$MyUIServlet HTTP/1.1" 200 1861
0:0:0:0:0:0:0:1 - - [21/Mar/2018:00:32:40 -0400] "POST /myapplication/UIDL/?v-uiId=0 HTTP/1.1" 200 139
0:0:0:0:0:0:0:1 - - [21/Mar/2018:00:32:40 -0400] "GET /myapplication/VAADIN/widgetsets/com.vaadin.DefaultWidgetSet/com.vaadin.DefaultWidgetSet.nocache.js?1521606760716 HTTP/1.1" 200 3231
0:0:0:0:0:0:0:1 - - [21/Mar/2018:00:32:40 -0400] "GET /myapplication/VAADIN/themes/mytheme/styles.css?v=8.3.1 HTTP/1.1" 200 380400
0:0:0:0:0:0:0:1 - - [21/Mar/2018:00:32:43 -0400] "POST /myapplication/servlet/com.example.myapplication.MyUI$MyUIServlet?v-1521606760716 HTTP/1.1" 200 6484
0:0:0:0:0:0:0:1 - - [21/Mar/2018:00:32:45 -0400] "POST /myapplication/UIDL/?v-uiId=1 HTTP/1.1" 200 235
0:0:0:0:0:0:0:1 - - [21/Mar/2018:00:33:57 -0400] "GET /myapplication/servlet/com.example.myapplication.MyUI$MyUIServlet HTTP/1.1" 200 1861
0:0:0:0:0:0:0:1 - - [21/Mar/2018:00:33:58 -0400] "GET /myapplication/VAADIN/widgetsets/com.vaadin.DefaultWidgetSet/com.vaadin.DefaultWidgetSet.nocache.js?1521606837982 HTTP/1.1" 200 3231
0:0:0:0:0:0:0:1 - - [21/Mar/2018:00:33:58 -0400] "GET /myapplication/VAADIN/themes/mytheme/styles.css?v=8.3.1 HTTP/1.1" 200 380400
0:0:0:0:0:0:0:1 - - [21/Mar/2018:00:34:00 -0400] "POST /myapplication/servlet/com.example.myapplication.MyUI$MyUIServlet?v-1521606837982 HTTP/1.1" 200 6323
0:0:0:0:0:0:0:1 - - [21/Mar/2018:00:34:03 -0400] "POST /myapplication/UIDL/?v-uiId=0 HTTP/1.1" 200 137
0:0:0:0:0:0:0:1 - - [21/Mar/2018:00:35:00 -0400] "POST /myapplication/UIDL/?v-uiId=0 HTTP/1.1" 200 190
0:0:0:0:0:0:0:1 - - [21/Mar/2018:00:35:00 -0400] "POST /myapplication/UIDL/?v-uiId=0 HTTP/1.1" 200 137
0:0:0:0:0:0:0:1 - - [21/Mar/2018:00:35:02 -0400] "POST /myapplication/UIDL/?v-uiId=0 HTTP/1.1" 200 191
0:0:0:0:0:0:0:1 - - [21/Mar/2018:00:35:02 -0400] "POST /myapplication/UIDL/?v-uiId=0 HTTP/1.1" 200 5335
0:0:0:0:0:0:0:1 - - [21/Mar/2018:00:35:02 -0400] "GET /myapplication/VAADIN/themes/valo/fonts/themeicons-webfont/themeicons-webfont.woff HTTP/1.1" 200 7868
0:0:0:0:0:0:0:1 - - [21/Mar/2018:00:35:02 -0400] "GET /myapplication/VAADIN/themes/mytheme/imagens/logo-prosaude.png HTTP/1.1" 200 21928
0:0:0:0:0:0:0:1 - - [21/Mar/2018:00:35:02 -0400] "GET /myapplication/VAADIN/themes/valo/fonts/open-sans/OpenSans-Semibold-webfont.woff HTTP/1.1" 200 22908
0:0:0:0:0:0:0:1 - - [21/Mar/2018:00:35:03 -0400] "POST /myapplication/UIDL/?v-uiId=0 HTTP/1.1" 200 983
0:0:0:0:0:0:0:1 - - [21/Mar/2018:00:35:04 -0400] "POST /myapplication/UIDL/?v-uiId=0 HTTP/1.1" 200 7422
0:0:0:0:0:0:0:1 - - [21/Mar/2018:00:35:04 -0400] "GET /myapplication/VAADIN/themes/mytheme/imagens/library/insert.png HTTP/1.1" 200 733
0:0:0:0:0:0:0:1 - - [21/Mar/2018:00:35:04 -0400] "GET /myapplication/VAADIN/themes/mytheme/imagens/library/update.png HTTP/1.1" 200 450
0:0:0:0:0:0:0:1 - - [21/Mar/2018:00:35:04 -0400] "GET /myapplication/VAADIN/themes/mytheme/imagens/library/find.png HTTP/1.1" 200 659
0:0:0:0:0:0:0:1 - - [21/Mar/2018:00:35:04 -0400] "GET /myapplication/VAADIN/themes/valo/fonts/fontawesome-webfont/fontawesome-webfont.woff HTTP/1.1" 200 83588
0:0:0:0:0:0:0:1 - - [21/Mar/2018:00:35:05 -0400] "POST /myapplication/UIDL/?v-uiId=0 HTTP/1.1" 200 11819
0:0:0:0:0:0:0:1 - - [21/Mar/2018:00:35:05 -0400] "GET /myapplication/VAADIN/themes/mytheme/imagens/library/lupa.png HTTP/1.1" 200 871
0:0:0:0:0:0:0:1 - - [21/Mar/2018:00:35:05 -0400] "GET /myapplication/VAADIN/themes/mytheme/imagens/library/money.png HTTP/1.1" 200 546
0:0:0:0:0:0:0:1 - - [21/Mar/2018:00:35:05 -0400] "GET /myapplication/VAADIN/themes/mytheme/imagens/library/cancel.png HTTP/1.1" 200 587
0:0:0:0:0:0:0:1 - - [21/Mar/2018:00:35:05 -0400] "GET /myapplication/VAADIN/themes/mytheme/imagens/library/disk.png HTTP/1.1" 200 620
0:0:0:0:0:0:0:1 - - [21/Mar/2018:00:35:25 -0400] "POST /myapplication/UIDL/?v-uiId=0 HTTP/1.1" 200 6568
0:0:0:0:0:0:0:1 - - [21/Mar/2018:00:35:25 -0400] "POST /myapplication/UIDL/?v-uiId=0 HTTP/1.1" 200 319
0:0:0:0:0:0:0:1 - - [21/Mar/2018:00:35:57 -0400] "POST /myapplication/UIDL/?v-uiId=0 HTTP/1.1" 200 139
0:0:0:0:0:0:0:1 - - [21/Mar/2018:00:35:57 -0400] "POST /myapplication/UIDL/?v-uiId=0 HTTP/1.1" 200 203
0:0:0:0:0:0:0:1 - - [21/Mar/2018:00:35:58 -0400] "POST /myapplication/UIDL/?v-uiId=0 HTTP/1.1" 200 11062
0:0:0:0:0:0:0:1 - - [21/Mar/2018:00:36:04 -0400] "POST /myapplication/UIDL/?v-uiId=0 HTTP/1.1" 200 378
0:0:0:0:0:0:0:1 - - [21/Mar/2018:00:36:07 -0400] "POST /myapplication/UIDL/?v-uiId=0 HTTP/1.1" 200 139
0:0:0:0:0:0:0:1 - - [21/Mar/2018:00:38:11 -0400] "POST /myapplication/UIDL/?v-uiId=0 HTTP/1.1" 200 235
0:0:0:0:0:0:0:1 - - [21/Mar/2018:00:38:12 -0400] "GET /myapplication/servlet/com.example.myapplication.MyUI$MyUIServlet HTTP/1.1" 200 1861
0:0:0:0:0:0:0:1 - - [21/Mar/2018:00:38:12 -0400] "GET /myapplication/VAADIN/widgetsets/com.vaadin.DefaultWidgetSet/com.vaadin.DefaultWidgetSet.nocache.js?1521607092369 HTTP/1.1" 200 3231
0:0:0:0:0:0:0:1 - - [21/Mar/2018:00:38:12 -0400] "GET /myapplication/VAADIN/themes/mytheme/styles.css?v=8.3.1 HTTP/1.1" 200 380400
0:0:0:0:0:0:0:1 - - [21/Mar/2018:00:38:14 -0400] "POST /myapplication/servlet/com.example.myapplication.MyUI$MyUIServlet?v-1521607092370 HTTP/1.1" 200 6323
0:0:0:0:0:0:0:1 - - [21/Mar/2018:00:38:15 -0400] "POST /myapplication/UIDL/?v-uiId=0 HTTP/1.1" 200 137
0:0:0:0:0:0:0:1 - - [21/Mar/2018:00:38:17 -0400] "POST /myapplication/UIDL/?v-uiId=0 HTTP/1.1" 200 190
0:0:0:0:0:0:0:1 - - [21/Mar/2018:00:38:17 -0400] "POST /myapplication/UIDL/?v-uiId=0 HTTP/1.1" 200 137
0:0:0:0:0:0:0:1 - - [21/Mar/2018:00:38:19 -0400] "POST /myapplication/UIDL/?v-uiId=0 HTTP/1.1" 200 191
0:0:0:0:0:0:0:1 - - [21/Mar/2018:00:38:20 -0400] "POST /myapplication/UIDL/?v-uiId=0 HTTP/1.1" 200 5335
0:0:0:0:0:0:0:1 - - [21/Mar/2018:00:38:21 -0400] "POST /myapplication/UIDL/?v-uiId=0 HTTP/1.1" 200 983
0:0:0:0:0:0:0:1 - - [21/Mar/2018:00:38:22 -0400] "POST /myapplication/UIDL/?v-uiId=0 HTTP/1.1" 200 7422
0:0:0:0:0:0:0:1 - - [21/Mar/2018:00:38:23 -0400] "POST /myapplication/UIDL/?v-uiId=0 HTTP/1.1" 200 11761
0:0:0:0:0:0:0:1 - - [21/Mar/2018:00:38:25 -0400] "POST /myapplication/UIDL/?v-uiId=0 HTTP/1.1" 200 6538
0:0:0:0:0:0:0:1 - - [21/Mar/2018:00:38:26 -0400] "POST /myapplication/UIDL/?v-uiId=0 HTTP/1.1" 200 139
0:0:0:0:0:0:0:1 - - [21/Mar/2018:00:38:27 -0400] "POST /myapplication/UIDL/?v-uiId=0 HTTP/1.1" 200 203
0:0:0:0:0:0:0:1 - - [21/Mar/2018:00:38:40 -0400] "POST /myapplication/UIDL/?v-uiId=0 HTTP/1.1" 200 6364
0:0:0:0:0:0:0:1 - - [21/Mar/2018:00:38:41 -0400] "POST /myapplication/UIDL/?v-uiId=0 HTTP/1.1" 200 155
0:0:0:0:0:0:0:1 - - [21/Mar/2018:00:39:58 -0400] "GET /myapplication/servlet/com.example.myapplication.MyUI$MyUIServlet HTTP/1.1" 200 1861
0:0:0:0:0:0:0:1 - - [21/Mar/2018:00:39:58 -0400] "GET /myapplication/VAADIN/widgetsets/com.vaadin.DefaultWidgetSet/com.vaadin.DefaultWidgetSet.nocache.js?1521607198252 HTTP/1.1" 200 3231
0:0:0:0:0:0:0:1 - - [21/Mar/2018:00:39:58 -0400] "GET /myapplication/VAADIN/themes/mytheme/styles.css?v=8.3.1 HTTP/1.1" 200 380400
0:0:0:0:0:0:0:1 - - [21/Mar/2018:00:40:01 -0400] "POST /myapplication/servlet/com.example.myapplication.MyUI$MyUIServlet?v-1521607198252 HTTP/1.1" 200 6324
0:0:0:0:0:0:0:1 - - [21/Mar/2018:00:40:03 -0400] "POST /myapplication/UIDL/?v-uiId=0 HTTP/1.1" 200 137
0:0:0:0:0:0:0:1 - - [21/Mar/2018:00:40:58 -0400] "POST /myapplication/UIDL/?v-uiId=0 HTTP/1.1" 200 190
0:0:0:0:0:0:0:1 - - [21/Mar/2018:00:40:58 -0400] "POST /myapplication/UIDL/?v-uiId=0 HTTP/1.1" 200 137
0:0:0:0:0:0:0:1 - - [21/Mar/2018:00:41:00 -0400] "POST /myapplication/UIDL/?v-uiId=0 HTTP/1.1" 200 190
0:0:0:0:0:0:0:1 - - [21/Mar/2018:00:41:00 -0400] "POST /myapplication/UIDL/?v-uiId=0 HTTP/1.1" 200 5337
0:0:0:0:0:0:0:1 - - [21/Mar/2018:00:41:00 -0400] "GET /myapplication/VAADIN/themes/valo/fonts/themeicons-webfont/themeicons-webfont.woff HTTP/1.1" 200 7868
0:0:0:0:0:0:0:1 - - [21/Mar/2018:00:41:00 -0400] "GET /myapplication/VAADIN/themes/mytheme/imagens/logo-prosaude.png HTTP/1.1" 200 21928
0:0:0:0:0:0:0:1 - - [21/Mar/2018:00:41:00 -0400] "GET /myapplication/VAADIN/themes/valo/fonts/open-sans/OpenSans-Semibold-webfont.woff HTTP/1.1" 200 22908
0:0:0:0:0:0:0:1 - - [21/Mar/2018:00:41:01 -0400] "POST /myapplication/UIDL/?v-uiId=0 HTTP/1.1" 200 983
0:0:0:0:0:0:0:1 - - [21/Mar/2018:00:41:02 -0400] "POST /myapplication/UIDL/?v-uiId=0 HTTP/1.1" 200 7424
0:0:0:0:0:0:0:1 - - [21/Mar/2018:00:41:02 -0400] "GET /myapplication/VAADIN/themes/mytheme/imagens/library/insert.png HTTP/1.1" 200 733
0:0:0:0:0:0:0:1 - - [21/Mar/2018:00:41:02 -0400] "GET /myapplication/VAADIN/themes/mytheme/imagens/library/update.png HTTP/1.1" 200 450
0:0:0:0:0:0:0:1 - - [21/Mar/2018:00:41:02 -0400] "GET /myapplication/VAADIN/themes/mytheme/imagens/library/find.png HTTP/1.1" 200 659
0:0:0:0:0:0:0:1 - - [21/Mar/2018:00:41:02 -0400] "GET /myapplication/VAADIN/themes/valo/fonts/fontawesome-webfont/fontawesome-webfont.woff HTTP/1.1" 200 83588
0:0:0:0:0:0:0:1 - - [21/Mar/2018:00:41:03 -0400] "POST /myapplication/UIDL/?v-uiId=0 HTTP/1.1" 200 11401
0:0:0:0:0:0:0:1 - - [21/Mar/2018:00:41:03 -0400] "GET /myapplication/VAADIN/themes/mytheme/imagens/library/lupa.png HTTP/1.1" 200 871
0:0:0:0:0:0:0:1 - - [21/Mar/2018:00:41:03 -0400] "GET /myapplication/VAADIN/themes/mytheme/imagens/library/money.png HTTP/1.1" 200 546
0:0:0:0:0:0:0:1 - - [21/Mar/2018:00:41:03 -0400] "GET /myapplication/VAADIN/themes/mytheme/imagens/library/cancel.png HTTP/1.1" 200 587
0:0:0:0:0:0:0:1 - - [21/Mar/2018:00:41:03 -0400] "GET /myapplication/VAADIN/themes/mytheme/imagens/library/disk.png HTTP/1.1" 200 620
0:0:0:0:0:0:0:1 - - [21/Mar/2018:00:41:07 -0400] "POST /myapplication/UIDL/?v-uiId=0 HTTP/1.1" 200 376
0:0:0:0:0:0:0:1 - - [21/Mar/2018:00:41:07 -0400] "POST /myapplication/UIDL/?v-uiId=0 HTTP/1.1" 200 139
0:0:0:0:0:0:0:1 - - [21/Mar/2018:00:41:07 -0400] "POST /myapplication/UIDL/?v-uiId=0 HTTP/1.1" 200 139
0:0:0:0:0:0:0:1 - - [21/Mar/2018:00:41:07 -0400] "POST /myapplication/UIDL/?v-uiId=0 HTTP/1.1" 200 139
0:0:0:0:0:0:0:1 - - [21/Mar/2018:00:41:09 -0400] "POST /myapplication/UIDL/?v-uiId=0 HTTP/1.1" 200 139
0:0:0:0:0:0:0:1 - - [21/Mar/2018:00:41:10 -0400] "POST /myapplication/UIDL/?v-uiId=0 HTTP/1.1" 200 139
0:0:0:0:0:0:0:1 - - [21/Mar/2018:00:41:13 -0400] "POST /myapplication/UIDL/?v-uiId=0 HTTP/1.1" 200 139
0:0:0:0:0:0:0:1 - - [21/Mar/2018:00:43:18 -0400] "POST /myapplication/UIDL/?v-uiId=0 HTTP/1.1" 200 235
0:0:0:0:0:0:0:1 - - [21/Mar/2018:00:43:18 -0400] "GET /myapplication/servlet/com.example.myapplication.MyUI$MyUIServlet HTTP/1.1" 200 1861
0:0:0:0:0:0:0:1 - - [21/Mar/2018:00:43:18 -0400] "GET /myapplication/VAADIN/widgetsets/com.vaadin.DefaultWidgetSet/com.vaadin.DefaultWidgetSet.nocache.js?1521607398836 HTTP/1.1" 200 3231
0:0:0:0:0:0:0:1 - - [21/Mar/2018:00:43:18 -0400] "GET /myapplication/VAADIN/themes/mytheme/styles.css?v=8.3.1 HTTP/1.1" 200 380400
0:0:0:0:0:0:0:1 - - [21/Mar/2018:00:43:21 -0400] "POST /myapplication/servlet/com.example.myapplication.MyUI$MyUIServlet?v-1521607398836 HTTP/1.1" 200 6323
0:0:0:0:0:0:0:1 - - [21/Mar/2018:00:43:21 -0400] "POST /myapplication/UIDL/?v-uiId=0 HTTP/1.1" 200 137
0:0:0:0:0:0:0:1 - - [21/Mar/2018:00:43:24 -0400] "POST /myapplication/UIDL/?v-uiId=0 HTTP/1.1" 200 190
0:0:0:0:0:0:0:1 - - [21/Mar/2018:00:43:24 -0400] "POST /myapplication/UIDL/?v-uiId=0 HTTP/1.1" 200 137
0:0:0:0:0:0:0:1 - - [21/Mar/2018:00:43:26 -0400] "POST /myapplication/UIDL/?v-uiId=0 HTTP/1.1" 200 190
0:0:0:0:0:0:0:1 - - [21/Mar/2018:00:43:26 -0400] "POST /myapplication/UIDL/?v-uiId=0 HTTP/1.1" 200 5337
0:0:0:0:0:0:0:1 - - [21/Mar/2018:00:43:27 -0400] "POST /myapplication/UIDL/?v-uiId=0 HTTP/1.1" 200 983
0:0:0:0:0:0:0:1 - - [21/Mar/2018:00:43:28 -0400] "POST /myapplication/UIDL/?v-uiId=0 HTTP/1.1" 200 7424
0:0:0:0:0:0:0:1 - - [21/Mar/2018:00:43:30 -0400] "POST /myapplication/UIDL/?v-uiId=0 HTTP/1.1" 200 11433
0:0:0:0:0:0:0:1 - - [21/Mar/2018:00:43:32 -0400] "POST /myapplication/UIDL/?v-uiId=0 HTTP/1.1" 200 523
0:0:0:0:0:0:0:1 - - [21/Mar/2018:00:43:34 -0400] "POST /myapplication/UIDL/?v-uiId=0 HTTP/1.1" 200 139
0:0:0:0:0:0:0:1 - - [21/Mar/2018:00:43:34 -0400] "POST /myapplication/UIDL/?v-uiId=0 HTTP/1.1" 200 203
0:0:0:0:0:0:0:1 - - [21/Mar/2018:00:43:35 -0400] "POST /myapplication/UIDL/?v-uiId=0 HTTP/1.1" 200 10675
0:0:0:0:0:0:0:1 - - [21/Mar/2018:00:43:36 -0400] "POST /myapplication/UIDL/?v-uiId=0 HTTP/1.1" 200 468
0:0:0:0:0:0:0:1 - - [21/Mar/2018:00:43:36 -0400] "POST /myapplication/UIDL/?v-uiId=0 HTTP/1.1" 200 272
0:0:0:0:0:0:0:1 - - [21/Mar/2018:00:43:36 -0400] "POST /myapplication/UIDL/?v-uiId=0 HTTP/1.1" 200 227
0:0:0:0:0:0:0:1 - - [21/Mar/2018:00:43:36 -0400] "POST /myapplication/UIDL/?v-uiId=0 HTTP/1.1" 200 272
0:0:0:0:0:0:0:1 - - [21/Mar/2018:00:43:37 -0400] "POST /myapplication/UIDL/?v-uiId=0 HTTP/1.1" 200 227
0:0:0:0:0:0:0:1 - - [21/Mar/2018:00:43:38 -0400] "POST /myapplication/UIDL/?v-uiId=0 HTTP/1.1" 200 227
0:0:0:0:0:0:0:1 - - [21/Mar/2018:00:43:38 -0400] "POST /myapplication/UIDL/?v-uiId=0 HTTP/1.1" 200 272
0:0:0:0:0:0:0:1 - - [21/Mar/2018:00:43:39 -0400] "POST /myapplication/UIDL/?v-uiId=0 HTTP/1.1" 200 227
0:0:0:0:0:0:0:1 - - [21/Mar/2018:00:43:39 -0400] "POST /myapplication/UIDL/?v-uiId=0 HTTP/1.1" 200 272
0:0:0:0:0:0:0:1 - - [21/Mar/2018:00:43:39 -0400] "POST /myapplication/UIDL/?v-uiId=0 HTTP/1.1" 200 227
0:0:0:0:0:0:0:1 - - [21/Mar/2018:00:43:39 -0400] "POST /myapplication/UIDL/?v-uiId=0 HTTP/1.1" 200 272
0:0:0:0:0:0:0:1 - - [21/Mar/2018:00:43:40 -0400] "POST /myapplication/UIDL/?v-uiId=0 HTTP/1.1" 200 283
0:0:0:0:0:0:0:1 - - [21/Mar/2018:00:43:42 -0400] "POST /myapplication/UIDL/?v-uiId=0 HTTP/1.1" 200 227
0:0:0:0:0:0:0:1 - - [21/Mar/2018:00:43:42 -0400] "POST /myapplication/UIDL/?v-uiId=0 HTTP/1.1" 200 272
0:0:0:0:0:0:0:1 - - [21/Mar/2018:00:43:42 -0400] "POST /myapplication/UIDL/?v-uiId=0 HTTP/1.1" 200 227
0:0:0:0:0:0:0:1 - - [21/Mar/2018:00:43:42 -0400] "POST /myapplication/UIDL/?v-uiId=0 HTTP/1.1" 200 272
0:0:0:0:0:0:0:1 - - [21/Mar/2018:00:43:42 -0400] "POST /myapplication/UIDL/?v-uiId=0 HTTP/1.1" 200 227
0:0:0:0:0:0:0:1 - - [21/Mar/2018:00:43:45 -0400] "POST /myapplication/UIDL/?v-uiId=0 HTTP/1.1" 200 227
0:0:0:0:0:0:0:1 - - [21/Mar/2018:00:43:45 -0400] "POST /myapplication/UIDL/?v-uiId=0 HTTP/1.1" 200 272
0:0:0:0:0:0:0:1 - - [21/Mar/2018:00:43:45 -0400] "POST /myapplication/UIDL/?v-uiId=0 HTTP/1.1" 200 227
0:0:0:0:0:0:0:1 - - [21/Mar/2018:00:43:45 -0400] "POST /myapplication/UIDL/?v-uiId=0 HTTP/1.1" 200 272
0:0:0:0:0:0:0:1 - - [21/Mar/2018:00:43:45 -0400] "POST /myapplication/UIDL/?v-uiId=0 HTTP/1.1" 200 227
0:0:0:0:0:0:0:1 - - [21/Mar/2018:00:43:45 -0400] "POST /myapplication/UIDL/?v-uiId=0 HTTP/1.1" 200 272
0:0:0:0:0:0:0:1 - - [21/Mar/2018:00:43:45 -0400] "POST /myapplication/UIDL/?v-uiId=0 HTTP/1.1" 200 227
0:0:0:0:0:0:0:1 - - [21/Mar/2018:00:43:45 -0400] "POST /myapplication/UIDL/?v-uiId=0 HTTP/1.1" 200 272
0:0:0:0:0:0:0:1 - - [21/Mar/2018:00:43:46 -0400] "POST /myapplication/UIDL/?v-uiId=0 HTTP/1.1" 200 227
0:0:0:0:0:0:0:1 - - [21/Mar/2018:00:43:46 -0400] "POST /myapplication/UIDL/?v-uiId=0 HTTP/1.1" 200 139
0:0:0:0:0:0:0:1 - - [21/Mar/2018:00:43:48 -0400] "POST /myapplication/UIDL/?v-uiId=0 HTTP/1.1" 200 139
0:0:0:0:0:0:0:1 - - [21/Mar/2018:00:43:49 -0400] "POST /myapplication/UIDL/?v-uiId=0 HTTP/1.1" 200 227
0:0:0:0:0:0:0:1 - - [21/Mar/2018:00:43:49 -0400] "POST /myapplication/UIDL/?v-uiId=0 HTTP/1.1" 200 272
0:0:0:0:0:0:0:1 - - [21/Mar/2018:00:43:49 -0400] "POST /myapplication/UIDL/?v-uiId=0 HTTP/1.1" 200 227
0:0:0:0:0:0:0:1 - - [21/Mar/2018:00:43:49 -0400] "POST /myapplication/UIDL/?v-uiId=0 HTTP/1.1" 200 227
0:0:0:0:0:0:0:1 - - [21/Mar/2018:00:43:50 -0400] "POST /myapplication/UIDL/?v-uiId=0 HTTP/1.1" 200 227
0:0:0:0:0:0:0:1 - - [21/Mar/2018:00:43:50 -0400] "POST /myapplication/UIDL/?v-uiId=0 HTTP/1.1" 200 6277
0:0:0:0:0:0:0:1 - - [21/Mar/2018:00:43:50 -0400] "POST /myapplication/UIDL/?v-uiId=0 HTTP/1.1" 200 139
0:0:0:0:0:0:0:1 - - [21/Mar/2018:00:43:57 -0400] "POST /myapplication/UIDL/?v-uiId=0 HTTP/1.1" 200 139
0:0:0:0:0:0:0:1 - - [21/Mar/2018:00:43:57 -0400] "POST /myapplication/UIDL/?v-uiId=0 HTTP/1.1" 200 227
0:0:0:0:0:0:0:1 - - [21/Mar/2018:00:43:57 -0400] "POST /myapplication/UIDL/?v-uiId=0 HTTP/1.1" 200 272
0:0:0:0:0:0:0:1 - - [21/Mar/2018:00:43:58 -0400] "POST /myapplication/UIDL/?v-uiId=0 HTTP/1.1" 200 227
0:0:0:0:0:0:0:1 - - [21/Mar/2018:00:43:58 -0400] "POST /myapplication/UIDL/?v-uiId=0 HTTP/1.1" 200 272
0:0:0:0:0:0:0:1 - - [21/Mar/2018:00:43:58 -0400] "POST /myapplication/UIDL/?v-uiId=0 HTTP/1.1" 200 227
0:0:0:0:0:0:0:1 - - [21/Mar/2018:00:43:58 -0400] "POST /myapplication/UIDL/?v-uiId=0 HTTP/1.1" 200 272
0:0:0:0:0:0:0:1 - - [21/Mar/2018:00:43:58 -0400] "POST /myapplication/UIDL/?v-uiId=0 HTTP/1.1" 200 227
0:0:0:0:0:0:0:1 - - [21/Mar/2018:00:43:58 -0400] "POST /myapplication/UIDL/?v-uiId=0 HTTP/1.1" 200 272
0:0:0:0:0:0:0:1 - - [21/Mar/2018:00:44:01 -0400] "POST /myapplication/UIDL/?v-uiId=0 HTTP/1.1" 200 283
0:0:0:0:0:0:0:1 - - [21/Mar/2018:00:44:03 -0400] "POST /myapplication/UIDL/?v-uiId=0 HTTP/1.1" 200 139
0:0:0:0:0:0:0:1 - - [21/Mar/2018:00:44:35 -0400] "POST /myapplication/UIDL/?v-uiId=0 HTTP/1.1" 200 227
0:0:0:0:0:0:0:1 - - [21/Mar/2018:00:44:35 -0400] "POST /myapplication/UIDL/?v-uiId=0 HTTP/1.1" 200 272
0:0:0:0:0:0:0:1 - - [21/Mar/2018:00:44:36 -0400] "POST /myapplication/UIDL/?v-uiId=0 HTTP/1.1" 200 227
0:0:0:0:0:0:0:1 - - [21/Mar/2018:00:44:36 -0400] "POST /myapplication/UIDL/?v-uiId=0 HTTP/1.1" 200 272
0:0:0:0:0:0:0:1 - - [21/Mar/2018:00:44:37 -0400] "POST /myapplication/UIDL/?v-uiId=0 HTTP/1.1" 200 227
0:0:0:0:0:0:0:1 - - [21/Mar/2018:00:44:37 -0400] "POST /myapplication/UIDL/?v-uiId=0 HTTP/1.1" 200 272
0:0:0:0:0:0:0:1 - - [21/Mar/2018:00:44:37 -0400] "POST /myapplication/UIDL/?v-uiId=0 HTTP/1.1" 200 227
0:0:0:0:0:0:0:1 - - [21/Mar/2018:00:44:37 -0400] "POST /myapplication/UIDL/?v-uiId=0 HTTP/1.1" 200 272
0:0:0:0:0:0:0:1 - - [21/Mar/2018:00:44:37 -0400] "POST /myapplication/UIDL/?v-uiId=0 HTTP/1.1" 200 139
0:0:0:0:0:0:0:1 - - [21/Mar/2018:00:44:39 -0400] "POST /myapplication/UIDL/?v-uiId=0 HTTP/1.1" 200 139
0:0:0:0:0:0:0:1 - - [21/Mar/2018:00:44:48 -0400] "POST /myapplication/UIDL/?v-uiId=0 HTTP/1.1" 200 139
0:0:0:0:0:0:0:1 - - [21/Mar/2018:00:44:48 -0400] "POST /myapplication/UIDL/?v-uiId=0 HTTP/1.1" 200 227
0:0:0:0:0:0:0:1 - - [21/Mar/2018:00:44:48 -0400] "POST /myapplication/UIDL/?v-uiId=0 HTTP/1.1" 200 227
0:0:0:0:0:0:0:1 - - [21/Mar/2018:00:44:49 -0400] "POST /myapplication/UIDL/?v-uiId=0 HTTP/1.1" 200 227
0:0:0:0:0:0:0:1 - - [21/Mar/2018:00:44:49 -0400] "POST /myapplication/UIDL/?v-uiId=0 HTTP/1.1" 200 227
0:0:0:0:0:0:0:1 - - [21/Mar/2018:00:44:49 -0400] "POST /myapplication/UIDL/?v-uiId=0 HTTP/1.1" 200 139
0:0:0:0:0:0:0:1 - - [21/Mar/2018:00:44:50 -0400] "POST /myapplication/UIDL/?v-uiId=0 HTTP/1.1" 200 139
0:0:0:0:0:0:0:1 - - [21/Mar/2018:00:44:50 -0400] "POST /myapplication/UIDL/?v-uiId=0 HTTP/1.1" 200 203
0:0:0:0:0:0:0:1 - - [21/Mar/2018:00:44:51 -0400] "POST /myapplication/UIDL/?v-uiId=0 HTTP/1.1" 200 10676
0:0:0:0:0:0:0:1 - - [21/Mar/2018:00:44:52 -0400] "POST /myapplication/UIDL/?v-uiId=0 HTTP/1.1" 200 470
0:0:0:0:0:0:0:1 - - [21/Mar/2018:00:44:52 -0400] "POST /myapplication/UIDL/?v-uiId=0 HTTP/1.1" 200 272
0:0:0:0:0:0:0:1 - - [21/Mar/2018:00:44:53 -0400] "POST /myapplication/UIDL/?v-uiId=0 HTTP/1.1" 200 227
0:0:0:0:0:0:0:1 - - [21/Mar/2018:00:44:53 -0400] "POST /myapplication/UIDL/?v-uiId=0 HTTP/1.1" 200 272
0:0:0:0:0:0:0:1 - - [21/Mar/2018:00:45:02 -0400] "POST /myapplication/UIDL/?v-uiId=0 HTTP/1.1" 200 283
0:0:0:0:0:0:0:1 - - [21/Mar/2018:00:45:02 -0400] "POST /myapplication/UIDL/?v-uiId=0 HTTP/1.1" 200 139
0:0:0:0:0:0:0:1 - - [21/Mar/2018:00:45:05 -0400] "POST /myapplication/UIDL/?v-uiId=0 HTTP/1.1" 200 139
0:0:0:0:0:0:0:1 - - [21/Mar/2018:00:45:05 -0400] "POST /myapplication/UIDL/?v-uiId=0 HTTP/1.1" 200 203
0:0:0:0:0:0:0:1 - - [21/Mar/2018:00:45:06 -0400] "POST /myapplication/UIDL/?v-uiId=0 HTTP/1.1" 200 10677
0:0:0:0:0:0:0:1 - - [21/Mar/2018:00:45:07 -0400] "POST /myapplication/UIDL/?v-uiId=0 HTTP/1.1" 200 470
0:0:0:0:0:0:0:1 - - [21/Mar/2018:00:45:07 -0400] "POST /myapplication/UIDL/?v-uiId=0 HTTP/1.1" 200 272
0:0:0:0:0:0:0:1 - - [21/Mar/2018:00:45:07 -0400] "POST /myapplication/UIDL/?v-uiId=0 HTTP/1.1" 200 227
0:0:0:0:0:0:0:1 - - [21/Mar/2018:00:45:07 -0400] "POST /myapplication/UIDL/?v-uiId=0 HTTP/1.1" 200 272
0:0:0:0:0:0:0:1 - - [21/Mar/2018:00:45:09 -0400] "POST /myapplication/UIDL/?v-uiId=0 HTTP/1.1" 200 227
0:0:0:0:0:0:0:1 - - [21/Mar/2018:00:45:09 -0400] "POST /myapplication/UIDL/?v-uiId=0 HTTP/1.1" 200 272
0:0:0:0:0:0:0:1 - - [21/Mar/2018:00:45:09 -0400] "POST /myapplication/UIDL/?v-uiId=0 HTTP/1.1" 200 227
0:0:0:0:0:0:0:1 - - [21/Mar/2018:00:45:09 -0400] "POST /myapplication/UIDL/?v-uiId=0 HTTP/1.1" 200 272
0:0:0:0:0:0:0:1 - - [21/Mar/2018:00:45:09 -0400] "POST /myapplication/UIDL/?v-uiId=0 HTTP/1.1" 200 227
0:0:0:0:0:0:0:1 - - [21/Mar/2018:00:45:09 -0400] "POST /myapplication/UIDL/?v-uiId=0 HTTP/1.1" 200 272
0:0:0:0:0:0:0:1 - - [21/Mar/2018:00:45:10 -0400] "POST /myapplication/UIDL/?v-uiId=0 HTTP/1.1" 200 227
0:0:0:0:0:0:0:1 - - [21/Mar/2018:00:45:10 -0400] "POST /myapplication/UIDL/?v-uiId=0 HTTP/1.1" 200 272
0:0:0:0:0:0:0:1 - - [21/Mar/2018:00:45:10 -0400] "POST /myapplication/UIDL/?v-uiId=0 HTTP/1.1" 200 227
0:0:0:0:0:0:0:1 - - [21/Mar/2018:00:45:10 -0400] "POST /myapplication/UIDL/?v-uiId=0 HTTP/1.1" 200 274
0:0:0:0:0:0:0:1 - - [21/Mar/2018:00:45:10 -0400] "POST /myapplication/UIDL/?v-uiId=0 HTTP/1.1" 200 229
0:0:0:0:0:0:0:1 - - [21/Mar/2018:00:45:10 -0400] "POST /myapplication/UIDL/?v-uiId=0 HTTP/1.1" 200 274
0:0:0:0:0:0:0:1 - - [21/Mar/2018:00:45:10 -0400] "POST /myapplication/UIDL/?v-uiId=0 HTTP/1.1" 200 229
0:0:0:0:0:0:0:1 - - [21/Mar/2018:00:45:10 -0400] "POST /myapplication/UIDL/?v-uiId=0 HTTP/1.1" 200 274
0:0:0:0:0:0:0:1 - - [21/Mar/2018:00:45:10 -0400] "POST /myapplication/UIDL/?v-uiId=0 HTTP/1.1" 200 229
0:0:0:0:0:0:0:1 - - [21/Mar/2018:00:45:10 -0400] "POST /myapplication/UIDL/?v-uiId=0 HTTP/1.1" 200 274
0:0:0:0:0:0:0:1 - - [21/Mar/2018:00:45:10 -0400] "POST /myapplication/UIDL/?v-uiId=0 HTTP/1.1" 200 229
0:0:0:0:0:0:0:1 - - [21/Mar/2018:00:45:10 -0400] "POST /myapplication/UIDL/?v-uiId=0 HTTP/1.1" 200 274
127.0.0.1 - - [21/Mar/2018:00:49:00 -0400] "GET / HTTP/1.1" 404 951
0:0:0:0:0:0:0:1 - - [21/Mar/2018:00:49:00 -0400] "GET /myapplication/servlet/com.example.myapplication.MyUI$MyUIServlet HTTP/1.1" 200 1912
0:0:0:0:0:0:0:1 - - [21/Mar/2018:00:50:15 -0400] "GET /myapplication/servlet/com.example.myapplication.MyUI$MyUIServlet HTTP/1.1" 200 1861
0:0:0:0:0:0:0:1 - - [21/Mar/2018:00:50:15 -0400] "GET /myapplication/VAADIN/widgetsets/com.vaadin.DefaultWidgetSet/com.vaadin.DefaultWidgetSet.nocache.js?1521607815016 HTTP/1.1" 200 3231
0:0:0:0:0:0:0:1 - - [21/Mar/2018:00:50:15 -0400] "GET /myapplication/VAADIN/themes/mytheme/styles.css?v=8.3.1 HTTP/1.1" 200 380400
0:0:0:0:0:0:0:1 - - [21/Mar/2018:00:50:15 -0400] "GET /myapplication/VAADIN/themes/valo/shared/img/spinner.gif HTTP/1.1" 200 7194
0:0:0:0:0:0:0:1 - - [21/Mar/2018:00:50:15 -0400] "GET /myapplication/VAADIN/themes/valo/fonts/open-sans/OpenSans-Light-webfont.woff HTTP/1.1" 200 22248
0:0:0:0:0:0:0:1 - - [21/Mar/2018:00:50:15 -0400] "GET /myapplication/VAADIN/themes/mytheme/favicon.ico HTTP/1.1" 200 31005
0:0:0:0:0:0:0:1 - - [21/Mar/2018:00:50:18 -0400] "POST /myapplication/servlet/com.example.myapplication.MyUI$MyUIServlet?v-1521607815016 HTTP/1.1" 200 6325
0:0:0:0:0:0:0:1 - - [21/Mar/2018:00:50:18 -0400] "GET /myapplication/VAADIN/themes/valo/fonts/open-sans/OpenSans-Regular-webfont.woff HTTP/1.1" 200 22660
0:0:0:0:0:0:0:1 - - [21/Mar/2018:00:50:18 -0400] "POST /myapplication/UIDL/?v-uiId=0 HTTP/1.1" 200 137
0:0:0:0:0:0:0:1 - - [21/Mar/2018:00:50:21 -0400] "POST /myapplication/UIDL/?v-uiId=0 HTTP/1.1" 200 190
0:0:0:0:0:0:0:1 - - [21/Mar/2018:00:50:21 -0400] "POST /myapplication/UIDL/?v-uiId=0 HTTP/1.1" 200 137
0:0:0:0:0:0:0:1 - - [21/Mar/2018:00:50:23 -0400] "POST /myapplication/UIDL/?v-uiId=0 HTTP/1.1" 200 191
0:0:0:0:0:0:0:1 - - [21/Mar/2018:00:50:23 -0400] "POST /myapplication/UIDL/?v-uiId=0 HTTP/1.1" 200 5339
0:0:0:0:0:0:0:1 - - [21/Mar/2018:00:50:24 -0400] "GET /myapplication/VAADIN/themes/valo/fonts/themeicons-webfont/themeicons-webfont.woff HTTP/1.1" 200 7868
0:0:0:0:0:0:0:1 - - [21/Mar/2018:00:50:24 -0400] "GET /myapplication/VAADIN/themes/mytheme/imagens/logo-prosaude.png HTTP/1.1" 200 21928
0:0:0:0:0:0:0:1 - - [21/Mar/2018:00:50:24 -0400] "GET /myapplication/VAADIN/themes/valo/fonts/open-sans/OpenSans-Semibold-webfont.woff HTTP/1.1" 200 22908
0:0:0:0:0:0:0:1 - - [21/Mar/2018:00:50:25 -0400] "POST /myapplication/UIDL/?v-uiId=0 HTTP/1.1" 200 983
0:0:0:0:0:0:0:1 - - [21/Mar/2018:00:50:26 -0400] "POST /myapplication/UIDL/?v-uiId=0 HTTP/1.1" 200 7426
0:0:0:0:0:0:0:1 - - [21/Mar/2018:00:50:26 -0400] "GET /myapplication/VAADIN/themes/mytheme/imagens/library/insert.png HTTP/1.1" 200 733
0:0:0:0:0:0:0:1 - - [21/Mar/2018:00:50:26 -0400] "GET /myapplication/VAADIN/themes/mytheme/imagens/library/update.png HTTP/1.1" 200 450
0:0:0:0:0:0:0:1 - - [21/Mar/2018:00:50:26 -0400] "GET /myapplication/VAADIN/themes/mytheme/imagens/library/find.png HTTP/1.1" 200 659
0:0:0:0:0:0:0:1 - - [21/Mar/2018:00:50:26 -0400] "GET /myapplication/VAADIN/themes/valo/fonts/fontawesome-webfont/fontawesome-webfont.woff HTTP/1.1" 200 83588
0:0:0:0:0:0:0:1 - - [21/Mar/2018:00:50:26 -0400] "POST /myapplication/UIDL/?v-uiId=0 HTTP/1.1" 200 11444
0:0:0:0:0:0:0:1 - - [21/Mar/2018:00:50:27 -0400] "GET /myapplication/VAADIN/themes/mytheme/imagens/library/lupa.png HTTP/1.1" 200 871
0:0:0:0:0:0:0:1 - - [21/Mar/2018:00:50:27 -0400] "GET /myapplication/VAADIN/themes/mytheme/imagens/library/money.png HTTP/1.1" 200 546
0:0:0:0:0:0:0:1 - - [21/Mar/2018:00:50:27 -0400] "GET /myapplication/VAADIN/themes/mytheme/imagens/library/cancel.png HTTP/1.1" 200 587
0:0:0:0:0:0:0:1 - - [21/Mar/2018:00:50:27 -0400] "GET /myapplication/VAADIN/themes/mytheme/imagens/library/disk.png HTTP/1.1" 200 620
0:0:0:0:0:0:0:1 - - [21/Mar/2018:00:50:31 -0400] "POST /myapplication/UIDL/?v-uiId=0 HTTP/1.1" 200 466
0:0:0:0:0:0:0:1 - - [21/Mar/2018:00:50:31 -0400] "POST /myapplication/UIDL/?v-uiId=0 HTTP/1.1" 200 272
0:0:0:0:0:0:0:1 - - [21/Mar/2018:00:50:32 -0400] "POST /myapplication/UIDL/?v-uiId=0 HTTP/1.1" 200 227
0:0:0:0:0:0:0:1 - - [21/Mar/2018:00:50:32 -0400] "POST /myapplication/UIDL/?v-uiId=0 HTTP/1.1" 200 227
0:0:0:0:0:0:0:1 - - [21/Mar/2018:00:50:32 -0400] "POST /myapplication/UIDL/?v-uiId=0 HTTP/1.1" 200 227
0:0:0:0:0:0:0:1 - - [21/Mar/2018:00:50:33 -0400] "POST /myapplication/UIDL/?v-uiId=0 HTTP/1.1" 200 227
0:0:0:0:0:0:0:1 - - [21/Mar/2018:00:50:33 -0400] "POST /myapplication/UIDL/?v-uiId=0 HTTP/1.1" 200 227
0:0:0:0:0:0:0:1 - - [21/Mar/2018:00:50:35 -0400] "POST /myapplication/UIDL/?v-uiId=0 HTTP/1.1" 200 139
0:0:0:0:0:0:0:1 - - [21/Mar/2018:00:50:37 -0400] "POST /myapplication/UIDL/?v-uiId=0 HTTP/1.1" 200 227
0:0:0:0:0:0:0:1 - - [21/Mar/2018:00:50:38 -0400] "POST /myapplication/UIDL/?v-uiId=0 HTTP/1.1" 200 227
0:0:0:0:0:0:0:1 - - [21/Mar/2018:00:50:38 -0400] "POST /myapplication/UIDL/?v-uiId=0 HTTP/1.1" 200 227
0:0:0:0:0:0:0:1 - - [21/Mar/2018:00:50:38 -0400] "POST /myapplication/UIDL/?v-uiId=0 HTTP/1.1" 200 227
0:0:0:0:0:0:0:1 - - [21/Mar/2018:00:50:38 -0400] "POST /myapplication/UIDL/?v-uiId=0 HTTP/1.1" 200 227
0:0:0:0:0:0:0:1 - - [21/Mar/2018:00:50:38 -0400] "POST /myapplication/UIDL/?v-uiId=0 HTTP/1.1" 200 139
0:0:0:0:0:0:0:1 - - [21/Mar/2018:00:50:38 -0400] "POST /myapplication/UIDL/?v-uiId=0 HTTP/1.1" 200 139
0:0:0:0:0:0:0:1 - - [21/Mar/2018:00:50:39 -0400] "POST /myapplication/UIDL/?v-uiId=0 HTTP/1.1" 200 139
0:0:0:0:0:0:0:1 - - [21/Mar/2018:00:50:40 -0400] "POST /myapplication/UIDL/?v-uiId=0 HTTP/1.1" 200 227
0:0:0:0:0:0:0:1 - - [21/Mar/2018:00:50:40 -0400] "POST /myapplication/UIDL/?v-uiId=0 HTTP/1.1" 200 272
0:0:0:0:0:0:0:1 - - [21/Mar/2018:00:50:40 -0400] "POST /myapplication/UIDL/?v-uiId=0 HTTP/1.1" 200 227
0:0:0:0:0:0:0:1 - - [21/Mar/2018:00:50:40 -0400] "POST /myapplication/UIDL/?v-uiId=0 HTTP/1.1" 200 272
0:0:0:0:0:0:0:1 - - [21/Mar/2018:00:50:48 -0400] "POST /myapplication/UIDL/?v-uiId=0 HTTP/1.1" 200 283
0:0:0:0:0:0:0:1 - - [21/Mar/2018:00:50:48 -0400] "POST /myapplication/UIDL/?v-uiId=0 HTTP/1.1" 200 139
0:0:0:0:0:0:0:1 - - [21/Mar/2018:00:51:29 -0400] "POST /myapplication/UIDL/?v-uiId=0 HTTP/1.1" 200 139
0:0:0:0:0:0:0:1 - - [21/Mar/2018:00:55:18 -0400] "POST /myapplication/HEARTBEAT/?v-uiId=0 HTTP/1.1" 200 -
127.0.0.1 - - [21/Mar/2018:07:55:49 -0400] "GET / HTTP/1.1" 404 951
0:0:0:0:0:0:0:1 - - [21/Mar/2018:07:55:50 -0400] "GET /myapplication/servlet/com.example.myapplication.MyUI$MyUIServlet HTTP/1.1" 200 1912
0:0:0:0:0:0:0:1 - - [21/Mar/2018:07:56:01 -0400] "GET /myapplication/servlet/com.example.myapplication.MyUI$MyUIServlet HTTP/1.1" 200 1861
0:0:0:0:0:0:0:1 - - [21/Mar/2018:07:56:01 -0400] "GET /myapplication/VAADIN/vaadinBootstrap.js?v=8.3.1 HTTP/1.1" 200 3837
0:0:0:0:0:0:0:1 - - [21/Mar/2018:07:56:01 -0400] "GET /myapplication/VAADIN/themes/mytheme/styles.css?v=8.3.1 HTTP/1.1" 200 380400
0:0:0:0:0:0:0:1 - - [21/Mar/2018:07:56:01 -0400] "GET /myapplication/VAADIN/widgetsets/com.vaadin.DefaultWidgetSet/com.vaadin.DefaultWidgetSet.nocache.js?1521633361795 HTTP/1.1" 200 3231
0:0:0:0:0:0:0:1 - - [21/Mar/2018:07:56:01 -0400] "GET /myapplication/VAADIN/themes/valo/shared/img/spinner.gif HTTP/1.1" 200 7194
0:0:0:0:0:0:0:1 - - [21/Mar/2018:07:56:01 -0400] "GET /myapplication/VAADIN/themes/valo/fonts/open-sans/OpenSans-Light-webfont.woff HTTP/1.1" 200 22248
0:0:0:0:0:0:0:1 - - [21/Mar/2018:07:56:01 -0400] "GET /myapplication/VAADIN/widgetsets/com.vaadin.DefaultWidgetSet/99065197202814696C2A1A56BF276C09.cache.js HTTP/1.1" 200 352405
0:0:0:0:0:0:0:1 - - [21/Mar/2018:07:56:02 -0400] "GET /myapplication/VAADIN/themes/mytheme/favicon.ico HTTP/1.1" 200 31005
0:0:0:0:0:0:0:1 - - [21/Mar/2018:07:56:36 -0400] "POST /myapplication/servlet/com.example.myapplication.MyUI$MyUIServlet?v-1521633361795 HTTP/1.1" 200 6323
0:0:0:0:0:0:0:1 - - [21/Mar/2018:07:56:36 -0400] "GET /myapplication/VAADIN/widgetsets/com.vaadin.DefaultWidgetSet/deferredjs/99065197202814696C2A1A56BF276C09/8.cache.js HTTP/1.1" 200 1196
0:0:0:0:0:0:0:1 - - [21/Mar/2018:07:56:36 -0400] "GET /myapplication/VAADIN/themes/valo/fonts/open-sans/OpenSans-Regular-webfont.woff HTTP/1.1" 200 22660
0:0:0:0:0:0:0:1 - - [21/Mar/2018:07:56:36 -0400] "POST /myapplication/UIDL/?v-uiId=0 HTTP/1.1" 200 137
0:0:0:0:0:0:0:1 - - [21/Mar/2018:07:56:36 -0400] "GET /myapplication/VAADIN/widgetsets/com.vaadin.DefaultWidgetSet/deferredjs/99065197202814696C2A1A56BF276C09/2.cache.js HTTP/1.1" 200 183
0:0:0:0:0:0:0:1 - - [21/Mar/2018:07:56:43 -0400] "POST /myapplication/UIDL/?v-uiId=0 HTTP/1.1" 200 190
0:0:0:0:0:0:0:1 - - [21/Mar/2018:07:56:43 -0400] "POST /myapplication/UIDL/?v-uiId=0 HTTP/1.1" 200 137
0:0:0:0:0:0:0:1 - - [21/Mar/2018:07:56:46 -0400] "POST /myapplication/UIDL/?v-uiId=0 HTTP/1.1" 200 191
0:0:0:0:0:0:0:1 - - [21/Mar/2018:07:56:46 -0400] "POST /myapplication/UIDL/?v-uiId=0 HTTP/1.1" 200 5337
0:0:0:0:0:0:0:1 - - [21/Mar/2018:07:56:46 -0400] "GET /myapplication/VAADIN/themes/valo/fonts/themeicons-webfont/themeicons-webfont.woff HTTP/1.1" 200 7868
0:0:0:0:0:0:0:1 - - [21/Mar/2018:07:56:46 -0400] "GET /myapplication/VAADIN/themes/valo/fonts/open-sans/OpenSans-Semibold-webfont.woff HTTP/1.1" 200 22908
0:0:0:0:0:0:0:1 - - [21/Mar/2018:07:56:46 -0400] "GET /myapplication/VAADIN/themes/mytheme/imagens/logo-prosaude.png HTTP/1.1" 200 21928
0:0:0:0:0:0:0:1 - - [21/Mar/2018:07:56:48 -0400] "POST /myapplication/UIDL/?v-uiId=0 HTTP/1.1" 200 983
0:0:0:0:0:0:0:1 - - [21/Mar/2018:07:56:49 -0400] "POST /myapplication/UIDL/?v-uiId=0 HTTP/1.1" 200 7424
0:0:0:0:0:0:0:1 - - [21/Mar/2018:07:56:49 -0400] "GET /myapplication/VAADIN/themes/mytheme/imagens/library/update.png HTTP/1.1" 200 450
0:0:0:0:0:0:0:1 - - [21/Mar/2018:07:56:49 -0400] "GET /myapplication/VAADIN/themes/mytheme/imagens/library/insert.png HTTP/1.1" 200 733
0:0:0:0:0:0:0:1 - - [21/Mar/2018:07:56:49 -0400] "GET /myapplication/VAADIN/themes/valo/fonts/fontawesome-webfont/fontawesome-webfont.woff HTTP/1.1" 200 83588
0:0:0:0:0:0:0:1 - - [21/Mar/2018:07:56:49 -0400] "GET /myapplication/VAADIN/themes/mytheme/imagens/library/find.png HTTP/1.1" 200 659
0:0:0:0:0:0:0:1 - - [21/Mar/2018:07:56:51 -0400] "POST /myapplication/UIDL/?v-uiId=0 HTTP/1.1" 200 11368
0:0:0:0:0:0:0:1 - - [21/Mar/2018:07:56:51 -0400] "GET /myapplication/VAADIN/themes/mytheme/imagens/library/money.png HTTP/1.1" 200 546
0:0:0:0:0:0:0:1 - - [21/Mar/2018:07:56:51 -0400] "GET /myapplication/VAADIN/themes/mytheme/imagens/library/disk.png HTTP/1.1" 200 620
0:0:0:0:0:0:0:1 - - [21/Mar/2018:07:56:51 -0400] "GET /myapplication/VAADIN/themes/mytheme/imagens/library/lupa.png HTTP/1.1" 200 871
0:0:0:0:0:0:0:1 - - [21/Mar/2018:07:56:51 -0400] "GET /myapplication/VAADIN/themes/mytheme/imagens/library/cancel.png HTTP/1.1" 200 587
0:0:0:0:0:0:0:1 - - [21/Mar/2018:07:56:54 -0400] "POST /myapplication/UIDL/?v-uiId=0 HTTP/1.1" 200 656
0:0:0:0:0:0:0:1 - - [21/Mar/2018:07:56:56 -0400] "POST /myapplication/UIDL/?v-uiId=0 HTTP/1.1" 200 378
0:0:0:0:0:0:0:1 - - [21/Mar/2018:07:57:00 -0400] "POST /myapplication/UIDL/?v-uiId=0 HTTP/1.1" 200 139
0:0:0:0:0:0:0:1 - - [21/Mar/2018:07:57:02 -0400] "POST /myapplication/UIDL/?v-uiId=0 HTTP/1.1" 200 139
0:0:0:0:0:0:0:1 - - [21/Mar/2018:08:01:37 -0400] "POST /myapplication/HEARTBEAT/?v-uiId=0 HTTP/1.1" 410 1021
0:0:0:0:0:0:0:1 - - [21/Mar/2018:08:02:52 -0400] "GET /myapplication/servlet/com.example.myapplication.MyUI$MyUIServlet HTTP/1.1" 200 1861
0:0:0:0:0:0:0:1 - - [21/Mar/2018:08:02:52 -0400] "GET /myapplication/VAADIN/vaadinBootstrap.js?v=8.3.1 HTTP/1.1" 200 3837
0:0:0:0:0:0:0:1 - - [21/Mar/2018:08:02:52 -0400] "GET /myapplication/VAADIN/widgetsets/com.vaadin.DefaultWidgetSet/com.vaadin.DefaultWidgetSet.nocache.js?1521633772789 HTTP/1.1" 200 3231
0:0:0:0:0:0:0:1 - - [21/Mar/2018:08:02:52 -0400] "GET /myapplication/VAADIN/themes/mytheme/styles.css?v=8.3.1 HTTP/1.1" 200 380400
0:0:0:0:0:0:0:1 - - [21/Mar/2018:08:02:52 -0400] "GET /myapplication/VAADIN/widgetsets/com.vaadin.DefaultWidgetSet/99065197202814696C2A1A56BF276C09.cache.js HTTP/1.1" 200 352405
0:0:0:0:0:0:0:1 - - [21/Mar/2018:08:02:56 -0400] "POST /myapplication/servlet/com.example.myapplication.MyUI$MyUIServlet?v-1521633772789 HTTP/1.1" 200 6324
0:0:0:0:0:0:0:1 - - [21/Mar/2018:08:02:56 -0400] "GET /myapplication/VAADIN/widgetsets/com.vaadin.DefaultWidgetSet/deferredjs/99065197202814696C2A1A56BF276C09/8.cache.js HTTP/1.1" 200 1196
0:0:0:0:0:0:0:1 - - [21/Mar/2018:08:02:56 -0400] "POST /myapplication/UIDL/?v-uiId=0 HTTP/1.1" 200 137
0:0:0:0:0:0:0:1 - - [21/Mar/2018:08:02:56 -0400] "GET /myapplication/VAADIN/widgetsets/com.vaadin.DefaultWidgetSet/deferredjs/99065197202814696C2A1A56BF276C09/2.cache.js HTTP/1.1" 200 183
0:0:0:0:0:0:0:1 - - [21/Mar/2018:08:02:59 -0400] "POST /myapplication/UIDL/?v-uiId=0 HTTP/1.1" 200 191
0:0:0:0:0:0:0:1 - - [21/Mar/2018:08:02:59 -0400] "POST /myapplication/UIDL/?v-uiId=0 HTTP/1.1" 200 137
0:0:0:0:0:0:0:1 - - [21/Mar/2018:08:03:02 -0400] "POST /myapplication/UIDL/?v-uiId=0 HTTP/1.1" 200 190
0:0:0:0:0:0:0:1 - - [21/Mar/2018:08:03:02 -0400] "POST /myapplication/UIDL/?v-uiId=0 HTTP/1.1" 200 5337
0:0:0:0:0:0:0:1 - - [21/Mar/2018:08:03:03 -0400] "POST /myapplication/UIDL/?v-uiId=0 HTTP/1.1" 200 983
0:0:0:0:0:0:0:1 - - [21/Mar/2018:08:03:04 -0400] "POST /myapplication/UIDL/?v-uiId=0 HTTP/1.1" 200 7424
0:0:0:0:0:0:0:1 - - [21/Mar/2018:08:03:06 -0400] "POST /myapplication/UIDL/?v-uiId=0 HTTP/1.1" 200 11375
0:0:0:0:0:0:0:1 - - [21/Mar/2018:08:03:08 -0400] "POST /myapplication/UIDL/?v-uiId=0 HTTP/1.1" 200 655
0:0:0:0:0:0:0:1 - - [21/Mar/2018:08:03:09 -0400] "POST /myapplication/UIDL/?v-uiId=0 HTTP/1.1" 200 381
0:0:0:0:0:0:0:1 - - [21/Mar/2018:08:03:10 -0400] "POST /myapplication/UIDL/?v-uiId=0 HTTP/1.1" 200 139
0:0:0:0:0:0:0:1 - - [21/Mar/2018:08:03:13 -0400] "POST /myapplication/UIDL/?v-uiId=0 HTTP/1.1" 200 200
0:0:0:0:0:0:0:1 - - [21/Mar/2018:08:03:13 -0400] "POST /myapplication/UIDL/?v-uiId=0 HTTP/1.1" 200 139
0:0:0:0:0:0:0:1 - - [21/Mar/2018:08:04:42 -0400] "POST /myapplication/UIDL/?v-uiId=0 HTTP/1.1" 200 235
0:0:0:0:0:0:0:1 - - [21/Mar/2018:08:05:04 -0400] "GET /myapplication/servlet/com.example.myapplication.MyUI$MyUIServlet HTTP/1.1" 200 1861
0:0:0:0:0:0:0:1 - - [21/Mar/2018:08:05:04 -0400] "GET /myapplication/VAADIN/widgetsets/com.vaadin.DefaultWidgetSet/com.vaadin.DefaultWidgetSet.nocache.js?1521633904198 HTTP/1.1" 200 3231
0:0:0:0:0:0:0:1 - - [21/Mar/2018:08:05:06 -0400] "POST /myapplication/servlet/com.example.myapplication.MyUI$MyUIServlet?v-1521633904198 HTTP/1.1" 200 6324
0:0:0:0:0:0:0:1 - - [21/Mar/2018:08:05:07 -0400] "POST /myapplication/UIDL/?v-uiId=0 HTTP/1.1" 200 137
0:0:0:0:0:0:0:1 - - [21/Mar/2018:08:05:10 -0400] "POST /myapplication/UIDL/?v-uiId=0 HTTP/1.1" 200 190
0:0:0:0:0:0:0:1 - - [21/Mar/2018:08:05:10 -0400] "POST /myapplication/UIDL/?v-uiId=0 HTTP/1.1" 200 137
0:0:0:0:0:0:0:1 - - [21/Mar/2018:08:05:12 -0400] "POST /myapplication/UIDL/?v-uiId=0 HTTP/1.1" 200 310
0:0:0:0:0:0:0:1 - - [21/Mar/2018:08:05:12 -0400] "POST /myapplication/UIDL/?v-uiId=0 HTTP/1.1" 200 211
0:0:0:0:0:0:0:1 - - [21/Mar/2018:08:05:16 -0400] "POST /myapplication/UIDL/?v-uiId=0 HTTP/1.1" 200 267
0:0:0:0:0:0:0:1 - - [21/Mar/2018:08:05:16 -0400] "POST /myapplication/UIDL/?v-uiId=0 HTTP/1.1" 200 5335
0:0:0:0:0:0:0:1 - - [21/Mar/2018:08:05:17 -0400] "POST /myapplication/UIDL/?v-uiId=0 HTTP/1.1" 200 983
0:0:0:0:0:0:0:1 - - [21/Mar/2018:08:05:18 -0400] "POST /myapplication/UIDL/?v-uiId=0 HTTP/1.1" 200 7422
0:0:0:0:0:0:0:1 - - [21/Mar/2018:08:05:19 -0400] "POST /myapplication/UIDL/?v-uiId=0 HTTP/1.1" 200 11533
0:0:0:0:0:0:0:1 - - [21/Mar/2018:08:05:22 -0400] "POST /myapplication/UIDL/?v-uiId=0 HTTP/1.1" 200 378
0:0:0:0:0:0:0:1 - - [21/Mar/2018:08:05:23 -0400] "POST /myapplication/UIDL/?v-uiId=0 HTTP/1.1" 200 139
0:0:0:0:0:0:0:1 - - [21/Mar/2018:08:05:24 -0400] "POST /myapplication/UIDL/?v-uiId=0 HTTP/1.1" 200 424
0:0:0:0:0:0:0:1 - - [21/Mar/2018:08:05:24 -0400] "POST /myapplication/UIDL/?v-uiId=0 HTTP/1.1" 200 139
0:0:0:0:0:0:0:1 - - [21/Mar/2018:08:05:26 -0400] "POST /myapplication/UIDL/?v-uiId=0 HTTP/1.1" 200 139
0:0:0:0:0:0:0:1 - - [21/Mar/2018:08:05:30 -0400] "POST /myapplication/UIDL/?v-uiId=0 HTTP/1.1" 200 4739
0:0:0:0:0:0:0:1 - - [21/Mar/2018:08:05:31 -0400] "POST /myapplication/UIDL/?v-uiId=0 HTTP/1.1" 200 139
0:0:0:0:0:0:0:1 - - [21/Mar/2018:08:05:33 -0400] "POST /myapplication/UIDL/?v-uiId=0 HTTP/1.1" 200 139
0:0:0:0:0:0:0:1 - - [21/Mar/2018:08:07:30 -0400] "GET /myapplication/servlet/com.example.myapplication.MyUI$MyUIServlet HTTP/1.1" 200 1861
0:0:0:0:0:0:0:1 - - [21/Mar/2018:08:07:30 -0400] "POST /myapplication/UIDL/?v-uiId=0 HTTP/1.1" 200 139
0:0:0:0:0:0:0:1 - - [21/Mar/2018:08:07:30 -0400] "GET /myapplication/VAADIN/widgetsets/com.vaadin.DefaultWidgetSet/com.vaadin.DefaultWidgetSet.nocache.js?1521634050732 HTTP/1.1" 200 3231
0:0:0:0:0:0:0:1 - - [21/Mar/2018:08:07:32 -0400] "POST /myapplication/servlet/com.example.myapplication.MyUI$MyUIServlet?v-1521634050733 HTTP/1.1" 200 6479
0:0:0:0:0:0:0:1 - - [21/Mar/2018:08:07:32 -0400] "POST /myapplication/UIDL/?v-uiId=1 HTTP/1.1" 200 137
0:0:0:0:0:0:0:1 - - [21/Mar/2018:08:07:36 -0400] "POST /myapplication/UIDL/?v-uiId=1 HTTP/1.1" 200 235
0:0:0:0:0:0:0:1 - - [21/Mar/2018:08:07:38 -0400] "GET /myapplication/servlet/com.example.myapplication.MyUI$MyUIServlet HTTP/1.1" 200 1861
0:0:0:0:0:0:0:1 - - [21/Mar/2018:08:07:38 -0400] "GET /myapplication/VAADIN/widgetsets/com.vaadin.DefaultWidgetSet/com.vaadin.DefaultWidgetSet.nocache.js?1521634058921 HTTP/1.1" 200 3231
0:0:0:0:0:0:0:1 - - [21/Mar/2018:08:07:41 -0400] "POST /myapplication/servlet/com.example.myapplication.MyUI$MyUIServlet?v-1521634058921 HTTP/1.1" 200 6324
0:0:0:0:0:0:0:1 - - [21/Mar/2018:08:07:41 -0400] "POST /myapplication/UIDL/?v-uiId=0 HTTP/1.1" 200 137
0:0:0:0:0:0:0:1 - - [21/Mar/2018:08:07:44 -0400] "POST /myapplication/UIDL/?v-uiId=0 HTTP/1.1" 200 190
0:0:0:0:0:0:0:1 - - [21/Mar/2018:08:07:44 -0400] "POST /myapplication/UIDL/?v-uiId=0 HTTP/1.1" 200 137
0:0:0:0:0:0:0:1 - - [21/Mar/2018:08:07:46 -0400] "POST /myapplication/UIDL/?v-uiId=0 HTTP/1.1" 200 191
0:0:0:0:0:0:0:1 - - [21/Mar/2018:08:07:46 -0400] "POST /myapplication/UIDL/?v-uiId=0 HTTP/1.1" 200 5337
0:0:0:0:0:0:0:1 - - [21/Mar/2018:08:07:49 -0400] "POST /myapplication/UIDL/?v-uiId=0 HTTP/1.1" 200 1069
0:0:0:0:0:0:0:1 - - [21/Mar/2018:08:07:50 -0400] "POST /myapplication/UIDL/?v-uiId=0 HTTP/1.1" 200 7424
0:0:0:0:0:0:0:1 - - [21/Mar/2018:08:07:50 -0400] "GET /myapplication/VAADIN/themes/mytheme/imagens/library/update.png HTTP/1.1" 200 450
0:0:0:0:0:0:0:1 - - [21/Mar/2018:08:07:50 -0400] "GET /myapplication/VAADIN/themes/mytheme/imagens/library/find.png HTTP/1.1" 200 659
0:0:0:0:0:0:0:1 - - [21/Mar/2018:08:07:51 -0400] "POST /myapplication/UIDL/?v-uiId=0 HTTP/1.1" 200 11527
0:0:0:0:0:0:0:1 - - [21/Mar/2018:08:07:55 -0400] "POST /myapplication/UIDL/?v-uiId=0 HTTP/1.1" 200 375
0:0:0:0:0:0:0:1 - - [21/Mar/2018:08:07:57 -0400] "POST /myapplication/UIDL/?v-uiId=0 HTTP/1.1" 200 139
0:0:0:0:0:0:0:1 - - [21/Mar/2018:08:07:59 -0400] "POST /myapplication/UIDL/?v-uiId=0 HTTP/1.1" 200 139
0:0:0:0:0:0:0:1 - - [21/Mar/2018:08:08:00 -0400] "POST /myapplication/UIDL/?v-uiId=0 HTTP/1.1" 200 139
0:0:0:0:0:0:0:1 - - [21/Mar/2018:08:08:02 -0400] "POST /myapplication/UIDL/?v-uiId=0 HTTP/1.1" 200 139
0:0:0:0:0:0:0:1 - - [21/Mar/2018:08:08:13 -0400] "GET /myapplication/servlet/com.example.myapplication.MyUI$MyUIServlet HTTP/1.1" 200 1861
0:0:0:0:0:0:0:1 - - [21/Mar/2018:08:08:13 -0400] "GET /myapplication/VAADIN/widgetsets/com.vaadin.DefaultWidgetSet/com.vaadin.DefaultWidgetSet.nocache.js?1521634093864 HTTP/1.1" 200 3231
0:0:0:0:0:0:0:1 - - [21/Mar/2018:08:08:15 -0400] "POST /myapplication/servlet/com.example.myapplication.MyUI$MyUIServlet?v-1521634093864 HTTP/1.1" 200 6479
0:0:0:0:0:0:0:1 - - [21/Mar/2018:08:08:16 -0400] "POST /myapplication/UIDL/?v-uiId=1 HTTP/1.1" 200 137
0:0:0:0:0:0:0:1 - - [21/Mar/2018:08:08:19 -0400] "POST /myapplication/UIDL/?v-uiId=1 HTTP/1.1" 200 235
0:0:0:0:0:0:0:1 - - [21/Mar/2018:08:08:20 -0400] "GET /myapplication/servlet/com.example.myapplication.MyUI$MyUIServlet HTTP/1.1" 200 1861
0:0:0:0:0:0:0:1 - - [21/Mar/2018:08:08:20 -0400] "GET /myapplication/VAADIN/vaadinBootstrap.js?v=8.3.1 HTTP/1.1" 304 -
0:0:0:0:0:0:0:1 - - [21/Mar/2018:08:08:20 -0400] "GET /myapplication/VAADIN/themes/mytheme/styles.css?v=8.3.1 HTTP/1.1" 304 -
0:0:0:0:0:0:0:1 - - [21/Mar/2018:08:08:20 -0400] "GET /myapplication/VAADIN/widgetsets/com.vaadin.DefaultWidgetSet/com.vaadin.DefaultWidgetSet.nocache.js?1521634100280 HTTP/1.1" 200 3231
0:0:0:0:0:0:0:1 - - [21/Mar/2018:08:08:20 -0400] "GET /myapplication/VAADIN/themes/valo/shared/img/spinner.gif HTTP/1.1" 200 7194
0:0:0:0:0:0:0:1 - - [21/Mar/2018:08:08:20 -0400] "GET /myapplication/VAADIN/widgetsets/com.vaadin.DefaultWidgetSet/99065197202814696C2A1A56BF276C09.cache.js HTTP/1.1" 304 -
0:0:0:0:0:0:0:1 - - [21/Mar/2018:08:08:22 -0400] "POST /myapplication/servlet/com.example.myapplication.MyUI$MyUIServlet?v-1521634100280 HTTP/1.1" 200 6324
0:0:0:0:0:0:0:1 - - [21/Mar/2018:08:08:22 -0400] "POST /myapplication/UIDL/?v-uiId=0 HTTP/1.1" 200 137
0:0:0:0:0:0:0:1 - - [21/Mar/2018:08:08:25 -0400] "POST /myapplication/UIDL/?v-uiId=0 HTTP/1.1" 200 191
0:0:0:0:0:0:0:1 - - [21/Mar/2018:08:08:25 -0400] "POST /myapplication/UIDL/?v-uiId=0 HTTP/1.1" 200 137
0:0:0:0:0:0:0:1 - - [21/Mar/2018:08:08:27 -0400] "POST /myapplication/UIDL/?v-uiId=0 HTTP/1.1" 200 191
0:0:0:0:0:0:0:1 - - [21/Mar/2018:08:08:27 -0400] "POST /myapplication/UIDL/?v-uiId=0 HTTP/1.1" 200 5335
0:0:0:0:0:0:0:1 - - [21/Mar/2018:08:08:27 -0400] "GET /myapplication/VAADIN/themes/mytheme/imagens/logo-prosaude.png HTTP/1.1" 200 21928
0:0:0:0:0:0:0:1 - - [21/Mar/2018:08:08:29 -0400] "POST /myapplication/UIDL/?v-uiId=0 HTTP/1.1" 200 1069
0:0:0:0:0:0:0:1 - - [21/Mar/2018:08:08:30 -0400] "POST /myapplication/UIDL/?v-uiId=0 HTTP/1.1" 200 7422
0:0:0:0:0:0:0:1 - - [21/Mar/2018:08:08:31 -0400] "GET /myapplication/VAADIN/themes/mytheme/imagens/library/insert.png HTTP/1.1" 200 733
0:0:0:0:0:0:0:1 - - [21/Mar/2018:08:08:31 -0400] "GET /myapplication/VAADIN/themes/mytheme/imagens/library/update.png HTTP/1.1" 304 -
0:0:0:0:0:0:0:1 - - [21/Mar/2018:08:08:31 -0400] "GET /myapplication/VAADIN/themes/mytheme/imagens/library/find.png HTTP/1.1" 304 -
0:0:0:0:0:0:0:1 - - [21/Mar/2018:08:08:32 -0400] "POST /myapplication/UIDL/?v-uiId=0 HTTP/1.1" 200 11539
0:0:0:0:0:0:0:1 - - [21/Mar/2018:08:08:32 -0400] "GET /myapplication/VAADIN/themes/mytheme/imagens/library/lupa.png HTTP/1.1" 200 871
0:0:0:0:0:0:0:1 - - [21/Mar/2018:08:08:32 -0400] "GET /myapplication/VAADIN/themes/mytheme/imagens/library/money.png HTTP/1.1" 200 546
0:0:0:0:0:0:0:1 - - [21/Mar/2018:08:08:32 -0400] "GET /myapplication/VAADIN/themes/mytheme/imagens/library/cancel.png HTTP/1.1" 200 587
0:0:0:0:0:0:0:1 - - [21/Mar/2018:08:08:32 -0400] "GET /myapplication/VAADIN/themes/mytheme/imagens/library/disk.png HTTP/1.1" 200 620
0:0:0:0:0:0:0:1 - - [21/Mar/2018:08:08:34 -0400] "POST /myapplication/UIDL/?v-uiId=0 HTTP/1.1" 200 375
0:0:0:0:0:0:0:1 - - [21/Mar/2018:08:08:35 -0400] "POST /myapplication/UIDL/?v-uiId=0 HTTP/1.1" 200 139
0:0:0:0:0:0:0:1 - - [21/Mar/2018:08:08:35 -0400] "POST /myapplication/UIDL/?v-uiId=0 HTTP/1.1" 200 139
0:0:0:0:0:0:0:1 - - [21/Mar/2018:08:08:36 -0400] "POST /myapplication/UIDL/?v-uiId=0 HTTP/1.1" 200 139
0:0:0:0:0:0:0:1 - - [21/Mar/2018:08:08:37 -0400] "POST /myapplication/UIDL/?v-uiId=0 HTTP/1.1" 200 139
0:0:0:0:0:0:0:1 - - [21/Mar/2018:08:08:38 -0400] "POST /myapplication/UIDL/?v-uiId=0 HTTP/1.1" 200 139
0:0:0:0:0:0:0:1 - - [21/Mar/2018:08:08:40 -0400] "POST /myapplication/UIDL/?v-uiId=0 HTTP/1.1" 200 139
0:0:0:0:0:0:0:1 - - [21/Mar/2018:08:09:19 -0400] "GET /myapplication/servlet/com.example.myapplication.MyUI$MyUIServlet HTTP/1.1" 200 1861
0:0:0:0:0:0:0:1 - - [21/Mar/2018:08:09:19 -0400] "POST /myapplication/UIDL/?v-uiId=0 HTTP/1.1" 200 237
0:0:0:0:0:0:0:1 - - [21/Mar/2018:08:09:19 -0400] "GET /myapplication/VAADIN/widgetsets/com.vaadin.DefaultWidgetSet/com.vaadin.DefaultWidgetSet.nocache.js?1521634159966 HTTP/1.1" 200 3231
0:0:0:0:0:0:0:1 - - [21/Mar/2018:08:09:22 -0400] "POST /myapplication/servlet/com.example.myapplication.MyUI$MyUIServlet?v-1521634159967 HTTP/1.1" 200 6324
0:0:0:0:0:0:0:1 - - [21/Mar/2018:08:09:22 -0400] "POST /myapplication/UIDL/?v-uiId=0 HTTP/1.1" 200 137
0:0:0:0:0:0:0:1 - - [21/Mar/2018:08:09:25 -0400] "POST /myapplication/UIDL/?v-uiId=0 HTTP/1.1" 200 191
0:0:0:0:0:0:0:1 - - [21/Mar/2018:08:09:25 -0400] "POST /myapplication/UIDL/?v-uiId=0 HTTP/1.1" 200 137
0:0:0:0:0:0:0:1 - - [21/Mar/2018:08:09:27 -0400] "POST /myapplication/UIDL/?v-uiId=0 HTTP/1.1" 200 191
0:0:0:0:0:0:0:1 - - [21/Mar/2018:08:09:27 -0400] "POST /myapplication/UIDL/?v-uiId=0 HTTP/1.1" 200 5337
0:0:0:0:0:0:0:1 - - [21/Mar/2018:08:09:29 -0400] "POST /myapplication/UIDL/?v-uiId=0 HTTP/1.1" 200 1069
0:0:0:0:0:0:0:1 - - [21/Mar/2018:08:09:30 -0400] "POST /myapplication/UIDL/?v-uiId=0 HTTP/1.1" 200 7424
0:0:0:0:0:0:0:1 - - [21/Mar/2018:08:09:32 -0400] "POST /myapplication/UIDL/?v-uiId=0 HTTP/1.1" 200 11529
0:0:0:0:0:0:0:1 - - [21/Mar/2018:08:09:34 -0400] "POST /myapplication/UIDL/?v-uiId=0 HTTP/1.1" 200 375
0:0:0:0:0:0:0:1 - - [21/Mar/2018:08:09:34 -0400] "POST /myapplication/UIDL/?v-uiId=0 HTTP/1.1" 200 139
0:0:0:0:0:0:0:1 - - [21/Mar/2018:08:09:35 -0400] "POST /myapplication/UIDL/?v-uiId=0 HTTP/1.1" 200 427
0:0:0:0:0:0:0:1 - - [21/Mar/2018:08:09:35 -0400] "POST /myapplication/UIDL/?v-uiId=0 HTTP/1.1" 200 139
0:0:0:0:0:0:0:1 - - [21/Mar/2018:08:09:36 -0400] "POST /myapplication/UIDL/?v-uiId=0 HTTP/1.1" 200 139
0:0:0:0:0:0:0:1 - - [21/Mar/2018:08:09:37 -0400] "POST /myapplication/UIDL/?v-uiId=0 HTTP/1.1" 200 139
0:0:0:0:0:0:0:1 - - [21/Mar/2018:08:09:38 -0400] "POST /myapplication/UIDL/?v-uiId=0 HTTP/1.1" 200 139
0:0:0:0:0:0:0:1 - - [21/Mar/2018:08:09:48 -0400] "POST /myapplication/UIDL/?v-uiId=0 HTTP/1.1" 200 139
0:0:0:0:0:0:0:1 - - [21/Mar/2018:08:10:10 -0400] "POST /myapplication/UIDL/?v-uiId=0 HTTP/1.1" 200 139
0:0:0:0:0:0:0:1 - - [21/Mar/2018:08:10:21 -0400] "POST /myapplication/UIDL/?v-uiId=0 HTTP/1.1" 200 235
0:0:0:0:0:0:0:1 - - [21/Mar/2018:08:10:22 -0400] "POST /myapplication/UIDL/?v-uiId=0 HTTP/1.1" 200 235
0:0:0:0:0:0:0:1 - - [21/Mar/2018:08:10:22 -0400] "GET /myapplication/servlet/com.example.myapplication.MyUI$MyUIServlet HTTP/1.1" 200 1861
0:0:0:0:0:0:0:1 - - [21/Mar/2018:08:10:22 -0400] "GET /myapplication/VAADIN/widgetsets/com.vaadin.DefaultWidgetSet/com.vaadin.DefaultWidgetSet.nocache.js?1521634222190 HTTP/1.1" 200 3231
0:0:0:0:0:0:0:1 - - [21/Mar/2018:08:10:24 -0400] "POST /myapplication/servlet/com.example.myapplication.MyUI$MyUIServlet?v-1521634222191 HTTP/1.1" 200 6326
0:0:0:0:0:0:0:1 - - [21/Mar/2018:08:10:24 -0400] "POST /myapplication/UIDL/?v-uiId=0 HTTP/1.1" 200 137
0:0:0:0:0:0:0:1 - - [21/Mar/2018:08:10:27 -0400] "POST /myapplication/UIDL/?v-uiId=0 HTTP/1.1" 200 191
0:0:0:0:0:0:0:1 - - [21/Mar/2018:08:10:27 -0400] "POST /myapplication/UIDL/?v-uiId=0 HTTP/1.1" 200 137
0:0:0:0:0:0:0:1 - - [21/Mar/2018:08:10:30 -0400] "POST /myapplication/UIDL/?v-uiId=0 HTTP/1.1" 200 190
0:0:0:0:0:0:0:1 - - [21/Mar/2018:08:10:30 -0400] "POST /myapplication/UIDL/?v-uiId=0 HTTP/1.1" 200 5339
0:0:0:0:0:0:0:1 - - [21/Mar/2018:08:10:32 -0400] "POST /myapplication/UIDL/?v-uiId=0 HTTP/1.1" 200 1069
0:0:0:0:0:0:0:1 - - [21/Mar/2018:08:10:33 -0400] "POST /myapplication/UIDL/?v-uiId=0 HTTP/1.1" 200 7426
0:0:0:0:0:0:0:1 - - [21/Mar/2018:08:10:34 -0400] "POST /myapplication/UIDL/?v-uiId=0 HTTP/1.1" 200 11530
0:0:0:0:0:0:0:1 - - [21/Mar/2018:08:10:36 -0400] "POST /myapplication/UIDL/?v-uiId=0 HTTP/1.1" 200 375
0:0:0:0:0:0:0:1 - - [21/Mar/2018:08:10:36 -0400] "POST /myapplication/UIDL/?v-uiId=0 HTTP/1.1" 200 139
0:0:0:0:0:0:0:1 - - [21/Mar/2018:08:10:37 -0400] "POST /myapplication/UIDL/?v-uiId=0 HTTP/1.1" 200 139
0:0:0:0:0:0:0:1 - - [21/Mar/2018:08:10:37 -0400] "POST /myapplication/UIDL/?v-uiId=0 HTTP/1.1" 200 139
0:0:0:0:0:0:0:1 - - [21/Mar/2018:08:10:38 -0400] "POST /myapplication/UIDL/?v-uiId=0 HTTP/1.1" 200 139
0:0:0:0:0:0:0:1 - - [21/Mar/2018:08:10:39 -0400] "POST /myapplication/UIDL/?v-uiId=0 HTTP/1.1" 200 425
0:0:0:0:0:0:0:1 - - [21/Mar/2018:08:10:39 -0400] "POST /myapplication/UIDL/?v-uiId=0 HTTP/1.1" 200 139
0:0:0:0:0:0:0:1 - - [21/Mar/2018:08:10:40 -0400] "POST /myapplication/UIDL/?v-uiId=0 HTTP/1.1" 200 139
0:0:0:0:0:0:0:1 - - [21/Mar/2018:08:10:42 -0400] "POST /myapplication/UIDL/?v-uiId=0 HTTP/1.1" 200 495
0:0:0:0:0:0:0:1 - - [21/Mar/2018:08:10:42 -0400] "POST /myapplication/UIDL/?v-uiId=0 HTTP/1.1" 200 139
0:0:0:0:0:0:0:1 - - [21/Mar/2018:08:10:44 -0400] "POST /myapplication/UIDL/?v-uiId=0 HTTP/1.1" 200 139
0:0:0:0:0:0:0:1 - - [21/Mar/2018:08:10:45 -0400] "POST /myapplication/UIDL/?v-uiId=0 HTTP/1.1" 200 139
0:0:0:0:0:0:0:1 - - [21/Mar/2018:08:10:45 -0400] "POST /myapplication/UIDL/?v-uiId=0 HTTP/1.1" 200 139
0:0:0:0:0:0:0:1 - - [21/Mar/2018:08:10:46 -0400] "POST /myapplication/UIDL/?v-uiId=0 HTTP/1.1" 200 139
0:0:0:0:0:0:0:1 - - [21/Mar/2018:08:11:08 -0400] "POST /myapplication/UIDL/?v-uiId=0 HTTP/1.1" 200 139
0:0:0:0:0:0:0:1 - - [21/Mar/2018:08:11:27 -0400] "POST /myapplication/UIDL/?v-uiId=0 HTTP/1.1" 200 518
0:0:0:0:0:0:0:1 - - [21/Mar/2018:08:11:28 -0400] "POST /myapplication/UIDL/?v-uiId=0 HTTP/1.1" 200 401
0:0:0:0:0:0:0:1 - - [21/Mar/2018:08:11:29 -0400] "POST /myapplication/UIDL/?v-uiId=0 HTTP/1.1" 200 403
0:0:0:0:0:0:0:1 - - [21/Mar/2018:08:11:30 -0400] "POST /myapplication/UIDL/?v-uiId=0 HTTP/1.1" 200 427
0:0:0:0:0:0:0:1 - - [21/Mar/2018:08:11:31 -0400] "POST /myapplication/UIDL/?v-uiId=0 HTTP/1.1" 200 461
0:0:0:0:0:0:0:1 - - [21/Mar/2018:08:11:33 -0400] "POST /myapplication/UIDL/?v-uiId=0 HTTP/1.1" 200 469
0:0:0:0:0:0:0:1 - - [21/Mar/2018:08:11:33 -0400] "POST /myapplication/UIDL/?v-uiId=0 HTTP/1.1" 200 139
0:0:0:0:0:0:0:1 - - [21/Mar/2018:08:11:45 -0400] "POST /myapplication/UIDL/?v-uiId=0 HTTP/1.1" 200 139
0:0:0:0:0:0:0:1 - - [21/Mar/2018:08:11:57 -0400] "POST /myapplication/UIDL/?v-uiId=0 HTTP/1.1" 200 540
0:0:0:0:0:0:0:1 - - [21/Mar/2018:08:12:07 -0400] "POST /myapplication/UIDL/?v-uiId=0 HTTP/1.1" 200 604
0:0:0:0:0:0:0:1 - - [21/Mar/2018:08:12:07 -0400] "POST /myapplication/UIDL/?v-uiId=0 HTTP/1.1" 200 139
0:0:0:0:0:0:0:1 - - [21/Mar/2018:08:12:12 -0400] "POST /myapplication/UIDL/?v-uiId=0 HTTP/1.1" 200 139
0:0:0:0:0:0:0:1 - - [21/Mar/2018:08:12:12 -0400] "POST /myapplication/UIDL/?v-uiId=0 HTTP/1.1" 200 203
0:0:0:0:0:0:0:1 - - [21/Mar/2018:08:12:13 -0400] "POST /myapplication/UIDL/?v-uiId=0 HTTP/1.1" 200 10960
0:0:0:0:0:0:0:1 - - [21/Mar/2018:08:12:17 -0400] "POST /myapplication/UIDL/?v-uiId=0 HTTP/1.1" 200 377
0:0:0:0:0:0:0:1 - - [21/Mar/2018:08:12:21 -0400] "POST /myapplication/UIDL/?v-uiId=0 HTTP/1.1" 200 139
0:0:0:0:0:0:0:1 - - [21/Mar/2018:08:12:57 -0400] "POST /myapplication/UIDL/?v-uiId=0 HTTP/1.1" 200 139
0:0:0:0:0:0:0:1 - - [21/Mar/2018:08:12:57 -0400] "GET /myapplication/servlet/com.example.myapplication.MyUI$MyUIServlet HTTP/1.1" 200 1861
0:0:0:0:0:0:0:1 - - [21/Mar/2018:08:12:57 -0400] "POST /myapplication/UIDL/?v-uiId=0 HTTP/1.1" 200 139
0:0:0:0:0:0:0:1 - - [21/Mar/2018:08:12:57 -0400] "GET /myapplication/VAADIN/widgetsets/com.vaadin.DefaultWidgetSet/com.vaadin.DefaultWidgetSet.nocache.js?1521634377927 HTTP/1.1" 200 3231
0:0:0:0:0:0:0:1 - - [21/Mar/2018:08:12:59 -0400] "POST /myapplication/servlet/com.example.myapplication.MyUI$MyUIServlet?v-1521634377928 HTTP/1.1" 200 6481
0:0:0:0:0:0:0:1 - - [21/Mar/2018:08:12:59 -0400] "POST /myapplication/UIDL/?v-uiId=1 HTTP/1.1" 200 137
0:0:0:0:0:0:0:1 - - [21/Mar/2018:08:13:07 -0400] "GET /myapplication/servlet/com.example.myapplication.MyUI$MyUIServlet HTTP/1.1" 200 1861
0:0:0:0:0:0:0:1 - - [21/Mar/2018:08:13:07 -0400] "GET /myapplication/VAADIN/widgetsets/com.vaadin.DefaultWidgetSet/com.vaadin.DefaultWidgetSet.nocache.js?1521634387938 HTTP/1.1" 200 3231
0:0:0:0:0:0:0:1 - - [21/Mar/2018:08:13:10 -0400] "POST /myapplication/servlet/com.example.myapplication.MyUI$MyUIServlet?v-1521634387938 HTTP/1.1" 200 6324
0:0:0:0:0:0:0:1 - - [21/Mar/2018:08:13:10 -0400] "POST /myapplication/UIDL/?v-uiId=0 HTTP/1.1" 200 137
0:0:0:0:0:0:0:1 - - [21/Mar/2018:08:18:10 -0400] "POST /myapplication/HEARTBEAT/?v-uiId=0 HTTP/1.1" 410 1021
127.0.0.1 - - [21/Mar/2018:10:34:03 -0400] "GET / HTTP/1.1" 404 951
0:0:0:0:0:0:0:1 - - [21/Mar/2018:10:34:03 -0400] "GET /myapplication/servlet/com.example.myapplication.MyUI$MyUIServlet HTTP/1.1" 200 1912
0:0:0:0:0:0:0:1 - - [21/Mar/2018:10:40:49 -0400] "GET /myapplication/servlet/com.example.myapplication.MyUI$MyUIServlet HTTP/1.1" 200 1861
0:0:0:0:0:0:0:1 - - [21/Mar/2018:10:40:49 -0400] "GET /myapplication/VAADIN/vaadinBootstrap.js?v=8.3.1 HTTP/1.1" 304 -
0:0:0:0:0:0:0:1 - - [21/Mar/2018:10:40:49 -0400] "GET /myapplication/VAADIN/widgetsets/com.vaadin.DefaultWidgetSet/com.vaadin.DefaultWidgetSet.nocache.js?1521643249962 HTTP/1.1" 200 3231
0:0:0:0:0:0:0:1 - - [21/Mar/2018:10:40:49 -0400] "GET /myapplication/VAADIN/themes/mytheme/styles.css?v=8.3.1 HTTP/1.1" 200 380400
0:0:0:0:0:0:0:1 - - [21/Mar/2018:10:40:49 -0400] "GET /myapplication/VAADIN/themes/valo/shared/img/spinner.gif HTTP/1.1" 200 7194
0:0:0:0:0:0:0:1 - - [21/Mar/2018:10:40:53 -0400] "POST /myapplication/servlet/com.example.myapplication.MyUI$MyUIServlet?v-1521643249962 HTTP/1.1" 200 6324
0:0:0:0:0:0:0:1 - - [21/Mar/2018:10:40:53 -0400] "POST /myapplication/UIDL/?v-uiId=0 HTTP/1.1" 200 137
0:0:0:0:0:0:0:1 - - [21/Mar/2018:10:40:55 -0400] "POST /myapplication/UIDL/?v-uiId=0 HTTP/1.1" 200 190
0:0:0:0:0:0:0:1 - - [21/Mar/2018:10:40:55 -0400] "POST /myapplication/UIDL/?v-uiId=0 HTTP/1.1" 200 137
0:0:0:0:0:0:0:1 - - [21/Mar/2018:10:40:58 -0400] "POST /myapplication/UIDL/?v-uiId=0 HTTP/1.1" 200 191
0:0:0:0:0:0:0:1 - - [21/Mar/2018:10:40:58 -0400] "POST /myapplication/UIDL/?v-uiId=0 HTTP/1.1" 200 5341
0:0:0:0:0:0:0:1 - - [21/Mar/2018:10:40:58 -0400] "GET /myapplication/VAADIN/themes/valo/fonts/themeicons-webfont/themeicons-webfont.woff HTTP/1.1" 200 7868
0:0:0:0:0:0:0:1 - - [21/Mar/2018:10:40:58 -0400] "GET /myapplication/VAADIN/themes/mytheme/imagens/logo-prosaude.png HTTP/1.1" 200 21928
0:0:0:0:0:0:0:1 - - [21/Mar/2018:10:40:58 -0400] "GET /myapplication/VAADIN/themes/valo/fonts/open-sans/OpenSans-Semibold-webfont.woff HTTP/1.1" 200 22908
0:0:0:0:0:0:0:1 - - [21/Mar/2018:10:41:00 -0400] "POST /myapplication/UIDL/?v-uiId=0 HTTP/1.1" 200 10598
0:0:0:0:0:0:0:1 - - [21/Mar/2018:10:41:01 -0400] "GET /myapplication/VAADIN/themes/mytheme/imagens/library/insert.png HTTP/1.1" 200 733
0:0:0:0:0:0:0:1 - - [21/Mar/2018:10:41:01 -0400] "GET /myapplication/VAADIN/themes/mytheme/imagens/library/update.png HTTP/1.1" 200 450
0:0:0:0:0:0:0:1 - - [21/Mar/2018:10:41:01 -0400] "GET /myapplication/VAADIN/themes/mytheme/imagens/library/find.png HTTP/1.1" 200 659
0:0:0:0:0:0:0:1 - - [21/Mar/2018:10:41:01 -0400] "GET /myapplication/VAADIN/themes/mytheme/imagens/library/print.png HTTP/1.1" 200 48290
0:0:0:0:0:0:0:1 - - [21/Mar/2018:10:41:01 -0400] "GET /myapplication/VAADIN/themes/valo/fonts/fontawesome-webfont/fontawesome-webfont.woff HTTP/1.1" 200 83588
0:0:0:0:0:0:0:1 - - [21/Mar/2018:10:41:02 -0400] "POST /myapplication/UIDL/?v-uiId=0 HTTP/1.1" 200 26281
0:0:0:0:0:0:0:1 - - [21/Mar/2018:10:41:02 -0400] "GET /myapplication/VAADIN/themes/mytheme/imagens/library/lupa.png HTTP/1.1" 200 871
0:0:0:0:0:0:0:1 - - [21/Mar/2018:10:41:02 -0400] "GET /myapplication/VAADIN/themes/mytheme/imagens/library/cancel.png HTTP/1.1" 200 587
0:0:0:0:0:0:0:1 - - [21/Mar/2018:10:41:02 -0400] "GET /myapplication/VAADIN/themes/mytheme/imagens/library/disk.png HTTP/1.1" 200 620
0:0:0:0:0:0:0:1 - - [21/Mar/2018:10:41:04 -0400] "POST /myapplication/UIDL/?v-uiId=0 HTTP/1.1" 200 3482
0:0:0:0:0:0:0:1 - - [21/Mar/2018:10:41:13 -0400] "POST /myapplication/UIDL/?v-uiId=0 HTTP/1.1" 200 201
0:0:0:0:0:0:0:1 - - [21/Mar/2018:10:41:25 -0400] "POST /myapplication/UIDL/?v-uiId=0 HTTP/1.1" 200 25515
0:0:0:0:0:0:0:1 - - [21/Mar/2018:10:41:27 -0400] "POST /myapplication/UIDL/?v-uiId=0 HTTP/1.1" 200 203
0:0:0:0:0:0:0:1 - - [21/Mar/2018:10:41:28 -0400] "POST /myapplication/UIDL/?v-uiId=0 HTTP/1.1" 200 985
0:0:0:0:0:0:0:1 - - [21/Mar/2018:10:41:29 -0400] "POST /myapplication/UIDL/?v-uiId=0 HTTP/1.1" 200 6758
0:0:0:0:0:0:0:1 - - [21/Mar/2018:10:41:30 -0400] "POST /myapplication/UIDL/?v-uiId=0 HTTP/1.1" 200 10957
0:0:0:0:0:0:0:1 - - [21/Mar/2018:10:41:30 -0400] "GET /myapplication/VAADIN/themes/mytheme/imagens/library/money.png HTTP/1.1" 200 546
0:0:0:0:0:0:0:1 - - [21/Mar/2018:10:41:33 -0400] "POST /myapplication/UIDL/?v-uiId=0 HTTP/1.1" 200 379
0:0:0:0:0:0:0:1 - - [21/Mar/2018:10:41:34 -0400] "POST /myapplication/UIDL/?v-uiId=0 HTTP/1.1" 200 139
0:0:0:0:0:0:0:1 - - [21/Mar/2018:10:41:36 -0400] "POST /myapplication/UIDL/?v-uiId=0 HTTP/1.1" 200 139
0:0:0:0:0:0:0:1 - - [21/Mar/2018:10:42:03 -0400] "POST /myapplication/UIDL/?v-uiId=0 HTTP/1.1" 200 4743
0:0:0:0:0:0:0:1 - - [21/Mar/2018:10:42:04 -0400] "POST /myapplication/UIDL/?v-uiId=0 HTTP/1.1" 200 139
0:0:0:0:0:0:0:1 - - [21/Mar/2018:10:42:06 -0400] "POST /myapplication/UIDL/?v-uiId=0 HTTP/1.1" 200 139
0:0:0:0:0:0:0:1 - - [21/Mar/2018:10:44:56 -0400] "POST /myapplication/UIDL/?v-uiId=0 HTTP/1.1" 200 139
0:0:0:0:0:0:0:1 - - [21/Mar/2018:10:45:31 -0400] "POST /myapplication/UIDL/?v-uiId=0 HTTP/1.1" 200 139
0:0:0:0:0:0:0:1 - - [21/Mar/2018:10:45:32 -0400] "GET /myapplication/servlet/com.example.myapplication.MyUI$MyUIServlet HTTP/1.1" 200 1861
0:0:0:0:0:0:0:1 - - [21/Mar/2018:10:45:32 -0400] "POST /myapplication/UIDL/?v-uiId=0 HTTP/1.1" 200 139
0:0:0:0:0:0:0:1 - - [21/Mar/2018:10:45:32 -0400] "GET /myapplication/VAADIN/widgetsets/com.vaadin.DefaultWidgetSet/com.vaadin.DefaultWidgetSet.nocache.js?1521643532958 HTTP/1.1" 200 3231
0:0:0:0:0:0:0:1 - - [21/Mar/2018:10:45:35 -0400] "POST /myapplication/servlet/com.example.myapplication.MyUI$MyUIServlet?v-1521643532958 HTTP/1.1" 200 6479
0:0:0:0:0:0:0:1 - - [21/Mar/2018:10:45:37 -0400] "POST /myapplication/UIDL/?v-uiId=1 HTTP/1.1" 200 235
0:0:0:0:0:0:0:1 - - [21/Mar/2018:10:45:38 -0400] "GET /myapplication/servlet/com.example.myapplication.MyUI$MyUIServlet HTTP/1.1" 200 1861
0:0:0:0:0:0:0:1 - - [21/Mar/2018:10:45:38 -0400] "GET /myapplication/VAADIN/vaadinBootstrap.js?v=8.3.1 HTTP/1.1" 304 -
0:0:0:0:0:0:0:1 - - [21/Mar/2018:10:45:38 -0400] "GET /myapplication/VAADIN/themes/mytheme/styles.css?v=8.3.1 HTTP/1.1" 304 -
0:0:0:0:0:0:0:1 - - [21/Mar/2018:10:45:38 -0400] "GET /myapplication/VAADIN/widgetsets/com.vaadin.DefaultWidgetSet/com.vaadin.DefaultWidgetSet.nocache.js?1521643538880 HTTP/1.1" 200 3231
0:0:0:0:0:0:0:1 - - [21/Mar/2018:10:45:38 -0400] "GET /myapplication/VAADIN/themes/valo/shared/img/spinner.gif HTTP/1.1" 304 -
0:0:0:0:0:0:0:1 - - [21/Mar/2018:10:45:39 -0400] "GET /myapplication/VAADIN/widgetsets/com.vaadin.DefaultWidgetSet/99065197202814696C2A1A56BF276C09.cache.js HTTP/1.1" 304 -
0:0:0:0:0:0:0:1 - - [21/Mar/2018:10:45:41 -0400] "POST /myapplication/servlet/com.example.myapplication.MyUI$MyUIServlet?v-1521643538881 HTTP/1.1" 200 6324
0:0:0:0:0:0:0:1 - - [21/Mar/2018:10:45:41 -0400] "POST /myapplication/UIDL/?v-uiId=0 HTTP/1.1" 200 137
0:0:0:0:0:0:0:1 - - [21/Mar/2018:10:45:45 -0400] "POST /myapplication/UIDL/?v-uiId=0 HTTP/1.1" 200 190
0:0:0:0:0:0:0:1 - - [21/Mar/2018:10:45:45 -0400] "POST /myapplication/UIDL/?v-uiId=0 HTTP/1.1" 200 137
0:0:0:0:0:0:0:1 - - [21/Mar/2018:10:45:47 -0400] "POST /myapplication/UIDL/?v-uiId=0 HTTP/1.1" 200 191
0:0:0:0:0:0:0:1 - - [21/Mar/2018:10:45:47 -0400] "POST /myapplication/UIDL/?v-uiId=0 HTTP/1.1" 200 5339
0:0:0:0:0:0:0:1 - - [21/Mar/2018:10:45:48 -0400] "GET /myapplication/VAADIN/themes/mytheme/imagens/logo-prosaude.png HTTP/1.1" 304 -
0:0:0:0:0:0:0:1 - - [21/Mar/2018:10:45:50 -0400] "POST /myapplication/UIDL/?v-uiId=0 HTTP/1.1" 200 1069
0:0:0:0:0:0:0:1 - - [21/Mar/2018:10:45:51 -0400] "POST /myapplication/UIDL/?v-uiId=0 HTTP/1.1" 200 7426
0:0:0:0:0:0:0:1 - - [21/Mar/2018:10:45:51 -0400] "GET /myapplication/VAADIN/themes/mytheme/imagens/library/insert.png HTTP/1.1" 304 -
0:0:0:0:0:0:0:1 - - [21/Mar/2018:10:45:51 -0400] "GET /myapplication/VAADIN/themes/mytheme/imagens/library/update.png HTTP/1.1" 304 -
0:0:0:0:0:0:0:1 - - [21/Mar/2018:10:45:51 -0400] "GET /myapplication/VAADIN/themes/mytheme/imagens/library/find.png HTTP/1.1" 304 -
0:0:0:0:0:0:0:1 - - [21/Mar/2018:10:45:52 -0400] "POST /myapplication/UIDL/?v-uiId=0 HTTP/1.1" 200 11531
0:0:0:0:0:0:0:1 - - [21/Mar/2018:10:45:52 -0400] "GET /myapplication/VAADIN/themes/mytheme/imagens/library/lupa.png HTTP/1.1" 304 -
0:0:0:0:0:0:0:1 - - [21/Mar/2018:10:45:52 -0400] "GET /myapplication/VAADIN/themes/mytheme/imagens/library/money.png HTTP/1.1" 304 -
0:0:0:0:0:0:0:1 - - [21/Mar/2018:10:45:52 -0400] "GET /myapplication/VAADIN/themes/mytheme/imagens/library/cancel.png HTTP/1.1" 304 -
0:0:0:0:0:0:0:1 - - [21/Mar/2018:10:45:52 -0400] "GET /myapplication/VAADIN/themes/mytheme/imagens/library/disk.png HTTP/1.1" 304 -
0:0:0:0:0:0:0:1 - - [21/Mar/2018:10:46:29 -0400] "POST /myapplication/UIDL/?v-uiId=0 HTTP/1.1" 200 201
0:0:0:0:0:0:0:1 - - [21/Mar/2018:10:46:30 -0400] "POST /myapplication/UIDL/?v-uiId=0 HTTP/1.1" 200 10962
0:0:0:0:0:0:0:1 - - [21/Mar/2018:10:46:49 -0400] "GET /myapplication/servlet/com.example.myapplication.MyUI$MyUIServlet HTTP/1.1" 200 1861
0:0:0:0:0:0:0:1 - - [21/Mar/2018:10:46:50 -0400] "GET /myapplication/VAADIN/widgetsets/com.vaadin.DefaultWidgetSet/com.vaadin.DefaultWidgetSet.nocache.js?1521643610077 HTTP/1.1" 200 3231
0:0:0:0:0:0:0:1 - - [21/Mar/2018:10:46:52 -0400] "POST /myapplication/servlet/com.example.myapplication.MyUI$MyUIServlet?v-1521643610078 HTTP/1.1" 200 6479
0:0:0:0:0:0:0:1 - - [21/Mar/2018:10:46:52 -0400] "POST /myapplication/UIDL/?v-uiId=1 HTTP/1.1" 200 137
0:0:0:0:0:0:0:1 - - [21/Mar/2018:10:46:58 -0400] "POST /myapplication/UIDL/?v-uiId=1 HTTP/1.1" 200 197
0:0:0:0:0:0:0:1 - - [21/Mar/2018:10:46:58 -0400] "POST /myapplication/UIDL/?v-uiId=1 HTTP/1.1" 200 137
0:0:0:0:0:0:0:1 - - [21/Mar/2018:10:47:01 -0400] "POST /myapplication/UIDL/?v-uiId=1 HTTP/1.1" 200 198
0:0:0:0:0:0:0:1 - - [21/Mar/2018:10:47:01 -0400] "POST /myapplication/UIDL/?v-uiId=1 HTTP/1.1" 200 5465
0:0:0:0:0:0:0:1 - - [21/Mar/2018:10:47:03 -0400] "POST /myapplication/UIDL/?v-uiId=1 HTTP/1.1" 200 1103
0:0:0:0:0:0:0:1 - - [21/Mar/2018:10:47:04 -0400] "POST /myapplication/UIDL/?v-uiId=1 HTTP/1.1" 200 7505
0:0:0:0:0:0:0:1 - - [21/Mar/2018:10:47:05 -0400] "POST /myapplication/UIDL/?v-uiId=1 HTTP/1.1" 200 11586
0:0:0:0:0:0:0:1 - - [21/Mar/2018:10:48:52 -0400] "GET /myapplication/servlet/com.example.myapplication.MyUI$MyUIServlet HTTP/1.1" 200 1861
0:0:0:0:0:0:0:1 - - [21/Mar/2018:10:48:52 -0400] "GET /myapplication/VAADIN/widgetsets/com.vaadin.DefaultWidgetSet/com.vaadin.DefaultWidgetSet.nocache.js?1521643732336 HTTP/1.1" 200 3231
0:0:0:0:0:0:0:1 - - [21/Mar/2018:10:48:55 -0400] "POST /myapplication/servlet/com.example.myapplication.MyUI$MyUIServlet?v-1521643732337 HTTP/1.1" 200 6324
0:0:0:0:0:0:0:1 - - [21/Mar/2018:10:48:55 -0400] "POST /myapplication/UIDL/?v-uiId=0 HTTP/1.1" 200 137
0:0:0:0:0:0:0:1 - - [21/Mar/2018:10:48:59 -0400] "POST /myapplication/UIDL/?v-uiId=0 HTTP/1.1" 200 190
0:0:0:0:0:0:0:1 - - [21/Mar/2018:10:48:59 -0400] "POST /myapplication/UIDL/?v-uiId=0 HTTP/1.1" 200 137
0:0:0:0:0:0:0:1 - - [21/Mar/2018:10:49:02 -0400] "POST /myapplication/UIDL/?v-uiId=0 HTTP/1.1" 200 190
0:0:0:0:0:0:0:1 - - [21/Mar/2018:10:49:02 -0400] "POST /myapplication/UIDL/?v-uiId=0 HTTP/1.1" 200 5339
0:0:0:0:0:0:0:1 - - [21/Mar/2018:10:49:04 -0400] "POST /myapplication/UIDL/?v-uiId=0 HTTP/1.1" 200 1069
0:0:0:0:0:0:0:1 - - [21/Mar/2018:10:49:06 -0400] "POST /myapplication/UIDL/?v-uiId=0 HTTP/1.1" 200 7426
0:0:0:0:0:0:0:1 - - [21/Mar/2018:10:49:08 -0400] "POST /myapplication/UIDL/?v-uiId=0 HTTP/1.1" 200 11532
0:0:0:0:0:0:0:1 - - [21/Mar/2018:10:49:14 -0400] "POST /myapplication/UIDL/?v-uiId=0 HTTP/1.1" 200 375
0:0:0:0:0:0:0:1 - - [21/Mar/2018:10:49:14 -0400] "POST /myapplication/UIDL/?v-uiId=0 HTTP/1.1" 200 139
0:0:0:0:0:0:0:1 - - [21/Mar/2018:10:49:16 -0400] "POST /myapplication/UIDL/?v-uiId=0 HTTP/1.1" 200 139
0:0:0:0:0:0:0:1 - - [21/Mar/2018:10:49:16 -0400] "POST /myapplication/UIDL/?v-uiId=0 HTTP/1.1" 200 139
0:0:0:0:0:0:0:1 - - [21/Mar/2018:10:49:20 -0400] "POST /myapplication/UIDL/?v-uiId=0 HTTP/1.1" 200 139
0:0:0:0:0:0:0:1 - - [21/Mar/2018:10:49:22 -0400] "POST /myapplication/UIDL/?v-uiId=0 HTTP/1.1" 200 139
0:0:0:0:0:0:0:1 - - [21/Mar/2018:10:49:22 -0400] "POST /myapplication/UIDL/?v-uiId=0 HTTP/1.1" 200 139
0:0:0:0:0:0:0:1 - - [21/Mar/2018:10:49:27 -0400] "POST /myapplication/UIDL/?v-uiId=0 HTTP/1.1" 200 139
0:0:0:0:0:0:0:1 - - [21/Mar/2018:10:49:38 -0400] "POST /myapplication/UIDL/?v-uiId=0 HTTP/1.1" 200 416
0:0:0:0:0:0:0:1 - - [21/Mar/2018:10:49:39 -0400] "POST /myapplication/UIDL/?v-uiId=0 HTTP/1.1" 200 139
0:0:0:0:0:0:0:1 - - [21/Mar/2018:10:49:41 -0400] "POST /myapplication/UIDL/?v-uiId=0 HTTP/1.1" 200 139
0:0:0:0:0:0:0:1 - - [21/Mar/2018:10:50:13 -0400] "GET /myapplication/servlet/com.example.myapplication.MyUI$MyUIServlet HTTP/1.1" 200 1861
0:0:0:0:0:0:0:1 - - [21/Mar/2018:10:50:13 -0400] "POST /myapplication/UIDL/?v-uiId=0 HTTP/1.1" 200 237
0:0:0:0:0:0:0:1 - - [21/Mar/2018:10:50:13 -0400] "GET /myapplication/VAADIN/widgetsets/com.vaadin.DefaultWidgetSet/com.vaadin.DefaultWidgetSet.nocache.js?1521643813184 HTTP/1.1" 200 3231
0:0:0:0:0:0:0:1 - - [21/Mar/2018:10:50:16 -0400] "POST /myapplication/servlet/com.example.myapplication.MyUI$MyUIServlet?v-1521643813185 HTTP/1.1" 200 6323
0:0:0:0:0:0:0:1 - - [21/Mar/2018:10:50:18 -0400] "POST /myapplication/UIDL/?v-uiId=0 HTTP/1.1" 200 137
0:0:0:0:0:0:0:1 - - [21/Mar/2018:10:50:23 -0400] "POST /myapplication/UIDL/?v-uiId=0 HTTP/1.1" 200 190
0:0:0:0:0:0:0:1 - - [21/Mar/2018:10:50:23 -0400] "POST /myapplication/UIDL/?v-uiId=0 HTTP/1.1" 200 137
0:0:0:0:0:0:0:1 - - [21/Mar/2018:10:50:26 -0400] "POST /myapplication/UIDL/?v-uiId=0 HTTP/1.1" 200 191
0:0:0:0:0:0:0:1 - - [21/Mar/2018:10:50:26 -0400] "POST /myapplication/UIDL/?v-uiId=0 HTTP/1.1" 200 5337
0:0:0:0:0:0:0:1 - - [21/Mar/2018:10:50:29 -0400] "POST /myapplication/UIDL/?v-uiId=0 HTTP/1.1" 200 1069
0:0:0:0:0:0:0:1 - - [21/Mar/2018:10:50:30 -0400] "POST /myapplication/UIDL/?v-uiId=0 HTTP/1.1" 200 7424
0:0:0:0:0:0:0:1 - - [21/Mar/2018:10:50:31 -0400] "POST /myapplication/UIDL/?v-uiId=0 HTTP/1.1" 200 11699
0:0:0:0:0:0:0:1 - - [21/Mar/2018:10:50:35 -0400] "POST /myapplication/UIDL/?v-uiId=0 HTTP/1.1" 200 375
0:0:0:0:0:0:0:1 - - [21/Mar/2018:10:50:36 -0400] "POST /myapplication/UIDL/?v-uiId=0 HTTP/1.1" 200 139
0:0:0:0:0:0:0:1 - - [21/Mar/2018:10:50:59 -0400] "POST /myapplication/UIDL/?v-uiId=0 HTTP/1.1" 200 422
0:0:0:0:0:0:0:1 - - [21/Mar/2018:10:51:03 -0400] "POST /myapplication/UIDL/?v-uiId=0 HTTP/1.1" 200 494
0:0:0:0:0:0:0:1 - - [21/Mar/2018:10:51:03 -0400] "POST /myapplication/UIDL/?v-uiId=0 HTTP/1.1" 200 139
0:0:0:0:0:0:0:1 - - [21/Mar/2018:10:51:04 -0400] "POST /myapplication/UIDL/?v-uiId=0 HTTP/1.1" 200 139
0:0:0:0:0:0:0:1 - - [21/Mar/2018:10:51:15 -0400] "POST /myapplication/UIDL/?v-uiId=0 HTTP/1.1" 200 235
0:0:0:0:0:0:0:1 - - [21/Mar/2018:10:51:16 -0400] "GET /myapplication/servlet/com.example.myapplication.MyUI$MyUIServlet HTTP/1.1" 200 1861
0:0:0:0:0:0:0:1 - - [21/Mar/2018:10:51:16 -0400] "GET /myapplication/VAADIN/widgetsets/com.vaadin.DefaultWidgetSet/com.vaadin.DefaultWidgetSet.nocache.js?1521643876182 HTTP/1.1" 200 3231
0:0:0:0:0:0:0:1 - - [21/Mar/2018:10:51:19 -0400] "POST /myapplication/servlet/com.example.myapplication.MyUI$MyUIServlet?v-1521643876183 HTTP/1.1" 200 6324
0:0:0:0:0:0:0:1 - - [21/Mar/2018:10:51:19 -0400] "POST /myapplication/UIDL/?v-uiId=0 HTTP/1.1" 200 137
0:0:0:0:0:0:0:1 - - [21/Mar/2018:10:51:21 -0400] "POST /myapplication/UIDL/?v-uiId=0 HTTP/1.1" 200 191
0:0:0:0:0:0:0:1 - - [21/Mar/2018:10:51:21 -0400] "POST /myapplication/UIDL/?v-uiId=0 HTTP/1.1" 200 137
0:0:0:0:0:0:0:1 - - [21/Mar/2018:10:51:24 -0400] "POST /myapplication/UIDL/?v-uiId=0 HTTP/1.1" 200 191
0:0:0:0:0:0:0:1 - - [21/Mar/2018:10:51:24 -0400] "POST /myapplication/UIDL/?v-uiId=0 HTTP/1.1" 200 5335
0:0:0:0:0:0:0:1 - - [21/Mar/2018:10:51:26 -0400] "POST /myapplication/UIDL/?v-uiId=0 HTTP/1.1" 200 1069
0:0:0:0:0:0:0:1 - - [21/Mar/2018:10:51:28 -0400] "POST /myapplication/UIDL/?v-uiId=0 HTTP/1.1" 200 7422
0:0:0:0:0:0:0:1 - - [21/Mar/2018:10:51:29 -0400] "POST /myapplication/UIDL/?v-uiId=0 HTTP/1.1" 200 11696
0:0:0:0:0:0:0:1 - - [21/Mar/2018:10:51:31 -0400] "POST /myapplication/UIDL/?v-uiId=0 HTTP/1.1" 200 375
0:0:0:0:0:0:0:1 - - [21/Mar/2018:10:51:32 -0400] "POST /myapplication/UIDL/?v-uiId=0 HTTP/1.1" 200 139
0:0:0:0:0:0:0:1 - - [21/Mar/2018:10:51:32 -0400] "POST /myapplication/UIDL/?v-uiId=0 HTTP/1.1" 200 139
0:0:0:0:0:0:0:1 - - [21/Mar/2018:10:51:33 -0400] "POST /myapplication/UIDL/?v-uiId=0 HTTP/1.1" 200 139
0:0:0:0:0:0:0:1 - - [21/Mar/2018:10:51:35 -0400] "POST /myapplication/UIDL/?v-uiId=0 HTTP/1.1" 200 415
0:0:0:0:0:0:0:1 - - [21/Mar/2018:10:51:36 -0400] "POST /myapplication/UIDL/?v-uiId=0 HTTP/1.1" 200 139
0:0:0:0:0:0:0:1 - - [21/Mar/2018:10:51:36 -0400] "POST /myapplication/UIDL/?v-uiId=0 HTTP/1.1" 200 139
0:0:0:0:0:0:0:1 - - [21/Mar/2018:10:51:37 -0400] "POST /myapplication/UIDL/?v-uiId=0 HTTP/1.1" 200 139
0:0:0:0:0:0:0:1 - - [21/Mar/2018:10:51:38 -0400] "POST /myapplication/UIDL/?v-uiId=0 HTTP/1.1" 200 139
0:0:0:0:0:0:0:1 - - [21/Mar/2018:10:51:39 -0400] "POST /myapplication/UIDL/?v-uiId=0 HTTP/1.1" 200 139
0:0:0:0:0:0:0:1 - - [21/Mar/2018:10:51:41 -0400] "POST /myapplication/UIDL/?v-uiId=0 HTTP/1.1" 200 139
0:0:0:0:0:0:0:1 - - [21/Mar/2018:10:51:49 -0400] "POST /myapplication/UIDL/?v-uiId=0 HTTP/1.1" 200 139
0:0:0:0:0:0:0:1 - - [21/Mar/2018:10:52:01 -0400] "POST /myapplication/UIDL/?v-uiId=0 HTTP/1.1" 200 139
0:0:0:0:0:0:0:1 - - [21/Mar/2018:10:53:12 -0400] "GET /myapplication/servlet/com.example.myapplication.MyUI$MyUIServlet HTTP/1.1" 200 1861
0:0:0:0:0:0:0:1 - - [21/Mar/2018:10:53:12 -0400] "GET /myapplication/VAADIN/widgetsets/com.vaadin.DefaultWidgetSet/com.vaadin.DefaultWidgetSet.nocache.js?1521643992524 HTTP/1.1" 200 3231
0:0:0:0:0:0:0:1 - - [21/Mar/2018:10:53:14 -0400] "POST /myapplication/servlet/com.example.myapplication.MyUI$MyUIServlet?v-1521643992524 HTTP/1.1" 200 6479
0:0:0:0:0:0:0:1 - - [21/Mar/2018:10:53:16 -0400] "POST /myapplication/UIDL/?v-uiId=0 HTTP/1.1" 200 235
0:0:0:0:0:0:0:1 - - [21/Mar/2018:10:53:16 -0400] "POST /myapplication/UIDL/?v-uiId=1 HTTP/1.1" 200 235
0:0:0:0:0:0:0:1 - - [21/Mar/2018:10:53:20 -0400] "GET /myapplication/servlet/com.example.myapplication.MyUI$MyUIServlet HTTP/1.1" 200 1861
0:0:0:0:0:0:0:1 - - [21/Mar/2018:10:53:21 -0400] "GET /myapplication/VAADIN/widgetsets/com.vaadin.DefaultWidgetSet/com.vaadin.DefaultWidgetSet.nocache.js?1521644001030 HTTP/1.1" 200 3231
0:0:0:0:0:0:0:1 - - [21/Mar/2018:10:53:23 -0400] "POST /myapplication/servlet/com.example.myapplication.MyUI$MyUIServlet?v-1521644001031 HTTP/1.1" 200 6325
0:0:0:0:0:0:0:1 - - [21/Mar/2018:10:53:23 -0400] "POST /myapplication/UIDL/?v-uiId=0 HTTP/1.1" 200 137
0:0:0:0:0:0:0:1 - - [21/Mar/2018:10:53:26 -0400] "POST /myapplication/UIDL/?v-uiId=0 HTTP/1.1" 200 191
0:0:0:0:0:0:0:1 - - [21/Mar/2018:10:53:26 -0400] "POST /myapplication/UIDL/?v-uiId=0 HTTP/1.1" 200 137
0:0:0:0:0:0:0:1 - - [21/Mar/2018:10:53:29 -0400] "POST /myapplication/UIDL/?v-uiId=0 HTTP/1.1" 200 190
0:0:0:0:0:0:0:1 - - [21/Mar/2018:10:53:29 -0400] "POST /myapplication/UIDL/?v-uiId=0 HTTP/1.1" 200 5341
0:0:0:0:0:0:0:1 - - [21/Mar/2018:10:53:31 -0400] "POST /myapplication/UIDL/?v-uiId=0 HTTP/1.1" 200 1069
0:0:0:0:0:0:0:1 - - [21/Mar/2018:10:53:32 -0400] "POST /myapplication/UIDL/?v-uiId=0 HTTP/1.1" 200 7428
0:0:0:0:0:0:0:1 - - [21/Mar/2018:10:53:33 -0400] "POST /myapplication/UIDL/?v-uiId=0 HTTP/1.1" 200 11704
0:0:0:0:0:0:0:1 - - [21/Mar/2018:10:53:37 -0400] "POST /myapplication/UIDL/?v-uiId=0 HTTP/1.1" 200 375
0:0:0:0:0:0:0:1 - - [21/Mar/2018:10:53:38 -0400] "POST /myapplication/UIDL/?v-uiId=0 HTTP/1.1" 200 139
0:0:0:0:0:0:0:1 - - [21/Mar/2018:10:53:40 -0400] "POST /myapplication/UIDL/?v-uiId=0 HTTP/1.1" 200 427
0:0:0:0:0:0:0:1 - - [21/Mar/2018:10:53:43 -0400] "POST /myapplication/UIDL/?v-uiId=0 HTTP/1.1" 200 139
0:0:0:0:0:0:0:1 - - [21/Mar/2018:10:53:46 -0400] "POST /myapplication/UIDL/?v-uiId=0 HTTP/1.1" 200 389
0:0:0:0:0:0:0:1 - - [21/Mar/2018:10:53:48 -0400] "POST /myapplication/UIDL/?v-uiId=0 HTTP/1.1" 200 139
0:0:0:0:0:0:0:1 - - [21/Mar/2018:10:55:01 -0400] "GET /myapplication/servlet/com.example.myapplication.MyUI$MyUIServlet HTTP/1.1" 200 1861
0:0:0:0:0:0:0:1 - - [21/Mar/2018:10:55:01 -0400] "GET /myapplication/VAADIN/widgetsets/com.vaadin.DefaultWidgetSet/com.vaadin.DefaultWidgetSet.nocache.js?1521644101141 HTTP/1.1" 200 3231
0:0:0:0:0:0:0:1 - - [21/Mar/2018:10:55:02 -0400] "POST /myapplication/servlet/com.example.myapplication.MyUI$MyUIServlet?v-1521644101141 HTTP/1.1" 200 6480
0:0:0:0:0:0:0:1 - - [21/Mar/2018:10:55:03 -0400] "POST /myapplication/UIDL/?v-uiId=1 HTTP/1.1" 200 137
0:0:0:0:0:0:0:1 - - [21/Mar/2018:10:55:09 -0400] "POST /myapplication/UIDL/?v-uiId=1 HTTP/1.1" 200 235
0:0:0:0:0:0:0:1 - - [21/Mar/2018:10:55:10 -0400] "GET /myapplication/servlet/com.example.myapplication.MyUI$MyUIServlet HTTP/1.1" 200 1861
0:0:0:0:0:0:0:1 - - [21/Mar/2018:10:55:10 -0400] "GET /myapplication/VAADIN/vaadinBootstrap.js?v=8.3.1 HTTP/1.1" 304 -
0:0:0:0:0:0:0:1 - - [21/Mar/2018:10:55:10 -0400] "GET /myapplication/VAADIN/themes/mytheme/styles.css?v=8.3.1 HTTP/1.1" 304 -
0:0:0:0:0:0:0:1 - - [21/Mar/2018:10:55:10 -0400] "GET /myapplication/VAADIN/widgetsets/com.vaadin.DefaultWidgetSet/com.vaadin.DefaultWidgetSet.nocache.js?1521644110166 HTTP/1.1" 200 3231
0:0:0:0:0:0:0:1 - - [21/Mar/2018:10:55:10 -0400] "GET /myapplication/VAADIN/themes/valo/shared/img/spinner.gif HTTP/1.1" 304 -
0:0:0:0:0:0:0:1 - - [21/Mar/2018:10:55:10 -0400] "GET /myapplication/VAADIN/widgetsets/com.vaadin.DefaultWidgetSet/99065197202814696C2A1A56BF276C09.cache.js HTTP/1.1" 304 -
0:0:0:0:0:0:0:1 - - [21/Mar/2018:10:55:12 -0400] "POST /myapplication/servlet/com.example.myapplication.MyUI$MyUIServlet?v-1521644110167 HTTP/1.1" 200 6324
0:0:0:0:0:0:0:1 - - [21/Mar/2018:10:55:12 -0400] "POST /myapplication/UIDL/?v-uiId=0 HTTP/1.1" 200 137
0:0:0:0:0:0:0:1 - - [21/Mar/2018:10:55:15 -0400] "POST /myapplication/UIDL/?v-uiId=0 HTTP/1.1" 200 191
0:0:0:0:0:0:0:1 - - [21/Mar/2018:10:55:15 -0400] "POST /myapplication/UIDL/?v-uiId=0 HTTP/1.1" 200 137
0:0:0:0:0:0:0:1 - - [21/Mar/2018:10:55:18 -0400] "POST /myapplication/UIDL/?v-uiId=0 HTTP/1.1" 200 191
0:0:0:0:0:0:0:1 - - [21/Mar/2018:10:55:18 -0400] "POST /myapplication/UIDL/?v-uiId=0 HTTP/1.1" 200 5337
0:0:0:0:0:0:0:1 - - [21/Mar/2018:10:55:18 -0400] "GET /myapplication/VAADIN/themes/mytheme/imagens/logo-prosaude.png HTTP/1.1" 304 -
0:0:0:0:0:0:0:1 - - [21/Mar/2018:10:55:20 -0400] "POST /myapplication/UIDL/?v-uiId=0 HTTP/1.1" 200 1069
0:0:0:0:0:0:0:1 - - [21/Mar/2018:10:55:21 -0400] "POST /myapplication/UIDL/?v-uiId=0 HTTP/1.1" 200 7424
0:0:0:0:0:0:0:1 - - [21/Mar/2018:10:55:21 -0400] "GET /myapplication/VAADIN/themes/mytheme/imagens/library/insert.png HTTP/1.1" 304 -
0:0:0:0:0:0:0:1 - - [21/Mar/2018:10:55:21 -0400] "GET /myapplication/VAADIN/themes/mytheme/imagens/library/update.png HTTP/1.1" 304 -
0:0:0:0:0:0:0:1 - - [21/Mar/2018:10:55:21 -0400] "GET /myapplication/VAADIN/themes/mytheme/imagens/library/find.png HTTP/1.1" 304 -
0:0:0:0:0:0:0:1 - - [21/Mar/2018:10:55:22 -0400] "POST /myapplication/UIDL/?v-uiId=0 HTTP/1.1" 200 11528
0:0:0:0:0:0:0:1 - - [21/Mar/2018:10:55:22 -0400] "GET /myapplication/VAADIN/themes/mytheme/imagens/library/lupa.png HTTP/1.1" 304 -
0:0:0:0:0:0:0:1 - - [21/Mar/2018:10:55:22 -0400] "GET /myapplication/VAADIN/themes/mytheme/imagens/library/money.png HTTP/1.1" 304 -
0:0:0:0:0:0:0:1 - - [21/Mar/2018:10:55:22 -0400] "GET /myapplication/VAADIN/themes/mytheme/imagens/library/cancel.png HTTP/1.1" 304 -
0:0:0:0:0:0:0:1 - - [21/Mar/2018:10:55:22 -0400] "GET /myapplication/VAADIN/themes/mytheme/imagens/library/disk.png HTTP/1.1" 304 -
0:0:0:0:0:0:0:1 - - [21/Mar/2018:10:55:26 -0400] "POST /myapplication/UIDL/?v-uiId=0 HTTP/1.1" 200 654
0:0:0:0:0:0:0:1 - - [21/Mar/2018:10:55:30 -0400] "POST /myapplication/UIDL/?v-uiId=0 HTTP/1.1" 200 139
0:0:0:0:0:0:0:1 - - [21/Mar/2018:10:55:34 -0400] "POST /myapplication/UIDL/?v-uiId=0 HTTP/1.1" 200 139
0:0:0:0:0:0:0:1 - - [21/Mar/2018:10:55:36 -0400] "POST /myapplication/UIDL/?v-uiId=0 HTTP/1.1" 200 139
0:0:0:0:0:0:0:1 - - [21/Mar/2018:10:55:38 -0400] "POST /myapplication/UIDL/?v-uiId=0 HTTP/1.1" 200 139
0:0:0:0:0:0:0:1 - - [21/Mar/2018:10:55:41 -0400] "POST /myapplication/UIDL/?v-uiId=0 HTTP/1.1" 200 139
0:0:0:0:0:0:0:1 - - [21/Mar/2018:10:55:46 -0400] "POST /myapplication/UIDL/?v-uiId=0 HTTP/1.1" 200 139
0:0:0:0:0:0:0:1 - - [21/Mar/2018:10:56:14 -0400] "POST /myapplication/UIDL/?v-uiId=0 HTTP/1.1" 200 375
0:0:0:0:0:0:0:1 - - [21/Mar/2018:10:56:18 -0400] "POST /myapplication/UIDL/?v-uiId=0 HTTP/1.1" 200 391
0:0:0:0:0:0:0:1 - - [21/Mar/2018:10:56:23 -0400] "POST /myapplication/UIDL/?v-uiId=0 HTTP/1.1" 200 139
0:0:0:0:0:0:0:1 - - [21/Mar/2018:10:56:25 -0400] "POST /myapplication/UIDL/?v-uiId=0 HTTP/1.1" 200 407
0:0:0:0:0:0:0:1 - - [21/Mar/2018:10:56:29 -0400] "POST /myapplication/UIDL/?v-uiId=0 HTTP/1.1" 200 423
0:0:0:0:0:0:0:1 - - [21/Mar/2018:10:56:36 -0400] "POST /myapplication/UIDL/?v-uiId=0 HTTP/1.1" 200 139
0:0:0:0:0:0:0:1 - - [21/Mar/2018:11:00:12 -0400] "POST /myapplication/HEARTBEAT/?v-uiId=0 HTTP/1.1" 200 -
0:0:0:0:0:0:0:1 - - [21/Mar/2018:11:05:12 -0400] "POST /myapplication/HEARTBEAT/?v-uiId=0 HTTP/1.1" 200 -
0:0:0:0:0:0:0:1 - - [21/Mar/2018:11:10:12 -0400] "POST /myapplication/HEARTBEAT/?v-uiId=0 HTTP/1.1" 200 -
0:0:0:0:0:0:0:1 - - [21/Mar/2018:11:15:13 -0400] "POST /myapplication/HEARTBEAT/?v-uiId=0 HTTP/1.1" 200 -
0:0:0:0:0:0:0:1 - - [21/Mar/2018:11:42:32 -0400] "POST /myapplication/HEARTBEAT/?v-uiId=0 HTTP/1.1" 200 -
0:0:0:0:0:0:0:1 - - [21/Mar/2018:11:42:36 -0400] "POST /myapplication/UIDL/?v-uiId=0 HTTP/1.1" 200 139
0:0:0:0:0:0:0:1 - - [21/Mar/2018:11:44:53 -0400] "POST /myapplication/UIDL/?v-uiId=0 HTTP/1.1" 200 139
0:0:0:0:0:0:0:1 - - [21/Mar/2018:11:45:41 -0400] "POST /myapplication/UIDL/?v-uiId=0 HTTP/1.1" 200 427
0:0:0:0:0:0:0:1 - - [21/Mar/2018:11:45:44 -0400] "POST /myapplication/UIDL/?v-uiId=0 HTTP/1.1" 200 445
0:0:0:0:0:0:0:1 - - [21/Mar/2018:11:45:45 -0400] "POST /myapplication/UIDL/?v-uiId=0 HTTP/1.1" 200 139
0:0:0:0:0:0:0:1 - - [21/Mar/2018:11:46:09 -0400] "GET /myapplication/servlet/com.example.myapplication.MyUI$MyUIServlet HTTP/1.1" 200 1861
0:0:0:0:0:0:0:1 - - [21/Mar/2018:11:46:09 -0400] "GET /myapplication/VAADIN/widgetsets/com.vaadin.DefaultWidgetSet/com.vaadin.DefaultWidgetSet.nocache.js?1521647169390 HTTP/1.1" 200 3231
0:0:0:0:0:0:0:1 - - [21/Mar/2018:11:46:12 -0400] "POST /myapplication/servlet/com.example.myapplication.MyUI$MyUIServlet?v-1521647169391 HTTP/1.1" 200 6324
0:0:0:0:0:0:0:1 - - [21/Mar/2018:11:46:12 -0400] "POST /myapplication/UIDL/?v-uiId=0 HTTP/1.1" 200 137
0:0:0:0:0:0:0:1 - - [21/Mar/2018:11:46:22 -0400] "POST /myapplication/UIDL/?v-uiId=0 HTTP/1.1" 200 190
0:0:0:0:0:0:0:1 - - [21/Mar/2018:11:46:22 -0400] "POST /myapplication/UIDL/?v-uiId=0 HTTP/1.1" 200 137
0:0:0:0:0:0:0:1 - - [21/Mar/2018:11:46:24 -0400] "POST /myapplication/UIDL/?v-uiId=0 HTTP/1.1" 200 191
0:0:0:0:0:0:0:1 - - [21/Mar/2018:11:46:25 -0400] "POST /myapplication/UIDL/?v-uiId=0 HTTP/1.1" 200 5335
0:0:0:0:0:0:0:1 - - [21/Mar/2018:11:46:27 -0400] "POST /myapplication/UIDL/?v-uiId=0 HTTP/1.1" 200 1069
0:0:0:0:0:0:0:1 - - [21/Mar/2018:11:46:28 -0400] "POST /myapplication/UIDL/?v-uiId=0 HTTP/1.1" 200 7422
0:0:0:0:0:0:0:1 - - [21/Mar/2018:11:46:30 -0400] "POST /myapplication/UIDL/?v-uiId=0 HTTP/1.1" 200 11546
0:0:0:0:0:0:0:1 - - [21/Mar/2018:11:46:36 -0400] "POST /myapplication/UIDL/?v-uiId=0 HTTP/1.1" 200 653
0:0:0:0:0:0:0:1 - - [21/Mar/2018:11:46:38 -0400] "POST /myapplication/UIDL/?v-uiId=0 HTTP/1.1" 200 374
0:0:0:0:0:0:0:1 - - [21/Mar/2018:11:46:40 -0400] "POST /myapplication/UIDL/?v-uiId=0 HTTP/1.1" 200 139
0:0:0:0:0:0:0:1 - - [21/Mar/2018:11:46:42 -0400] "POST /myapplication/UIDL/?v-uiId=0 HTTP/1.1" 200 139
0:0:0:0:0:0:0:1 - - [21/Mar/2018:11:46:47 -0400] "POST /myapplication/UIDL/?v-uiId=0 HTTP/1.1" 200 139
0:0:0:0:0:0:0:1 - - [21/Mar/2018:11:47:21 -0400] "POST /myapplication/UIDL/?v-uiId=0 HTTP/1.1" 200 388
0:0:0:0:0:0:0:1 - - [21/Mar/2018:11:47:24 -0400] "POST /myapplication/UIDL/?v-uiId=0 HTTP/1.1" 200 139
0:0:0:0:0:0:0:1 - - [21/Mar/2018:11:47:27 -0400] "POST /myapplication/UIDL/?v-uiId=0 HTTP/1.1" 200 404
0:0:0:0:0:0:0:1 - - [21/Mar/2018:11:47:28 -0400] "POST /myapplication/UIDL/?v-uiId=0 HTTP/1.1" 200 139
