127.0.0.1 - - [23/Feb/2018:07:11:22 -0400] "GET / HTTP/1.1" 404 951
0:0:0:0:0:0:0:1 - - [23/Feb/2018:07:11:22 -0400] "GET /myapplication/servlet/com.example.myapplication.MyUI$MyUIServlet HTTP/1.1" 200 1912
0:0:0:0:0:0:0:1 - - [23/Feb/2018:07:12:06 -0400] "GET /myapplication/servlet/com.example.myapplication.MyUI$MyUIServlet HTTP/1.1" 200 1806
0:0:0:0:0:0:0:1 - - [23/Feb/2018:07:12:06 -0400] "GET /myapplication/VAADIN/vaadinBootstrap.js?v=8.3.1 HTTP/1.1" 200 3837
0:0:0:0:0:0:0:1 - - [23/Feb/2018:07:12:06 -0400] "GET /myapplication/VAADIN/widgetsets/com.vaadin.DefaultWidgetSet/com.vaadin.DefaultWidgetSet.nocache.js?1519384326909 HTTP/1.1" 200 3231
0:0:0:0:0:0:0:1 - - [23/Feb/2018:07:12:07 -0400] "GET /myapplication/VAADIN/themes/mytheme/styles.css?v=8.3.1 HTTP/1.1" 200 379591
0:0:0:0:0:0:0:1 - - [23/Feb/2018:07:12:08 -0400] "GET /myapplication/VAADIN/themes/valo/shared/img/spinner.gif HTTP/1.1" 200 7194
0:0:0:0:0:0:0:1 - - [23/Feb/2018:07:12:09 -0400] "GET /myapplication/VAADIN/themes/valo/fonts/open-sans/OpenSans-Light-webfont.woff HTTP/1.1" 200 22248
0:0:0:0:0:0:0:1 - - [23/Feb/2018:07:12:09 -0400] "GET /myapplication/VAADIN/widgetsets/com.vaadin.DefaultWidgetSet/99065197202814696C2A1A56BF276C09.cache.js HTTP/1.1" 200 352405
0:0:0:0:0:0:0:1 - - [23/Feb/2018:07:12:09 -0400] "GET /myapplication/VAADIN/themes/mytheme/favicon.ico HTTP/1.1" 200 31005
0:0:0:0:0:0:0:1 - - [23/Feb/2018:07:12:19 -0400] "POST /myapplication/servlet/com.example.myapplication.MyUI$MyUIServlet?v-1519384326909 HTTP/1.1" 200 6326
0:0:0:0:0:0:0:1 - - [23/Feb/2018:07:12:19 -0400] "GET /myapplication/VAADIN/widgetsets/com.vaadin.DefaultWidgetSet/deferredjs/99065197202814696C2A1A56BF276C09/8.cache.js HTTP/1.1" 200 1196
0:0:0:0:0:0:0:1 - - [23/Feb/2018:07:12:19 -0400] "POST /myapplication/UIDL/?v-uiId=0 HTTP/1.1" 200 137
0:0:0:0:0:0:0:1 - - [23/Feb/2018:07:12:19 -0400] "GET /myapplication/VAADIN/widgetsets/com.vaadin.DefaultWidgetSet/deferredjs/99065197202814696C2A1A56BF276C09/2.cache.js HTTP/1.1" 200 183
0:0:0:0:0:0:0:1 - - [23/Feb/2018:07:12:19 -0400] "GET /myapplication/VAADIN/themes/valo/fonts/open-sans/OpenSans-Regular-webfont.woff HTTP/1.1" 200 22660
0:0:0:0:0:0:0:1 - - [23/Feb/2018:07:12:29 -0400] "POST /myapplication/UIDL/?v-uiId=0 HTTP/1.1" 200 191
0:0:0:0:0:0:0:1 - - [23/Feb/2018:07:12:29 -0400] "POST /myapplication/UIDL/?v-uiId=0 HTTP/1.1" 200 137
0:0:0:0:0:0:0:1 - - [23/Feb/2018:07:12:32 -0400] "POST /myapplication/UIDL/?v-uiId=0 HTTP/1.1" 200 191
0:0:0:0:0:0:0:1 - - [23/Feb/2018:07:12:33 -0400] "POST /myapplication/UIDL/?v-uiId=0 HTTP/1.1" 200 5341
0:0:0:0:0:0:0:1 - - [23/Feb/2018:07:12:33 -0400] "GET /myapplication/VAADIN/themes/valo/fonts/themeicons-webfont/themeicons-webfont.woff HTTP/1.1" 200 7868
0:0:0:0:0:0:0:1 - - [23/Feb/2018:07:12:33 -0400] "GET /myapplication/VAADIN/themes/valo/fonts/open-sans/OpenSans-Semibold-webfont.woff HTTP/1.1" 200 22908
0:0:0:0:0:0:0:1 - - [23/Feb/2018:07:12:34 -0400] "GET /myapplication/VAADIN/themes/mytheme/imagens/logo-prosaude.png HTTP/1.1" 200 21928
0:0:0:0:0:0:0:1 - - [23/Feb/2018:07:12:37 -0400] "POST /myapplication/UIDL/?v-uiId=0 HTTP/1.1" 200 10447
0:0:0:0:0:0:0:1 - - [23/Feb/2018:07:12:37 -0400] "GET /myapplication/VAADIN/themes/valo/fonts/fontawesome-webfont/fontawesome-webfont.woff HTTP/1.1" 200 83588
0:0:0:0:0:0:0:1 - - [23/Feb/2018:07:12:37 -0400] "GET /myapplication/VAADIN/themes/mytheme/imagens/library/update.png HTTP/1.1" 200 450
0:0:0:0:0:0:0:1 - - [23/Feb/2018:07:12:37 -0400] "GET /myapplication/VAADIN/themes/mytheme/imagens/library/find.png HTTP/1.1" 200 659
0:0:0:0:0:0:0:1 - - [23/Feb/2018:07:12:37 -0400] "GET /myapplication/VAADIN/themes/mytheme/imagens/library/insert.png HTTP/1.1" 200 733
0:0:0:0:0:0:0:1 - - [23/Feb/2018:07:12:37 -0400] "GET /myapplication/VAADIN/themes/mytheme/imagens/library/print.png HTTP/1.1" 200 48290
0:0:0:0:0:0:0:1 - - [23/Feb/2018:07:12:39 -0400] "POST /myapplication/UIDL/?v-uiId=0 HTTP/1.1" 200 27242
0:0:0:0:0:0:0:1 - - [23/Feb/2018:07:12:39 -0400] "GET /myapplication/VAADIN/themes/mytheme/imagens/library/lupa.png HTTP/1.1" 200 871
0:0:0:0:0:0:0:1 - - [23/Feb/2018:07:12:39 -0400] "GET /myapplication/VAADIN/themes/mytheme/imagens/library/cancel.png HTTP/1.1" 200 587
0:0:0:0:0:0:0:1 - - [23/Feb/2018:07:12:39 -0400] "GET /myapplication/VAADIN/themes/mytheme/imagens/library/disk.png HTTP/1.1" 200 620
0:0:0:0:0:0:0:1 - - [23/Feb/2018:07:12:44 -0400] "POST /myapplication/UIDL/?v-uiId=0 HTTP/1.1" 200 440
0:0:0:0:0:0:0:1 - - [23/Feb/2018:07:12:44 -0400] "POST /myapplication/UIDL/?v-uiId=0 HTTP/1.1" 200 137
0:0:0:0:0:0:0:1 - - [23/Feb/2018:07:12:46 -0400] "POST /myapplication/UIDL/?v-uiId=0 HTTP/1.1" 200 200
0:0:0:0:0:0:0:1 - - [23/Feb/2018:07:12:46 -0400] "POST /myapplication/UIDL/?v-uiId=0 HTTP/1.1" 200 139
0:0:0:0:0:0:0:1 - - [23/Feb/2018:07:12:47 -0400] "POST /myapplication/UIDL/?v-uiId=0 HTTP/1.1" 200 200
0:0:0:0:0:0:0:1 - - [23/Feb/2018:07:12:47 -0400] "POST /myapplication/UIDL/?v-uiId=0 HTTP/1.1" 200 139
0:0:0:0:0:0:0:1 - - [23/Feb/2018:07:12:52 -0400] "POST /myapplication/UIDL/?v-uiId=0 HTTP/1.1" 200 517
0:0:0:0:0:0:0:1 - - [23/Feb/2018:07:12:56 -0400] "POST /myapplication/UIDL/?v-uiId=0 HTTP/1.1" 200 200
0:0:0:0:0:0:0:1 - - [23/Feb/2018:07:12:56 -0400] "POST /myapplication/UIDL/?v-uiId=0 HTTP/1.1" 200 139
0:0:0:0:0:0:0:1 - - [23/Feb/2018:07:13:01 -0400] "POST /myapplication/UIDL/?v-uiId=0 HTTP/1.1" 200 200
0:0:0:0:0:0:0:1 - - [23/Feb/2018:07:13:02 -0400] "POST /myapplication/UIDL/?v-uiId=0 HTTP/1.1" 200 234
0:0:0:0:0:0:0:1 - - [23/Feb/2018:07:13:04 -0400] "POST /myapplication/UIDL/?v-uiId=0 HTTP/1.1" 200 234
0:0:0:0:0:0:0:1 - - [23/Feb/2018:07:13:05 -0400] "POST /myapplication/UIDL/?v-uiId=0 HTTP/1.1" 200 13117
0:0:0:0:0:0:0:1 - - [23/Feb/2018:07:13:13 -0400] "POST /myapplication/UIDL/?v-uiId=0 HTTP/1.1" 200 12983
0:0:0:0:0:0:0:1 - - [23/Feb/2018:07:13:18 -0400] "POST /myapplication/UIDL/?v-uiId=0 HTTP/1.1" 200 12983
0:0:0:0:0:0:0:1 - - [23/Feb/2018:07:13:51 -0400] "POST /myapplication/UIDL/?v-uiId=0 HTTP/1.1" 200 200
0:0:0:0:0:0:0:1 - - [23/Feb/2018:07:13:52 -0400] "POST /myapplication/UIDL/?v-uiId=0 HTTP/1.1" 200 12983
127.0.0.1 - - [23/Feb/2018:07:14:46 -0400] "GET / HTTP/1.1" 404 951
0:0:0:0:0:0:0:1 - - [23/Feb/2018:07:14:47 -0400] "GET /myapplication/WEB-INF/classes/com/example/myapplication/tables/Associados.java HTTP/1.1" 404 949
0:0:0:0:0:0:0:1 - - [23/Feb/2018:07:15:14 -0400] "GET /myapplication/servlet/com.example.myapplication.MyUI$MyUIServlet HTTP/1.1" 200 1806
0:0:0:0:0:0:0:1 - - [23/Feb/2018:07:15:14 -0400] "GET /myapplication/VAADIN/widgetsets/com.vaadin.DefaultWidgetSet/com.vaadin.DefaultWidgetSet.nocache.js?1519384514941 HTTP/1.1" 200 3231
0:0:0:0:0:0:0:1 - - [23/Feb/2018:07:15:15 -0400] "GET /favicon.ico HTTP/1.1" 404 973
0:0:0:0:0:0:0:1 - - [23/Feb/2018:07:15:18 -0400] "POST /myapplication/servlet/com.example.myapplication.MyUI$MyUIServlet?v-1519384514942 HTTP/1.1" 200 6324
0:0:0:0:0:0:0:1 - - [23/Feb/2018:07:15:18 -0400] "POST /myapplication/UIDL/?v-uiId=0 HTTP/1.1" 200 137
0:0:0:0:0:0:0:1 - - [23/Feb/2018:07:15:21 -0400] "POST /myapplication/UIDL/?v-uiId=0 HTTP/1.1" 200 190
0:0:0:0:0:0:0:1 - - [23/Feb/2018:07:15:21 -0400] "POST /myapplication/UIDL/?v-uiId=0 HTTP/1.1" 200 137
0:0:0:0:0:0:0:1 - - [23/Feb/2018:07:15:22 -0400] "POST /myapplication/UIDL/?v-uiId=0 HTTP/1.1" 200 190
0:0:0:0:0:0:0:1 - - [23/Feb/2018:07:15:23 -0400] "POST /myapplication/UIDL/?v-uiId=0 HTTP/1.1" 200 5337
0:0:0:0:0:0:0:1 - - [23/Feb/2018:07:15:37 -0400] "POST /myapplication/UIDL/?v-uiId=0 HTTP/1.1" 200 10443
0:0:0:0:0:0:0:1 - - [23/Feb/2018:07:15:39 -0400] "POST /myapplication/UIDL/?v-uiId=0 HTTP/1.1" 200 25729
0:0:0:0:0:0:0:1 - - [23/Feb/2018:07:15:40 -0400] "POST /myapplication/UIDL/?v-uiId=0 HTTP/1.1" 200 439
0:0:0:0:0:0:0:1 - - [23/Feb/2018:07:15:40 -0400] "POST /myapplication/UIDL/?v-uiId=0 HTTP/1.1" 200 137
0:0:0:0:0:0:0:1 - - [23/Feb/2018:07:15:41 -0400] "POST /myapplication/UIDL/?v-uiId=0 HTTP/1.1" 200 199
0:0:0:0:0:0:0:1 - - [23/Feb/2018:07:15:41 -0400] "POST /myapplication/UIDL/?v-uiId=0 HTTP/1.1" 200 139
0:0:0:0:0:0:0:1 - - [23/Feb/2018:07:15:42 -0400] "POST /myapplication/UIDL/?v-uiId=0 HTTP/1.1" 200 199
0:0:0:0:0:0:0:1 - - [23/Feb/2018:07:15:42 -0400] "POST /myapplication/UIDL/?v-uiId=0 HTTP/1.1" 200 139
0:0:0:0:0:0:0:1 - - [23/Feb/2018:07:15:45 -0400] "POST /myapplication/UIDL/?v-uiId=0 HTTP/1.1" 200 512
0:0:0:0:0:0:0:1 - - [23/Feb/2018:07:15:50 -0400] "POST /myapplication/UIDL/?v-uiId=0 HTTP/1.1" 200 199
0:0:0:0:0:0:0:1 - - [23/Feb/2018:07:15:50 -0400] "POST /myapplication/UIDL/?v-uiId=0 HTTP/1.1" 200 139
0:0:0:0:0:0:0:1 - - [23/Feb/2018:07:15:54 -0400] "POST /myapplication/UIDL/?v-uiId=0 HTTP/1.1" 200 199
0:0:0:0:0:0:0:1 - - [23/Feb/2018:07:15:55 -0400] "POST /myapplication/UIDL/?v-uiId=0 HTTP/1.1" 200 234
0:0:0:0:0:0:0:1 - - [23/Feb/2018:07:15:56 -0400] "POST /myapplication/UIDL/?v-uiId=0 HTTP/1.1" 200 234
0:0:0:0:0:0:0:1 - - [23/Feb/2018:07:15:58 -0400] "POST /myapplication/UIDL/?v-uiId=0 HTTP/1.1" 200 13070
0:0:0:0:0:0:0:1 - - [23/Feb/2018:07:18:38 -0400] "GET /myapplication/servlet/com.example.myapplication.MyUI$MyUIServlet HTTP/1.1" 200 1806
0:0:0:0:0:0:0:1 - - [23/Feb/2018:07:18:38 -0400] "GET /myapplication/VAADIN/widgetsets/com.vaadin.DefaultWidgetSet/com.vaadin.DefaultWidgetSet.nocache.js?1519384718412 HTTP/1.1" 200 3231
0:0:0:0:0:0:0:1 - - [23/Feb/2018:07:18:41 -0400] "POST /myapplication/servlet/com.example.myapplication.MyUI$MyUIServlet?v-1519384718412 HTTP/1.1" 200 6325
0:0:0:0:0:0:0:1 - - [23/Feb/2018:07:18:41 -0400] "POST /myapplication/UIDL/?v-uiId=0 HTTP/1.1" 200 137
0:0:0:0:0:0:0:1 - - [23/Feb/2018:07:18:43 -0400] "POST /myapplication/UIDL/?v-uiId=0 HTTP/1.1" 200 191
0:0:0:0:0:0:0:1 - - [23/Feb/2018:07:18:43 -0400] "POST /myapplication/UIDL/?v-uiId=0 HTTP/1.1" 200 137
0:0:0:0:0:0:0:1 - - [23/Feb/2018:07:18:46 -0400] "POST /myapplication/UIDL/?v-uiId=0 HTTP/1.1" 200 191
0:0:0:0:0:0:0:1 - - [23/Feb/2018:07:18:46 -0400] "POST /myapplication/UIDL/?v-uiId=0 HTTP/1.1" 200 5339
0:0:0:0:0:0:0:1 - - [23/Feb/2018:07:18:47 -0400] "POST /myapplication/UIDL/?v-uiId=0 HTTP/1.1" 200 10445
0:0:0:0:0:0:0:1 - - [23/Feb/2018:07:18:49 -0400] "POST /myapplication/UIDL/?v-uiId=0 HTTP/1.1" 200 25760
0:0:0:0:0:0:0:1 - - [23/Feb/2018:07:18:50 -0400] "POST /myapplication/UIDL/?v-uiId=0 HTTP/1.1" 200 440
0:0:0:0:0:0:0:1 - - [23/Feb/2018:07:18:50 -0400] "POST /myapplication/UIDL/?v-uiId=0 HTTP/1.1" 200 137
0:0:0:0:0:0:0:1 - - [23/Feb/2018:07:18:52 -0400] "POST /myapplication/UIDL/?v-uiId=0 HTTP/1.1" 200 200
0:0:0:0:0:0:0:1 - - [23/Feb/2018:07:18:52 -0400] "POST /myapplication/UIDL/?v-uiId=0 HTTP/1.1" 200 139
0:0:0:0:0:0:0:1 - - [23/Feb/2018:07:18:53 -0400] "POST /myapplication/UIDL/?v-uiId=0 HTTP/1.1" 200 200
0:0:0:0:0:0:0:1 - - [23/Feb/2018:07:18:53 -0400] "POST /myapplication/UIDL/?v-uiId=0 HTTP/1.1" 200 139
0:0:0:0:0:0:0:1 - - [23/Feb/2018:07:18:55 -0400] "POST /myapplication/UIDL/?v-uiId=0 HTTP/1.1" 200 517
0:0:0:0:0:0:0:1 - - [23/Feb/2018:07:18:58 -0400] "POST /myapplication/UIDL/?v-uiId=0 HTTP/1.1" 200 200
0:0:0:0:0:0:0:1 - - [23/Feb/2018:07:18:58 -0400] "POST /myapplication/UIDL/?v-uiId=0 HTTP/1.1" 200 139
0:0:0:0:0:0:0:1 - - [23/Feb/2018:07:19:00 -0400] "POST /myapplication/UIDL/?v-uiId=0 HTTP/1.1" 200 139
0:0:0:0:0:0:0:1 - - [23/Feb/2018:07:19:03 -0400] "POST /myapplication/UIDL/?v-uiId=0 HTTP/1.1" 200 200
0:0:0:0:0:0:0:1 - - [23/Feb/2018:07:19:05 -0400] "POST /myapplication/UIDL/?v-uiId=0 HTTP/1.1" 200 234
0:0:0:0:0:0:0:1 - - [23/Feb/2018:07:19:07 -0400] "POST /myapplication/UIDL/?v-uiId=0 HTTP/1.1" 200 234
0:0:0:0:0:0:0:1 - - [23/Feb/2018:07:19:09 -0400] "POST /myapplication/UIDL/?v-uiId=0 HTTP/1.1" 200 4438
0:0:0:0:0:0:0:1 - - [23/Feb/2018:07:23:41 -0400] "POST /myapplication/HEARTBEAT/?v-uiId=0 HTTP/1.1" 200 -
0:0:0:0:0:0:0:1 - - [23/Feb/2018:07:28:41 -0400] "POST /myapplication/HEARTBEAT/?v-uiId=0 HTTP/1.1" 410 1021
