127.0.0.1 - - [28/Apr/2018:23:18:08 -0400] "GET / HTTP/1.1" 404 951
0:0:0:0:0:0:0:1 - - [28/Apr/2018:23:18:08 -0400] "GET /myapplication/servlet/com.example.myapplication.MyUI$MyUIServlet HTTP/1.1" 200 1912
0:0:0:0:0:0:0:1 - - [28/Apr/2018:23:18:17 -0400] "GET /myapplication/servlet/com.example.myapplication.MyUI$MyUIServlet HTTP/1.1" 200 1861
0:0:0:0:0:0:0:1 - - [28/Apr/2018:23:18:17 -0400] "GET /myapplication/VAADIN/vaadinBootstrap.js?v=8.3.1 HTTP/1.1" 200 3837
0:0:0:0:0:0:0:1 - - [28/Apr/2018:23:18:17 -0400] "GET /myapplication/VAADIN/widgetsets/com.vaadin.DefaultWidgetSet/com.vaadin.DefaultWidgetSet.nocache.js?1524971897156 HTTP/1.1" 200 3231
0:0:0:0:0:0:0:1 - - [28/Apr/2018:23:18:17 -0400] "GET /myapplication/VAADIN/themes/mytheme/styles.css?v=8.3.1 HTTP/1.1" 200 380400
0:0:0:0:0:0:0:1 - - [28/Apr/2018:23:18:17 -0400] "GET /myapplication/VAADIN/themes/valo/shared/img/spinner.gif HTTP/1.1" 200 7194
0:0:0:0:0:0:0:1 - - [28/Apr/2018:23:18:17 -0400] "GET /myapplication/VAADIN/widgetsets/com.vaadin.DefaultWidgetSet/99065197202814696C2A1A56BF276C09.cache.js HTTP/1.1" 200 352405
0:0:0:0:0:0:0:1 - - [28/Apr/2018:23:18:17 -0400] "GET /myapplication/VAADIN/themes/mytheme/favicon.ico HTTP/1.1" 200 31005
0:0:0:0:0:0:0:1 - - [28/Apr/2018:23:18:17 -0400] "POST /myapplication/servlet/com.example.myapplication.MyUI$MyUIServlet?v-1524971897156 HTTP/1.1" 200 8043
0:0:0:0:0:0:0:1 - - [28/Apr/2018:23:18:17 -0400] "GET /myapplication/VAADIN/themes/valo/fonts/open-sans/OpenSans-Light-webfont.woff HTTP/1.1" 200 22248
0:0:0:0:0:0:0:1 - - [28/Apr/2018:23:18:17 -0400] "GET /myapplication/VAADIN/widgetsets/com.vaadin.DefaultWidgetSet/deferredjs/99065197202814696C2A1A56BF276C09/8.cache.js HTTP/1.1" 200 1196
0:0:0:0:0:0:0:1 - - [28/Apr/2018:23:18:17 -0400] "GET /myapplication/VAADIN/widgetsets/com.vaadin.DefaultWidgetSet/deferredjs/99065197202814696C2A1A56BF276C09/2.cache.js HTTP/1.1" 200 183
0:0:0:0:0:0:0:1 - - [28/Apr/2018:23:18:17 -0400] "POST /myapplication/UIDL/?v-uiId=0 HTTP/1.1" 200 137
0:0:0:0:0:0:0:1 - - [28/Apr/2018:23:18:18 -0400] "GET /myapplication/VAADIN/themes/valo/fonts/open-sans/OpenSans-Regular-webfont.woff HTTP/1.1" 200 22660
0:0:0:0:0:0:0:1 - - [28/Apr/2018:23:18:44 -0400] "GET /myapplication/servlet/com.example.myapplication.MyUI$MyUIServlet HTTP/1.1" 200 1861
0:0:0:0:0:0:0:1 - - [28/Apr/2018:23:18:44 -0400] "GET /myapplication/VAADIN/widgetsets/com.vaadin.DefaultWidgetSet/com.vaadin.DefaultWidgetSet.nocache.js?1524971924892 HTTP/1.1" 200 3231
0:0:0:0:0:0:0:1 - - [28/Apr/2018:23:18:49 -0400] "POST /myapplication/servlet/com.example.myapplication.MyUI$MyUIServlet?v-1524971924894 HTTP/1.1" 200 6125
0:0:0:0:0:0:0:1 - - [28/Apr/2018:23:18:52 -0400] "POST /myapplication/UIDL/?v-uiId=1 HTTP/1.1" 200 235
0:0:0:0:0:0:0:1 - - [28/Apr/2018:23:19:11 -0400] "GET /myapplication/servlet/com.example.myapplication.MyUI$MyUIServlet HTTP/1.1" 200 1861
0:0:0:0:0:0:0:1 - - [28/Apr/2018:23:19:11 -0400] "GET /myapplication/VAADIN/widgetsets/com.vaadin.DefaultWidgetSet/com.vaadin.DefaultWidgetSet.nocache.js?1524971951848 HTTP/1.1" 200 3231
0:0:0:0:0:0:0:1 - - [28/Apr/2018:23:19:12 -0400] "POST /myapplication/servlet/com.example.myapplication.MyUI$MyUIServlet?v-1524971951848 HTTP/1.1" 200 7887
0:0:0:0:0:0:0:1 - - [28/Apr/2018:23:19:12 -0400] "GET /favicon.ico HTTP/1.1" 404 973
0:0:0:0:0:0:0:1 - - [28/Apr/2018:23:19:12 -0400] "POST /myapplication/UIDL/?v-uiId=0 HTTP/1.1" 200 137
0:0:0:0:0:0:0:1 - - [28/Apr/2018:23:19:17 -0400] "GET /myapplication/servlet/com.example.myapplication.MyUI$MyUIServlet HTTP/1.1" 200 1861
0:0:0:0:0:0:0:1 - - [28/Apr/2018:23:19:17 -0400] "GET /myapplication/VAADIN/widgetsets/com.vaadin.DefaultWidgetSet/com.vaadin.DefaultWidgetSet.nocache.js?1524971957388 HTTP/1.1" 200 3231
0:0:0:0:0:0:0:1 - - [28/Apr/2018:23:19:21 -0400] "POST /myapplication/servlet/com.example.myapplication.MyUI$MyUIServlet?v-1524971957388 HTTP/1.1" 200 6126
0:0:0:0:0:0:0:1 - - [28/Apr/2018:23:19:21 -0400] "POST /myapplication/UIDL/?v-uiId=1 HTTP/1.1" 200 137
0:0:0:0:0:0:0:1 - - [28/Apr/2018:23:19:25 -0400] "POST /myapplication/UIDL/?v-uiId=1 HTTP/1.1" 200 137
0:0:0:0:0:0:0:1 - - [28/Apr/2018:23:21:16 -0400] "POST /myapplication/UIDL/?v-uiId=1 HTTP/1.1" 200 137
0:0:0:0:0:0:0:1 - - [28/Apr/2018:23:24:21 -0400] "POST /myapplication/HEARTBEAT/?v-uiId=1 HTTP/1.1" 200 -
0:0:0:0:0:0:0:1 - - [28/Apr/2018:23:24:58 -0400] "POST /myapplication/UIDL/?v-uiId=1 HTTP/1.1" 200 137
0:0:0:0:0:0:0:1 - - [28/Apr/2018:23:29:22 -0400] "POST /myapplication/HEARTBEAT/?v-uiId=1 HTTP/1.1" 200 -
0:0:0:0:0:0:0:1 - - [28/Apr/2018:23:29:24 -0400] "POST /myapplication/UIDL/?v-uiId=1 HTTP/1.1" 200 137
0:0:0:0:0:0:0:1 - - [28/Apr/2018:23:34:22 -0400] "POST /myapplication/HEARTBEAT/?v-uiId=1 HTTP/1.1" 410 1021
127.0.0.1 - - [28/Apr/2018:23:54:45 -0400] "GET / HTTP/1.1" 404 951
0:0:0:0:0:0:0:1 - - [28/Apr/2018:23:54:46 -0400] "GET /myapplication/servlet/com.example.myapplication.MyUI$MyUIServlet HTTP/1.1" 200 1912
0:0:0:0:0:0:0:1 - - [28/Apr/2018:23:56:04 -0400] "GET /myapplication/servlet/com.example.myapplication.MyUI$MyUIServlet HTTP/1.1" 200 1861
0:0:0:0:0:0:0:1 - - [28/Apr/2018:23:56:04 -0400] "GET /myapplication/VAADIN/themes/mytheme/styles.css?v=8.3.1 HTTP/1.1" 200 380400
0:0:0:0:0:0:0:1 - - [28/Apr/2018:23:56:04 -0400] "GET /myapplication/VAADIN/widgetsets/com.vaadin.DefaultWidgetSet/com.vaadin.DefaultWidgetSet.nocache.js?1524974164052 HTTP/1.1" 200 3231
0:0:0:0:0:0:0:1 - - [28/Apr/2018:23:56:04 -0400] "GET /myapplication/VAADIN/themes/valo/shared/img/spinner.gif HTTP/1.1" 200 7194
0:0:0:0:0:0:0:1 - - [28/Apr/2018:23:56:04 -0400] "GET /myapplication/VAADIN/themes/mytheme/favicon.ico HTTP/1.1" 200 31005
0:0:0:0:0:0:0:1 - - [28/Apr/2018:23:56:15 -0400] "POST /myapplication/servlet/com.example.myapplication.MyUI$MyUIServlet?v-1524974164052 HTTP/1.1" 200 6123
0:0:0:0:0:0:0:1 - - [28/Apr/2018:23:56:16 -0400] "GET /myapplication/VAADIN/themes/valo/fonts/open-sans/OpenSans-Light-webfont.woff HTTP/1.1" 200 22248
0:0:0:0:0:0:0:1 - - [28/Apr/2018:23:56:16 -0400] "GET /myapplication/VAADIN/themes/valo/fonts/open-sans/OpenSans-Regular-webfont.woff HTTP/1.1" 200 22660
0:0:0:0:0:0:0:1 - - [28/Apr/2018:23:56:17 -0400] "POST /myapplication/UIDL/?v-uiId=0 HTTP/1.1" 200 137
