127.0.0.1 - - [06/Mar/2018:08:15:05 -0400] "GET / HTTP/1.1" 404 951
0:0:0:0:0:0:0:1 - - [06/Mar/2018:08:15:10 -0400] "GET /myapplication/servlet/com.example.myapplication.MyUI$MyUIServlet HTTP/1.1" 200 1912
0:0:0:0:0:0:0:1 - - [06/Mar/2018:08:16:23 -0400] "GET /myapplication/servlet/com.example.myapplication.MyUI$MyUIServlet HTTP/1.1" 200 1806
0:0:0:0:0:0:0:1 - - [06/Mar/2018:08:16:24 -0400] "GET /myapplication/VAADIN/vaadinBootstrap.js?v=8.3.1 HTTP/1.1" 304 -
0:0:0:0:0:0:0:1 - - [06/Mar/2018:08:16:24 -0400] "GET /myapplication/VAADIN/widgetsets/com.vaadin.DefaultWidgetSet/com.vaadin.DefaultWidgetSet.nocache.js?1520338584806 HTTP/1.1" 200 3231
0:0:0:0:0:0:0:1 - - [06/Mar/2018:08:16:25 -0400] "GET /myapplication/VAADIN/themes/mytheme/styles.css?v=8.3.1 HTTP/1.1" 200 379591
0:0:0:0:0:0:0:1 - - [06/Mar/2018:08:16:25 -0400] "GET /myapplication/VAADIN/themes/valo/fonts/open-sans/OpenSans-Light-webfont.woff HTTP/1.1" 200 22248
0:0:0:0:0:0:0:1 - - [06/Mar/2018:08:16:26 -0400] "GET /myapplication/VAADIN/themes/valo/shared/img/spinner.gif HTTP/1.1" 304 -
0:0:0:0:0:0:0:1 - - [06/Mar/2018:08:16:28 -0400] "POST /myapplication/servlet/com.example.myapplication.MyUI$MyUIServlet?v-1520338584806 HTTP/1.1" 200 6324
0:0:0:0:0:0:0:1 - - [06/Mar/2018:08:16:29 -0400] "POST /myapplication/UIDL/?v-uiId=0 HTTP/1.1" 200 137
0:0:0:0:0:0:0:1 - - [06/Mar/2018:08:16:29 -0400] "GET /myapplication/VAADIN/themes/valo/fonts/open-sans/OpenSans-Regular-webfont.woff HTTP/1.1" 304 -
0:0:0:0:0:0:0:1 - - [06/Mar/2018:08:16:32 -0400] "POST /myapplication/UIDL/?v-uiId=0 HTTP/1.1" 200 190
0:0:0:0:0:0:0:1 - - [06/Mar/2018:08:16:32 -0400] "POST /myapplication/UIDL/?v-uiId=0 HTTP/1.1" 200 137
0:0:0:0:0:0:0:1 - - [06/Mar/2018:08:16:35 -0400] "POST /myapplication/UIDL/?v-uiId=0 HTTP/1.1" 200 310
0:0:0:0:0:0:0:1 - - [06/Mar/2018:08:16:35 -0400] "GET /myapplication/VAADIN/themes/valo/fonts/open-sans/OpenSans-Semibold-webfont.woff HTTP/1.1" 304 -
0:0:0:0:0:0:0:1 - - [06/Mar/2018:08:16:35 -0400] "POST /myapplication/UIDL/?v-uiId=0 HTTP/1.1" 200 211
0:0:0:0:0:0:0:1 - - [06/Mar/2018:08:16:40 -0400] "POST /myapplication/UIDL/?v-uiId=0 HTTP/1.1" 200 211
0:0:0:0:0:0:0:1 - - [06/Mar/2018:08:16:47 -0400] "POST /myapplication/UIDL/?v-uiId=0 HTTP/1.1" 200 267
0:0:0:0:0:0:0:1 - - [06/Mar/2018:08:16:47 -0400] "POST /myapplication/UIDL/?v-uiId=0 HTTP/1.1" 200 5335
0:0:0:0:0:0:0:1 - - [06/Mar/2018:08:16:47 -0400] "GET /myapplication/VAADIN/themes/valo/fonts/themeicons-webfont/themeicons-webfont.woff HTTP/1.1" 304 -
0:0:0:0:0:0:0:1 - - [06/Mar/2018:08:16:47 -0400] "GET /myapplication/VAADIN/themes/mytheme/imagens/logo-prosaude.png HTTP/1.1" 304 -
0:0:0:0:0:0:0:1 - - [06/Mar/2018:08:16:49 -0400] "POST /myapplication/UIDL/?v-uiId=0 HTTP/1.1" 200 853
0:0:0:0:0:0:0:1 - - [06/Mar/2018:08:16:50 -0400] "POST /myapplication/UIDL/?v-uiId=0 HTTP/1.1" 200 11292
0:0:0:0:0:0:0:1 - - [06/Mar/2018:08:16:50 -0400] "GET /myapplication/VAADIN/themes/mytheme/imagens/library/update.png HTTP/1.1" 304 -
0:0:0:0:0:0:0:1 - - [06/Mar/2018:08:16:50 -0400] "GET /myapplication/VAADIN/themes/mytheme/imagens/library/insert.png HTTP/1.1" 304 -
0:0:0:0:0:0:0:1 - - [06/Mar/2018:08:16:50 -0400] "GET /myapplication/VAADIN/themes/valo/fonts/fontawesome-webfont/fontawesome-webfont.woff HTTP/1.1" 304 -
0:0:0:0:0:0:0:1 - - [06/Mar/2018:08:16:50 -0400] "GET /myapplication/VAADIN/themes/mytheme/imagens/library/find.png HTTP/1.1" 304 -
0:0:0:0:0:0:0:1 - - [06/Mar/2018:08:16:52 -0400] "POST /myapplication/UIDL/?v-uiId=0 HTTP/1.1" 200 22088
0:0:0:0:0:0:0:1 - - [06/Mar/2018:08:16:52 -0400] "GET /myapplication/VAADIN/themes/mytheme/imagens/library/lupa.png HTTP/1.1" 304 -
0:0:0:0:0:0:0:1 - - [06/Mar/2018:08:16:52 -0400] "GET /myapplication/VAADIN/themes/mytheme/imagens/library/delete.png HTTP/1.1" 304 -
0:0:0:0:0:0:0:1 - - [06/Mar/2018:08:16:52 -0400] "GET /myapplication/VAADIN/themes/mytheme/imagens/library/money.png HTTP/1.1" 304 -
0:0:0:0:0:0:0:1 - - [06/Mar/2018:08:16:52 -0400] "GET /myapplication/VAADIN/themes/mytheme/imagens/library/cancel.png HTTP/1.1" 304 -
0:0:0:0:0:0:0:1 - - [06/Mar/2018:08:16:52 -0400] "GET /myapplication/VAADIN/themes/mytheme/imagens/library/disk.png HTTP/1.1" 304 -
0:0:0:0:0:0:0:1 - - [06/Mar/2018:08:16:53 -0400] "POST /myapplication/UIDL/?v-uiId=0 HTTP/1.1" 200 203
0:0:0:0:0:0:0:1 - - [06/Mar/2018:08:16:54 -0400] "POST /myapplication/UIDL/?v-uiId=0 HTTP/1.1" 200 688
0:0:0:0:0:0:0:1 - - [06/Mar/2018:08:17:32 -0400] "POST /myapplication/UIDL/?v-uiId=0 HTTP/1.1" 200 21361
0:0:0:0:0:0:0:1 - - [06/Mar/2018:08:17:36 -0400] "POST /myapplication/UIDL/?v-uiId=0 HTTP/1.1" 200 734
0:0:0:0:0:0:0:1 - - [06/Mar/2018:08:17:37 -0400] "POST /myapplication/UIDL/?v-uiId=0 HTTP/1.1" 200 15042
0:0:0:0:0:0:0:1 - - [06/Mar/2018:08:18:39 -0400] "GET /myapplication/servlet/com.example.myapplication.MyUI$MyUIServlet HTTP/1.1" 200 1806
0:0:0:0:0:0:0:1 - - [06/Mar/2018:08:18:39 -0400] "GET /myapplication/VAADIN/widgetsets/com.vaadin.DefaultWidgetSet/com.vaadin.DefaultWidgetSet.nocache.js?1520338719673 HTTP/1.1" 200 3231
0:0:0:0:0:0:0:1 - - [06/Mar/2018:08:18:39 -0400] "GET /favicon.ico HTTP/1.1" 404 973
0:0:0:0:0:0:0:1 - - [06/Mar/2018:08:18:42 -0400] "POST /myapplication/servlet/com.example.myapplication.MyUI$MyUIServlet?v-1520338719674 HTTP/1.1" 200 6324
0:0:0:0:0:0:0:1 - - [06/Mar/2018:08:18:42 -0400] "POST /myapplication/UIDL/?v-uiId=0 HTTP/1.1" 200 137
0:0:0:0:0:0:0:1 - - [06/Mar/2018:08:18:45 -0400] "POST /myapplication/UIDL/?v-uiId=0 HTTP/1.1" 200 191
0:0:0:0:0:0:0:1 - - [06/Mar/2018:08:18:45 -0400] "POST /myapplication/UIDL/?v-uiId=0 HTTP/1.1" 200 137
0:0:0:0:0:0:0:1 - - [06/Mar/2018:08:18:48 -0400] "POST /myapplication/UIDL/?v-uiId=0 HTTP/1.1" 200 311
0:0:0:0:0:0:0:1 - - [06/Mar/2018:08:18:48 -0400] "POST /myapplication/UIDL/?v-uiId=0 HTTP/1.1" 200 211
0:0:0:0:0:0:0:1 - - [06/Mar/2018:08:18:52 -0400] "POST /myapplication/UIDL/?v-uiId=0 HTTP/1.1" 200 268
0:0:0:0:0:0:0:1 - - [06/Mar/2018:08:18:52 -0400] "POST /myapplication/UIDL/?v-uiId=0 HTTP/1.1" 200 5337
0:0:0:0:0:0:0:1 - - [06/Mar/2018:08:18:53 -0400] "POST /myapplication/UIDL/?v-uiId=0 HTTP/1.1" 200 853
0:0:0:0:0:0:0:1 - - [06/Mar/2018:08:18:54 -0400] "POST /myapplication/UIDL/?v-uiId=0 HTTP/1.1" 200 11742
0:0:0:0:0:0:0:1 - - [06/Mar/2018:08:18:56 -0400] "POST /myapplication/UIDL/?v-uiId=0 HTTP/1.1" 200 22099
0:0:0:0:0:0:0:1 - - [06/Mar/2018:08:18:58 -0400] "POST /myapplication/UIDL/?v-uiId=0 HTTP/1.1" 200 738
0:0:0:0:0:0:0:1 - - [06/Mar/2018:08:19:01 -0400] "POST /myapplication/UIDL/?v-uiId=0 HTTP/1.1" 200 15437
0:0:0:0:0:0:0:1 - - [06/Mar/2018:08:19:04 -0400] "POST /myapplication/UIDL/?v-uiId=0 HTTP/1.1" 200 16538
0:0:0:0:0:0:0:1 - - [06/Mar/2018:08:19:04 -0400] "GET /myapplication/VAADIN/themes/mytheme/imagens/library/download.png HTTP/1.1" 304 -
0:0:0:0:0:0:0:1 - - [06/Mar/2018:08:19:04 -0400] "GET /myapplication/VAADIN/themes/mytheme/imagens/library/print.png HTTP/1.1" 304 -
0:0:0:0:0:0:0:1 - - [06/Mar/2018:08:19:04 -0400] "GET /myapplication/VAADIN/themes/mytheme/imagens/library/filter_del.png HTTP/1.1" 304 -
0:0:0:0:0:0:0:1 - - [06/Mar/2018:08:19:09 -0400] "POST /myapplication/UIDL/?v-uiId=0 HTTP/1.1" 200 690
0:0:0:0:0:0:0:1 - - [06/Mar/2018:08:19:09 -0400] "POST /myapplication/UIDL/?v-uiId=0 HTTP/1.1" 200 1042
0:0:0:0:0:0:0:1 - - [06/Mar/2018:08:19:10 -0400] "POST /myapplication/UIDL/?v-uiId=0 HTTP/1.1" 200 444
0:0:0:0:0:0:0:1 - - [06/Mar/2018:08:19:11 -0400] "POST /myapplication/UIDL/?v-uiId=0 HTTP/1.1" 200 845
0:0:0:0:0:0:0:1 - - [06/Mar/2018:08:19:15 -0400] "POST /myapplication/UIDL/?v-uiId=0 HTTP/1.1" 200 8513
0:0:0:0:0:0:0:1 - - [06/Mar/2018:08:19:16 -0400] "POST /myapplication/UIDL/?v-uiId=0 HTTP/1.1" 200 1258
0:0:0:0:0:0:0:1 - - [06/Mar/2018:08:19:16 -0400] "POST /myapplication/UIDL/?v-uiId=0 HTTP/1.1" 200 139
0:0:0:0:0:0:0:1 - - [06/Mar/2018:08:19:16 -0400] "POST /myapplication/UIDL/?v-uiId=0 HTTP/1.1" 200 337
0:0:0:0:0:0:0:1 - - [06/Mar/2018:08:19:18 -0400] "POST /myapplication/UIDL/?v-uiId=0 HTTP/1.1" 200 1014
0:0:0:0:0:0:0:1 - - [06/Mar/2018:08:19:18 -0400] "POST /myapplication/UIDL/?v-uiId=0 HTTP/1.1" 200 139
0:0:0:0:0:0:0:1 - - [06/Mar/2018:08:19:18 -0400] "POST /myapplication/UIDL/?v-uiId=0 HTTP/1.1" 200 337
0:0:0:0:0:0:0:1 - - [06/Mar/2018:08:19:20 -0400] "POST /myapplication/UIDL/?v-uiId=0 HTTP/1.1" 200 1013
0:0:0:0:0:0:0:1 - - [06/Mar/2018:08:19:20 -0400] "POST /myapplication/UIDL/?v-uiId=0 HTTP/1.1" 200 139
0:0:0:0:0:0:0:1 - - [06/Mar/2018:08:19:20 -0400] "POST /myapplication/UIDL/?v-uiId=0 HTTP/1.1" 200 337
0:0:0:0:0:0:0:1 - - [06/Mar/2018:08:19:22 -0400] "POST /myapplication/UIDL/?v-uiId=0 HTTP/1.1" 200 139
0:0:0:0:0:0:0:1 - - [06/Mar/2018:08:19:24 -0400] "POST /myapplication/UIDL/?v-uiId=0 HTTP/1.1" 200 139
0:0:0:0:0:0:0:1 - - [06/Mar/2018:08:19:25 -0400] "POST /myapplication/UIDL/?v-uiId=0 HTTP/1.1" 200 139
0:0:0:0:0:0:0:1 - - [06/Mar/2018:08:19:26 -0400] "POST /myapplication/UIDL/?v-uiId=0 HTTP/1.1" 200 139
0:0:0:0:0:0:0:1 - - [06/Mar/2018:08:19:26 -0400] "POST /myapplication/UIDL/?v-uiId=0 HTTP/1.1" 200 139
0:0:0:0:0:0:0:1 - - [06/Mar/2018:08:19:27 -0400] "POST /myapplication/UIDL/?v-uiId=0 HTTP/1.1" 200 139
0:0:0:0:0:0:0:1 - - [06/Mar/2018:08:19:28 -0400] "POST /myapplication/UIDL/?v-uiId=0 HTTP/1.1" 200 139
0:0:0:0:0:0:0:1 - - [06/Mar/2018:08:19:28 -0400] "POST /myapplication/UIDL/?v-uiId=0 HTTP/1.1" 200 139
0:0:0:0:0:0:0:1 - - [06/Mar/2018:08:19:29 -0400] "POST /myapplication/UIDL/?v-uiId=0 HTTP/1.1" 200 139
0:0:0:0:0:0:0:1 - - [06/Mar/2018:08:19:29 -0400] "POST /myapplication/UIDL/?v-uiId=0 HTTP/1.1" 200 139
0:0:0:0:0:0:0:1 - - [06/Mar/2018:08:19:30 -0400] "POST /myapplication/UIDL/?v-uiId=0 HTTP/1.1" 200 139
0:0:0:0:0:0:0:1 - - [06/Mar/2018:08:19:30 -0400] "POST /myapplication/UIDL/?v-uiId=0 HTTP/1.1" 200 139
0:0:0:0:0:0:0:1 - - [06/Mar/2018:08:19:31 -0400] "POST /myapplication/UIDL/?v-uiId=0 HTTP/1.1" 200 139
0:0:0:0:0:0:0:1 - - [06/Mar/2018:08:19:31 -0400] "POST /myapplication/UIDL/?v-uiId=0 HTTP/1.1" 200 139
0:0:0:0:0:0:0:1 - - [06/Mar/2018:08:19:32 -0400] "POST /myapplication/UIDL/?v-uiId=0 HTTP/1.1" 200 139
0:0:0:0:0:0:0:1 - - [06/Mar/2018:08:19:32 -0400] "POST /myapplication/UIDL/?v-uiId=0 HTTP/1.1" 200 139
0:0:0:0:0:0:0:1 - - [06/Mar/2018:08:19:33 -0400] "POST /myapplication/UIDL/?v-uiId=0 HTTP/1.1" 200 3132
0:0:0:0:0:0:0:1 - - [06/Mar/2018:08:19:35 -0400] "POST /myapplication/UIDL/?v-uiId=0 HTTP/1.1" 200 139
0:0:0:0:0:0:0:1 - - [06/Mar/2018:08:19:36 -0400] "POST /myapplication/UIDL/?v-uiId=0 HTTP/1.1" 200 139
0:0:0:0:0:0:0:1 - - [06/Mar/2018:08:19:36 -0400] "POST /myapplication/UIDL/?v-uiId=0 HTTP/1.1" 200 139
0:0:0:0:0:0:0:1 - - [06/Mar/2018:08:19:37 -0400] "POST /myapplication/UIDL/?v-uiId=0 HTTP/1.1" 200 373
0:0:0:0:0:0:0:1 - - [06/Mar/2018:08:19:39 -0400] "POST /myapplication/UIDL/?v-uiId=0 HTTP/1.1" 200 7888
0:0:0:0:0:0:0:1 - - [06/Mar/2018:08:19:43 -0400] "POST /myapplication/UIDL/?v-uiId=0 HTTP/1.1" 200 215
0:0:0:0:0:0:0:1 - - [06/Mar/2018:08:19:46 -0400] "POST /myapplication/UIDL/?v-uiId=0 HTTP/1.1" 200 7888
0:0:0:0:0:0:0:1 - - [06/Mar/2018:08:19:49 -0400] "POST /myapplication/UIDL/?v-uiId=0 HTTP/1.1" 200 215
0:0:0:0:0:0:0:1 - - [06/Mar/2018:08:19:50 -0400] "POST /myapplication/UIDL/?v-uiId=0 HTTP/1.1" 200 209
0:0:0:0:0:0:0:1 - - [06/Mar/2018:08:20:08 -0400] "POST /myapplication/UIDL/?v-uiId=0 HTTP/1.1" 200 9221
0:0:0:0:0:0:0:1 - - [06/Mar/2018:08:20:11 -0400] "POST /myapplication/UIDL/?v-uiId=0 HTTP/1.1" 200 15839
0:0:0:0:0:0:0:1 - - [06/Mar/2018:08:20:15 -0400] "POST /myapplication/UIDL/?v-uiId=0 HTTP/1.1" 200 690
0:0:0:0:0:0:0:1 - - [06/Mar/2018:08:20:15 -0400] "POST /myapplication/UIDL/?v-uiId=0 HTTP/1.1" 200 1042
0:0:0:0:0:0:0:1 - - [06/Mar/2018:08:20:16 -0400] "POST /myapplication/UIDL/?v-uiId=0 HTTP/1.1" 200 444
0:0:0:0:0:0:0:1 - - [06/Mar/2018:08:20:17 -0400] "POST /myapplication/UIDL/?v-uiId=0 HTTP/1.1" 200 845
0:0:0:0:0:0:0:1 - - [06/Mar/2018:08:20:19 -0400] "POST /myapplication/UIDL/?v-uiId=0 HTTP/1.1" 200 7888
0:0:0:0:0:0:0:1 - - [06/Mar/2018:08:20:20 -0400] "POST /myapplication/UIDL/?v-uiId=0 HTTP/1.1" 200 1258
0:0:0:0:0:0:0:1 - - [06/Mar/2018:08:20:20 -0400] "POST /myapplication/UIDL/?v-uiId=0 HTTP/1.1" 200 139
0:0:0:0:0:0:0:1 - - [06/Mar/2018:08:20:20 -0400] "POST /myapplication/UIDL/?v-uiId=0 HTTP/1.1" 200 337
0:0:0:0:0:0:0:1 - - [06/Mar/2018:08:20:22 -0400] "POST /myapplication/UIDL/?v-uiId=0 HTTP/1.1" 200 139
0:0:0:0:0:0:0:1 - - [06/Mar/2018:08:20:25 -0400] "POST /myapplication/UIDL/?v-uiId=0 HTTP/1.1" 200 139
0:0:0:0:0:0:0:1 - - [06/Mar/2018:08:20:26 -0400] "POST /myapplication/UIDL/?v-uiId=0 HTTP/1.1" 200 215
0:0:0:0:0:0:0:1 - - [06/Mar/2018:08:20:26 -0400] "POST /myapplication/UIDL/?v-uiId=0 HTTP/1.1" 200 209
0:0:0:0:0:0:0:1 - - [06/Mar/2018:08:20:26 -0400] "POST /myapplication/UIDL/?v-uiId=0 HTTP/1.1" 200 203
0:0:0:0:0:0:0:1 - - [06/Mar/2018:08:23:42 -0400] "POST /myapplication/HEARTBEAT/?v-uiId=0 HTTP/1.1" 200 -
0:0:0:0:0:0:0:1 - - [06/Mar/2018:08:25:27 -0400] "POST /myapplication/UIDL/?v-uiId=0 HTTP/1.1" 200 235
0:0:0:0:0:0:0:1 - - [06/Mar/2018:08:25:29 -0400] "GET /myapplication/servlet/com.example.myapplication.MyUI$MyUIServlet HTTP/1.1" 200 1806
0:0:0:0:0:0:0:1 - - [06/Mar/2018:08:25:29 -0400] "GET /myapplication/VAADIN/widgetsets/com.vaadin.DefaultWidgetSet/com.vaadin.DefaultWidgetSet.nocache.js?1520339129529 HTTP/1.1" 200 3231
0:0:0:0:0:0:0:1 - - [06/Mar/2018:08:25:32 -0400] "POST /myapplication/servlet/com.example.myapplication.MyUI$MyUIServlet?v-1520339129529 HTTP/1.1" 200 6323
0:0:0:0:0:0:0:1 - - [06/Mar/2018:08:25:32 -0400] "POST /myapplication/UIDL/?v-uiId=0 HTTP/1.1" 200 137
0:0:0:0:0:0:0:1 - - [06/Mar/2018:08:25:34 -0400] "POST /myapplication/UIDL/?v-uiId=0 HTTP/1.1" 200 190
0:0:0:0:0:0:0:1 - - [06/Mar/2018:08:25:34 -0400] "POST /myapplication/UIDL/?v-uiId=0 HTTP/1.1" 200 137
0:0:0:0:0:0:0:1 - - [06/Mar/2018:08:25:37 -0400] "POST /myapplication/UIDL/?v-uiId=0 HTTP/1.1" 200 190
0:0:0:0:0:0:0:1 - - [06/Mar/2018:08:25:37 -0400] "POST /myapplication/UIDL/?v-uiId=0 HTTP/1.1" 200 5335
0:0:0:0:0:0:0:1 - - [06/Mar/2018:08:25:38 -0400] "POST /myapplication/UIDL/?v-uiId=0 HTTP/1.1" 200 853
0:0:0:0:0:0:0:1 - - [06/Mar/2018:08:25:39 -0400] "POST /myapplication/UIDL/?v-uiId=0 HTTP/1.1" 200 11652
0:0:0:0:0:0:0:1 - - [06/Mar/2018:08:25:41 -0400] "POST /myapplication/UIDL/?v-uiId=0 HTTP/1.1" 200 687
0:0:0:0:0:0:0:1 - - [06/Mar/2018:08:25:43 -0400] "POST /myapplication/UIDL/?v-uiId=0 HTTP/1.1" 200 22084
0:0:0:0:0:0:0:1 - - [06/Mar/2018:08:25:45 -0400] "POST /myapplication/UIDL/?v-uiId=0 HTTP/1.1" 200 734
0:0:0:0:0:0:0:1 - - [06/Mar/2018:08:25:47 -0400] "POST /myapplication/UIDL/?v-uiId=0 HTTP/1.1" 200 139
0:0:0:0:0:0:0:1 - - [06/Mar/2018:08:25:48 -0400] "POST /myapplication/UIDL/?v-uiId=0 HTTP/1.1" 200 15417
0:0:0:0:0:0:0:1 - - [06/Mar/2018:08:25:49 -0400] "POST /myapplication/UIDL/?v-uiId=0 HTTP/1.1" 200 16529
0:0:0:0:0:0:0:1 - - [06/Mar/2018:08:25:53 -0400] "POST /myapplication/UIDL/?v-uiId=0 HTTP/1.1" 200 689
0:0:0:0:0:0:0:1 - - [06/Mar/2018:08:25:53 -0400] "POST /myapplication/UIDL/?v-uiId=0 HTTP/1.1" 200 1042
0:0:0:0:0:0:0:1 - - [06/Mar/2018:08:25:54 -0400] "POST /myapplication/UIDL/?v-uiId=0 HTTP/1.1" 200 444
0:0:0:0:0:0:0:1 - - [06/Mar/2018:08:25:55 -0400] "POST /myapplication/UIDL/?v-uiId=0 HTTP/1.1" 200 837
0:0:0:0:0:0:0:1 - - [06/Mar/2018:08:25:57 -0400] "POST /myapplication/UIDL/?v-uiId=0 HTTP/1.1" 200 1130
0:0:0:0:0:0:0:1 - - [06/Mar/2018:08:26:01 -0400] "POST /myapplication/UIDL/?v-uiId=0 HTTP/1.1" 200 8665
0:0:0:0:0:0:0:1 - - [06/Mar/2018:08:26:04 -0400] "POST /myapplication/UIDL/?v-uiId=0 HTTP/1.1" 200 15957
0:0:0:0:0:0:0:1 - - [06/Mar/2018:08:26:11 -0400] "POST /myapplication/UIDL/?v-uiId=0 HTTP/1.1" 200 689
0:0:0:0:0:0:0:1 - - [06/Mar/2018:08:26:12 -0400] "POST /myapplication/UIDL/?v-uiId=0 HTTP/1.1" 200 1283
0:0:0:0:0:0:0:1 - - [06/Mar/2018:08:26:12 -0400] "POST /myapplication/UIDL/?v-uiId=0 HTTP/1.1" 200 456
0:0:0:0:0:0:0:1 - - [06/Mar/2018:08:26:13 -0400] "POST /myapplication/UIDL/?v-uiId=0 HTTP/1.1" 200 449
0:0:0:0:0:0:0:1 - - [06/Mar/2018:08:26:15 -0400] "POST /myapplication/UIDL/?v-uiId=0 HTTP/1.1" 200 6240
0:0:0:0:0:0:0:1 - - [06/Mar/2018:08:26:17 -0400] "POST /myapplication/UIDL/?v-uiId=0 HTTP/1.1" 200 381
0:0:0:0:0:0:0:1 - - [06/Mar/2018:08:26:18 -0400] "POST /myapplication/UIDL/?v-uiId=0 HTTP/1.1" 200 139
0:0:0:0:0:0:0:1 - - [06/Mar/2018:08:26:18 -0400] "POST /myapplication/UIDL/?v-uiId=0 HTTP/1.1" 200 139
0:0:0:0:0:0:0:1 - - [06/Mar/2018:08:26:19 -0400] "POST /myapplication/UIDL/?v-uiId=0 HTTP/1.1" 200 139
0:0:0:0:0:0:0:1 - - [06/Mar/2018:08:26:20 -0400] "POST /myapplication/UIDL/?v-uiId=0 HTTP/1.1" 200 139
0:0:0:0:0:0:0:1 - - [06/Mar/2018:08:26:22 -0400] "POST /myapplication/UIDL/?v-uiId=0 HTTP/1.1" 200 215
0:0:0:0:0:0:0:1 - - [06/Mar/2018:08:26:30 -0400] "POST /myapplication/UIDL/?v-uiId=0 HTTP/1.1" 200 209
0:0:0:0:0:0:0:1 - - [06/Mar/2018:08:26:33 -0400] "POST /myapplication/UIDL/?v-uiId=0 HTTP/1.1" 200 9304
0:0:0:0:0:0:0:1 - - [06/Mar/2018:08:26:47 -0400] "POST /myapplication/UIDL/?v-uiId=0 HTTP/1.1" 200 209
0:0:0:0:0:0:0:1 - - [06/Mar/2018:08:26:56 -0400] "POST /myapplication/UIDL/?v-uiId=0 HTTP/1.1" 200 235
0:0:0:0:0:0:0:1 - - [06/Mar/2018:08:26:57 -0400] "GET /myapplication/servlet/com.example.myapplication.MyUI$MyUIServlet HTTP/1.1" 200 1806
0:0:0:0:0:0:0:1 - - [06/Mar/2018:08:26:57 -0400] "GET /myapplication/VAADIN/vaadinBootstrap.js?v=8.3.1 HTTP/1.1" 304 -
0:0:0:0:0:0:0:1 - - [06/Mar/2018:08:26:57 -0400] "GET /myapplication/VAADIN/themes/mytheme/styles.css?v=8.3.1 HTTP/1.1" 304 -
0:0:0:0:0:0:0:1 - - [06/Mar/2018:08:26:57 -0400] "GET /myapplication/VAADIN/widgetsets/com.vaadin.DefaultWidgetSet/com.vaadin.DefaultWidgetSet.nocache.js?1520339217204 HTTP/1.1" 200 3231
0:0:0:0:0:0:0:1 - - [06/Mar/2018:08:26:57 -0400] "GET /myapplication/VAADIN/themes/valo/shared/img/spinner.gif HTTP/1.1" 304 -
0:0:0:0:0:0:0:1 - - [06/Mar/2018:08:26:57 -0400] "GET /myapplication/VAADIN/widgetsets/com.vaadin.DefaultWidgetSet/99065197202814696C2A1A56BF276C09.cache.js HTTP/1.1" 304 -
0:0:0:0:0:0:0:1 - - [06/Mar/2018:08:26:59 -0400] "POST /myapplication/servlet/com.example.myapplication.MyUI$MyUIServlet?v-1520339217204 HTTP/1.1" 200 6328
0:0:0:0:0:0:0:1 - - [06/Mar/2018:08:26:59 -0400] "POST /myapplication/UIDL/?v-uiId=0 HTTP/1.1" 200 137
0:0:0:0:0:0:0:1 - - [06/Mar/2018:08:27:02 -0400] "POST /myapplication/UIDL/?v-uiId=0 HTTP/1.1" 200 191
0:0:0:0:0:0:0:1 - - [06/Mar/2018:08:27:02 -0400] "POST /myapplication/UIDL/?v-uiId=0 HTTP/1.1" 200 137
0:0:0:0:0:0:0:1 - - [06/Mar/2018:08:27:04 -0400] "POST /myapplication/UIDL/?v-uiId=0 HTTP/1.1" 200 191
0:0:0:0:0:0:0:1 - - [06/Mar/2018:08:27:04 -0400] "POST /myapplication/UIDL/?v-uiId=0 HTTP/1.1" 200 5339
0:0:0:0:0:0:0:1 - - [06/Mar/2018:08:27:04 -0400] "GET /myapplication/VAADIN/themes/mytheme/imagens/logo-prosaude.png HTTP/1.1" 304 -
0:0:0:0:0:0:0:1 - - [06/Mar/2018:08:27:08 -0400] "POST /myapplication/UIDL/?v-uiId=0 HTTP/1.1" 200 853
0:0:0:0:0:0:0:1 - - [06/Mar/2018:08:27:09 -0400] "POST /myapplication/UIDL/?v-uiId=0 HTTP/1.1" 200 11654
0:0:0:0:0:0:0:1 - - [06/Mar/2018:08:27:09 -0400] "GET /myapplication/VAADIN/themes/mytheme/imagens/library/insert.png HTTP/1.1" 304 -
0:0:0:0:0:0:0:1 - - [06/Mar/2018:08:27:09 -0400] "GET /myapplication/VAADIN/themes/mytheme/imagens/library/update.png HTTP/1.1" 304 -
0:0:0:0:0:0:0:1 - - [06/Mar/2018:08:27:09 -0400] "GET /myapplication/VAADIN/themes/mytheme/imagens/library/find.png HTTP/1.1" 304 -
0:0:0:0:0:0:0:1 - - [06/Mar/2018:08:27:11 -0400] "POST /myapplication/UIDL/?v-uiId=0 HTTP/1.1" 200 22112
0:0:0:0:0:0:0:1 - - [06/Mar/2018:08:27:11 -0400] "GET /myapplication/VAADIN/themes/mytheme/imagens/library/lupa.png HTTP/1.1" 304 -
0:0:0:0:0:0:0:1 - - [06/Mar/2018:08:27:11 -0400] "GET /myapplication/VAADIN/themes/mytheme/imagens/library/delete.png HTTP/1.1" 304 -
0:0:0:0:0:0:0:1 - - [06/Mar/2018:08:27:11 -0400] "GET /myapplication/VAADIN/themes/mytheme/imagens/library/money.png HTTP/1.1" 304 -
0:0:0:0:0:0:0:1 - - [06/Mar/2018:08:27:11 -0400] "GET /myapplication/VAADIN/themes/mytheme/imagens/library/cancel.png HTTP/1.1" 304 -
0:0:0:0:0:0:0:1 - - [06/Mar/2018:08:27:11 -0400] "GET /myapplication/VAADIN/themes/mytheme/imagens/library/disk.png HTTP/1.1" 304 -
0:0:0:0:0:0:0:1 - - [06/Mar/2018:08:27:12 -0400] "POST /myapplication/UIDL/?v-uiId=0 HTTP/1.1" 200 201
0:0:0:0:0:0:0:1 - - [06/Mar/2018:08:27:13 -0400] "POST /myapplication/UIDL/?v-uiId=0 HTTP/1.1" 200 652
0:0:0:0:0:0:0:1 - - [06/Mar/2018:08:27:14 -0400] "POST /myapplication/UIDL/?v-uiId=0 HTTP/1.1" 200 1063
0:0:0:0:0:0:0:1 - - [06/Mar/2018:08:27:14 -0400] "POST /myapplication/UIDL/?v-uiId=0 HTTP/1.1" 200 1096
0:0:0:0:0:0:0:1 - - [06/Mar/2018:08:27:15 -0400] "POST /myapplication/UIDL/?v-uiId=0 HTTP/1.1" 200 1133
0:0:0:0:0:0:0:1 - - [06/Mar/2018:08:27:16 -0400] "POST /myapplication/UIDL/?v-uiId=0 HTTP/1.1" 200 21789
0:0:0:0:0:0:0:1 - - [06/Mar/2018:08:27:19 -0400] "POST /myapplication/UIDL/?v-uiId=0 HTTP/1.1" 200 12658
0:0:0:0:0:0:0:1 - - [06/Mar/2018:08:27:20 -0400] "POST /myapplication/UIDL/?v-uiId=0 HTTP/1.1" 200 16677
0:0:0:0:0:0:0:1 - - [06/Mar/2018:08:27:20 -0400] "GET /myapplication/VAADIN/themes/mytheme/imagens/library/print.png HTTP/1.1" 304 -
0:0:0:0:0:0:0:1 - - [06/Mar/2018:08:27:20 -0400] "GET /myapplication/VAADIN/themes/mytheme/imagens/library/download.png HTTP/1.1" 304 -
0:0:0:0:0:0:0:1 - - [06/Mar/2018:08:27:20 -0400] "GET /myapplication/VAADIN/themes/mytheme/imagens/library/filter_del.png HTTP/1.1" 304 -
0:0:0:0:0:0:0:1 - - [06/Mar/2018:08:27:28 -0400] "POST /myapplication/UIDL/?v-uiId=0 HTTP/1.1" 200 690
0:0:0:0:0:0:0:1 - - [06/Mar/2018:08:27:28 -0400] "POST /myapplication/UIDL/?v-uiId=0 HTTP/1.1" 200 1284
0:0:0:0:0:0:0:1 - - [06/Mar/2018:08:27:29 -0400] "POST /myapplication/UIDL/?v-uiId=0 HTTP/1.1" 200 456
0:0:0:0:0:0:0:1 - - [06/Mar/2018:08:27:30 -0400] "POST /myapplication/UIDL/?v-uiId=0 HTTP/1.1" 200 452
0:0:0:0:0:0:0:1 - - [06/Mar/2018:08:27:32 -0400] "POST /myapplication/UIDL/?v-uiId=0 HTTP/1.1" 200 6248
0:0:0:0:0:0:0:1 - - [06/Mar/2018:08:27:33 -0400] "POST /myapplication/UIDL/?v-uiId=0 HTTP/1.1" 200 381
0:0:0:0:0:0:0:1 - - [06/Mar/2018:08:27:34 -0400] "POST /myapplication/UIDL/?v-uiId=0 HTTP/1.1" 200 139
0:0:0:0:0:0:0:1 - - [06/Mar/2018:08:27:37 -0400] "POST /myapplication/UIDL/?v-uiId=0 HTTP/1.1" 200 139
0:0:0:0:0:0:0:1 - - [06/Mar/2018:08:27:37 -0400] "POST /myapplication/UIDL/?v-uiId=0 HTTP/1.1" 200 215
0:0:0:0:0:0:0:1 - - [06/Mar/2018:08:28:10 -0400] "POST /myapplication/UIDL/?v-uiId=0 HTTP/1.1" 200 209
0:0:0:0:0:0:0:1 - - [06/Mar/2018:08:28:11 -0400] "POST /myapplication/UIDL/?v-uiId=0 HTTP/1.1" 200 524
127.0.0.1 - - [06/Mar/2018:08:50:46 -0400] "GET / HTTP/1.1" 404 951
0:0:0:0:0:0:0:1 - - [06/Mar/2018:08:50:47 -0400] "GET /myapplication/servlet/com.example.myapplication.MyUI$MyUIServlet HTTP/1.1" 404 1079
0:0:0:0:0:0:0:1 - - [06/Mar/2018:08:50:55 -0400] "GET /myapplication/servlet/com.example.myapplication.MyUI$MyUIServlet HTTP/1.1" 404 1079
127.0.0.1 - - [06/Mar/2018:08:51:34 -0400] "GET / HTTP/1.1" 404 951
0:0:0:0:0:0:0:1 - - [06/Mar/2018:08:51:34 -0400] "GET /myapplication/servlet/com.example.myapplication.MyUI$MyUIServlet HTTP/1.1" 200 1912
0:0:0:0:0:0:0:1 - - [06/Mar/2018:08:51:38 -0400] "GET /myapplication/servlet/com.example.myapplication.MyUI$MyUIServlet HTTP/1.1" 200 1806
0:0:0:0:0:0:0:1 - - [06/Mar/2018:08:51:38 -0400] "GET /myapplication/VAADIN/widgetsets/com.vaadin.DefaultWidgetSet/com.vaadin.DefaultWidgetSet.nocache.js?1520340698104 HTTP/1.1" 200 3231
0:0:0:0:0:0:0:1 - - [06/Mar/2018:08:51:41 -0400] "POST /myapplication/servlet/com.example.myapplication.MyUI$MyUIServlet?v-1520340698104 HTTP/1.1" 200 6328
0:0:0:0:0:0:0:1 - - [06/Mar/2018:08:51:42 -0400] "POST /myapplication/UIDL/?v-uiId=0 HTTP/1.1" 200 137
0:0:0:0:0:0:0:1 - - [06/Mar/2018:08:51:45 -0400] "POST /myapplication/UIDL/?v-uiId=0 HTTP/1.1" 200 191
0:0:0:0:0:0:0:1 - - [06/Mar/2018:08:51:45 -0400] "POST /myapplication/UIDL/?v-uiId=0 HTTP/1.1" 200 137
0:0:0:0:0:0:0:1 - - [06/Mar/2018:08:51:47 -0400] "POST /myapplication/UIDL/?v-uiId=0 HTTP/1.1" 200 192
0:0:0:0:0:0:0:1 - - [06/Mar/2018:08:51:47 -0400] "POST /myapplication/UIDL/?v-uiId=0 HTTP/1.1" 200 5337
0:0:0:0:0:0:0:1 - - [06/Mar/2018:08:51:49 -0400] "POST /myapplication/UIDL/?v-uiId=0 HTTP/1.1" 200 853
0:0:0:0:0:0:0:1 - - [06/Mar/2018:08:51:50 -0400] "POST /myapplication/UIDL/?v-uiId=0 HTTP/1.1" 200 11652
0:0:0:0:0:0:0:1 - - [06/Mar/2018:08:51:52 -0400] "POST /myapplication/UIDL/?v-uiId=0 HTTP/1.1" 200 22099
0:0:0:0:0:0:0:1 - - [06/Mar/2018:08:51:56 -0400] "POST /myapplication/UIDL/?v-uiId=0 HTTP/1.1" 200 736
0:0:0:0:0:0:0:1 - - [06/Mar/2018:08:51:57 -0400] "POST /myapplication/UIDL/?v-uiId=0 HTTP/1.1" 200 15436
0:0:0:0:0:0:0:1 - - [06/Mar/2018:08:51:58 -0400] "POST /myapplication/UIDL/?v-uiId=0 HTTP/1.1" 200 16541
0:0:0:0:0:0:0:1 - - [06/Mar/2018:08:51:59 -0400] "POST /myapplication/UIDL/?v-uiId=0 HTTP/1.1" 200 466
0:0:0:0:0:0:0:1 - - [06/Mar/2018:08:52:01 -0400] "POST /myapplication/UIDL/?v-uiId=0 HTTP/1.1" 200 215
0:0:0:0:0:0:0:1 - - [06/Mar/2018:08:52:02 -0400] "POST /myapplication/UIDL/?v-uiId=0 HTTP/1.1" 200 209
0:0:0:0:0:0:0:1 - - [06/Mar/2018:08:52:03 -0400] "POST /myapplication/UIDL/?v-uiId=0 HTTP/1.1" 200 9223
0:0:0:0:0:0:0:1 - - [06/Mar/2018:08:52:05 -0400] "POST /myapplication/UIDL/?v-uiId=0 HTTP/1.1" 200 15842
0:0:0:0:0:0:0:1 - - [06/Mar/2018:08:52:07 -0400] "POST /myapplication/UIDL/?v-uiId=0 HTTP/1.1" 200 466
0:0:0:0:0:0:0:1 - - [06/Mar/2018:08:52:09 -0400] "POST /myapplication/UIDL/?v-uiId=0 HTTP/1.1" 200 215
0:0:0:0:0:0:0:1 - - [06/Mar/2018:08:52:12 -0400] "POST /myapplication/UIDL/?v-uiId=0 HTTP/1.1" 200 139
0:0:0:0:0:0:0:1 - - [06/Mar/2018:08:52:12 -0400] "POST /myapplication/UIDL/?v-uiId=0 HTTP/1.1" 200 209
0:0:0:0:0:0:0:1 - - [06/Mar/2018:08:52:13 -0400] "POST /myapplication/UIDL/?v-uiId=0 HTTP/1.1" 200 919
0:0:0:0:0:0:0:1 - - [06/Mar/2018:08:52:13 -0400] "POST /myapplication/UIDL/?v-uiId=0 HTTP/1.1" 200 9223
0:0:0:0:0:0:0:1 - - [06/Mar/2018:08:52:14 -0400] "POST /myapplication/UIDL/?v-uiId=0 HTTP/1.1" 200 15842
0:0:0:0:0:0:0:1 - - [06/Mar/2018:08:52:18 -0400] "POST /myapplication/UIDL/?v-uiId=0 HTTP/1.1" 200 690
0:0:0:0:0:0:0:1 - - [06/Mar/2018:08:52:18 -0400] "POST /myapplication/UIDL/?v-uiId=0 HTTP/1.1" 200 1043
0:0:0:0:0:0:0:1 - - [06/Mar/2018:08:52:19 -0400] "POST /myapplication/UIDL/?v-uiId=0 HTTP/1.1" 200 444
0:0:0:0:0:0:0:1 - - [06/Mar/2018:08:52:20 -0400] "POST /myapplication/UIDL/?v-uiId=0 HTTP/1.1" 200 845
0:0:0:0:0:0:0:1 - - [06/Mar/2018:08:52:22 -0400] "POST /myapplication/UIDL/?v-uiId=0 HTTP/1.1" 200 1131
0:0:0:0:0:0:0:1 - - [06/Mar/2018:08:52:25 -0400] "POST /myapplication/UIDL/?v-uiId=0 HTTP/1.1" 200 9223
0:0:0:0:0:0:0:1 - - [06/Mar/2018:08:52:26 -0400] "POST /myapplication/UIDL/?v-uiId=0 HTTP/1.1" 200 15842
0:0:0:0:0:0:0:1 - - [06/Mar/2018:08:52:30 -0400] "POST /myapplication/UIDL/?v-uiId=0 HTTP/1.1" 200 690
0:0:0:0:0:0:0:1 - - [06/Mar/2018:08:52:30 -0400] "POST /myapplication/UIDL/?v-uiId=0 HTTP/1.1" 200 1043
0:0:0:0:0:0:0:1 - - [06/Mar/2018:08:52:31 -0400] "POST /myapplication/UIDL/?v-uiId=0 HTTP/1.1" 200 444
0:0:0:0:0:0:0:1 - - [06/Mar/2018:08:52:32 -0400] "POST /myapplication/UIDL/?v-uiId=0 HTTP/1.1" 200 845
0:0:0:0:0:0:0:1 - - [06/Mar/2018:08:52:33 -0400] "POST /myapplication/UIDL/?v-uiId=0 HTTP/1.1" 200 8513
0:0:0:0:0:0:0:1 - - [06/Mar/2018:08:52:35 -0400] "POST /myapplication/UIDL/?v-uiId=0 HTTP/1.1" 200 1258
0:0:0:0:0:0:0:1 - - [06/Mar/2018:08:52:35 -0400] "POST /myapplication/UIDL/?v-uiId=0 HTTP/1.1" 200 139
0:0:0:0:0:0:0:1 - - [06/Mar/2018:08:52:35 -0400] "POST /myapplication/UIDL/?v-uiId=0 HTTP/1.1" 200 337
0:0:0:0:0:0:0:1 - - [06/Mar/2018:08:52:36 -0400] "POST /myapplication/UIDL/?v-uiId=0 HTTP/1.1" 200 1014
0:0:0:0:0:0:0:1 - - [06/Mar/2018:08:52:36 -0400] "POST /myapplication/UIDL/?v-uiId=0 HTTP/1.1" 200 139
0:0:0:0:0:0:0:1 - - [06/Mar/2018:08:52:36 -0400] "POST /myapplication/UIDL/?v-uiId=0 HTTP/1.1" 200 337
0:0:0:0:0:0:0:1 - - [06/Mar/2018:08:52:38 -0400] "POST /myapplication/UIDL/?v-uiId=0 HTTP/1.1" 200 1015
0:0:0:0:0:0:0:1 - - [06/Mar/2018:08:52:38 -0400] "POST /myapplication/UIDL/?v-uiId=0 HTTP/1.1" 200 139
0:0:0:0:0:0:0:1 - - [06/Mar/2018:08:52:38 -0400] "POST /myapplication/UIDL/?v-uiId=0 HTTP/1.1" 200 337
0:0:0:0:0:0:0:1 - - [06/Mar/2018:08:52:39 -0400] "POST /myapplication/UIDL/?v-uiId=0 HTTP/1.1" 200 1013
0:0:0:0:0:0:0:1 - - [06/Mar/2018:08:52:39 -0400] "POST /myapplication/UIDL/?v-uiId=0 HTTP/1.1" 200 139
0:0:0:0:0:0:0:1 - - [06/Mar/2018:08:52:39 -0400] "POST /myapplication/UIDL/?v-uiId=0 HTTP/1.1" 200 337
0:0:0:0:0:0:0:1 - - [06/Mar/2018:08:52:39 -0400] "POST /myapplication/UIDL/?v-uiId=0 HTTP/1.1" 200 1015
0:0:0:0:0:0:0:1 - - [06/Mar/2018:08:52:39 -0400] "POST /myapplication/UIDL/?v-uiId=0 HTTP/1.1" 200 139
0:0:0:0:0:0:0:1 - - [06/Mar/2018:08:52:39 -0400] "POST /myapplication/UIDL/?v-uiId=0 HTTP/1.1" 200 337
0:0:0:0:0:0:0:1 - - [06/Mar/2018:08:52:40 -0400] "POST /myapplication/UIDL/?v-uiId=0 HTTP/1.1" 200 1017
0:0:0:0:0:0:0:1 - - [06/Mar/2018:08:52:40 -0400] "POST /myapplication/UIDL/?v-uiId=0 HTTP/1.1" 200 139
0:0:0:0:0:0:0:1 - - [06/Mar/2018:08:52:40 -0400] "POST /myapplication/UIDL/?v-uiId=0 HTTP/1.1" 200 337
0:0:0:0:0:0:0:1 - - [06/Mar/2018:08:52:41 -0400] "POST /myapplication/UIDL/?v-uiId=0 HTTP/1.1" 200 1015
0:0:0:0:0:0:0:1 - - [06/Mar/2018:08:52:41 -0400] "POST /myapplication/UIDL/?v-uiId=0 HTTP/1.1" 200 139
0:0:0:0:0:0:0:1 - - [06/Mar/2018:08:52:41 -0400] "POST /myapplication/UIDL/?v-uiId=0 HTTP/1.1" 200 337
0:0:0:0:0:0:0:1 - - [06/Mar/2018:08:52:41 -0400] "POST /myapplication/UIDL/?v-uiId=0 HTTP/1.1" 200 1016
0:0:0:0:0:0:0:1 - - [06/Mar/2018:08:52:41 -0400] "POST /myapplication/UIDL/?v-uiId=0 HTTP/1.1" 200 139
0:0:0:0:0:0:0:1 - - [06/Mar/2018:08:52:41 -0400] "POST /myapplication/UIDL/?v-uiId=0 HTTP/1.1" 200 337
0:0:0:0:0:0:0:1 - - [06/Mar/2018:08:52:42 -0400] "POST /myapplication/UIDL/?v-uiId=0 HTTP/1.1" 200 1015
0:0:0:0:0:0:0:1 - - [06/Mar/2018:08:52:42 -0400] "POST /myapplication/UIDL/?v-uiId=0 HTTP/1.1" 200 139
0:0:0:0:0:0:0:1 - - [06/Mar/2018:08:52:42 -0400] "POST /myapplication/UIDL/?v-uiId=0 HTTP/1.1" 200 337
0:0:0:0:0:0:0:1 - - [06/Mar/2018:08:52:48 -0400] "POST /myapplication/UIDL/?v-uiId=0 HTTP/1.1" 200 215
0:0:0:0:0:0:0:1 - - [06/Mar/2018:08:52:48 -0400] "POST /myapplication/UIDL/?v-uiId=0 HTTP/1.1" 200 209
0:0:0:0:0:0:0:1 - - [06/Mar/2018:08:52:49 -0400] "POST /myapplication/UIDL/?v-uiId=0 HTTP/1.1" 200 203
0:0:0:0:0:0:0:1 - - [06/Mar/2018:08:56:42 -0400] "POST /myapplication/HEARTBEAT/?v-uiId=0 HTTP/1.1" 200 -
0:0:0:0:0:0:0:1 - - [06/Mar/2018:09:01:42 -0400] "POST /myapplication/HEARTBEAT/?v-uiId=0 HTTP/1.1" 200 -
0:0:0:0:0:0:0:1 - - [06/Mar/2018:09:03:32 -0400] "POST /myapplication/UIDL/?v-uiId=0 HTTP/1.1" 200 21921
0:0:0:0:0:0:0:1 - - [06/Mar/2018:09:03:36 -0400] "POST /myapplication/UIDL/?v-uiId=0 HTTP/1.1" 200 3359
0:0:0:0:0:0:0:1 - - [06/Mar/2018:09:03:36 -0400] "GET /myapplication/VAADIN/themes/mytheme/imagens/library/icon-error.png HTTP/1.1" 304 -
0:0:0:0:0:0:0:1 - - [06/Mar/2018:09:03:37 -0400] "POST /myapplication/UIDL/?v-uiId=0 HTTP/1.1" 200 209
0:0:0:0:0:0:0:1 - - [06/Mar/2018:09:03:38 -0400] "POST /myapplication/UIDL/?v-uiId=0 HTTP/1.1" 200 2242
0:0:0:0:0:0:0:1 - - [06/Mar/2018:09:03:40 -0400] "POST /myapplication/UIDL/?v-uiId=0 HTTP/1.1" 200 209
0:0:0:0:0:0:0:1 - - [06/Mar/2018:09:03:40 -0400] "POST /myapplication/UIDL/?v-uiId=0 HTTP/1.1" 200 203
0:0:0:0:0:0:0:1 - - [06/Mar/2018:09:03:43 -0400] "POST /myapplication/UIDL/?v-uiId=0 HTTP/1.1" 200 22423
0:0:0:0:0:0:0:1 - - [06/Mar/2018:09:03:46 -0400] "POST /myapplication/UIDL/?v-uiId=0 HTTP/1.1" 200 12866
0:0:0:0:0:0:0:1 - - [06/Mar/2018:09:03:51 -0400] "POST /myapplication/UIDL/?v-uiId=0 HTTP/1.1" 200 16432
0:0:0:0:0:0:0:1 - - [06/Mar/2018:09:03:57 -0400] "POST /myapplication/UIDL/?v-uiId=0 HTTP/1.1" 200 711
0:0:0:0:0:0:0:1 - - [06/Mar/2018:09:03:57 -0400] "POST /myapplication/UIDL/?v-uiId=0 HTTP/1.1" 200 1332
0:0:0:0:0:0:0:1 - - [06/Mar/2018:09:03:58 -0400] "POST /myapplication/UIDL/?v-uiId=0 HTTP/1.1" 200 467
0:0:0:0:0:0:0:1 - - [06/Mar/2018:09:03:58 -0400] "POST /myapplication/UIDL/?v-uiId=0 HTTP/1.1" 200 475
0:0:0:0:0:0:0:1 - - [06/Mar/2018:09:04:00 -0400] "POST /myapplication/UIDL/?v-uiId=0 HTTP/1.1" 200 6369
0:0:0:0:0:0:0:1 - - [06/Mar/2018:09:04:04 -0400] "POST /myapplication/UIDL/?v-uiId=0 HTTP/1.1" 200 388
0:0:0:0:0:0:0:1 - - [06/Mar/2018:09:06:36 -0400] "GET /myapplication/servlet/com.example.myapplication.MyUI$MyUIServlet HTTP/1.1" 200 1806
0:0:0:0:0:0:0:1 - - [06/Mar/2018:09:06:36 -0400] "GET /myapplication/VAADIN/widgetsets/com.vaadin.DefaultWidgetSet/com.vaadin.DefaultWidgetSet.nocache.js?1520341596729 HTTP/1.1" 200 3231
0:0:0:0:0:0:0:1 - - [06/Mar/2018:09:06:39 -0400] "POST /myapplication/servlet/com.example.myapplication.MyUI$MyUIServlet?v-1520341596729 HTTP/1.1" 200 6324
0:0:0:0:0:0:0:1 - - [06/Mar/2018:09:06:39 -0400] "POST /myapplication/UIDL/?v-uiId=0 HTTP/1.1" 200 137
0:0:0:0:0:0:0:1 - - [06/Mar/2018:09:06:42 -0400] "POST /myapplication/UIDL/?v-uiId=0 HTTP/1.1" 200 190
0:0:0:0:0:0:0:1 - - [06/Mar/2018:09:06:42 -0400] "POST /myapplication/UIDL/?v-uiId=0 HTTP/1.1" 200 137
0:0:0:0:0:0:0:1 - - [06/Mar/2018:09:06:43 -0400] "POST /myapplication/UIDL/?v-uiId=0 HTTP/1.1" 200 191
0:0:0:0:0:0:0:1 - - [06/Mar/2018:09:06:45 -0400] "POST /myapplication/UIDL/?v-uiId=0 HTTP/1.1" 200 5339
0:0:0:0:0:0:0:1 - - [06/Mar/2018:09:06:47 -0400] "POST /myapplication/UIDL/?v-uiId=0 HTTP/1.1" 200 11546
0:0:0:0:0:0:0:1 - - [06/Mar/2018:09:06:48 -0400] "POST /myapplication/UIDL/?v-uiId=0 HTTP/1.1" 200 853
0:0:0:0:0:0:0:1 - - [06/Mar/2018:09:06:50 -0400] "POST /myapplication/UIDL/?v-uiId=0 HTTP/1.1" 200 11084
0:0:0:0:0:0:0:1 - - [06/Mar/2018:09:06:51 -0400] "POST /myapplication/UIDL/?v-uiId=0 HTTP/1.1" 200 22090
0:0:0:0:0:0:0:1 - - [06/Mar/2018:09:06:54 -0400] "POST /myapplication/UIDL/?v-uiId=0 HTTP/1.1" 200 734
0:0:0:0:0:0:0:1 - - [06/Mar/2018:09:06:55 -0400] "POST /myapplication/UIDL/?v-uiId=0 HTTP/1.1" 200 15542
0:0:0:0:0:0:0:1 - - [06/Mar/2018:09:06:59 -0400] "POST /myapplication/UIDL/?v-uiId=0 HTTP/1.1" 200 16533
0:0:0:0:0:0:0:1 - - [06/Mar/2018:09:07:03 -0400] "POST /myapplication/UIDL/?v-uiId=0 HTTP/1.1" 200 689
0:0:0:0:0:0:0:1 - - [06/Mar/2018:09:07:03 -0400] "POST /myapplication/UIDL/?v-uiId=0 HTTP/1.1" 200 1042
0:0:0:0:0:0:0:1 - - [06/Mar/2018:09:07:04 -0400] "POST /myapplication/UIDL/?v-uiId=0 HTTP/1.1" 200 444
0:0:0:0:0:0:0:1 - - [06/Mar/2018:09:07:05 -0400] "POST /myapplication/UIDL/?v-uiId=0 HTTP/1.1" 200 837
0:0:0:0:0:0:0:1 - - [06/Mar/2018:09:07:07 -0400] "POST /myapplication/UIDL/?v-uiId=0 HTTP/1.1" 200 8514
0:0:0:0:0:0:0:1 - - [06/Mar/2018:09:07:09 -0400] "POST /myapplication/UIDL/?v-uiId=0 HTTP/1.1" 200 1258
0:0:0:0:0:0:0:1 - - [06/Mar/2018:09:07:09 -0400] "POST /myapplication/UIDL/?v-uiId=0 HTTP/1.1" 200 139
0:0:0:0:0:0:0:1 - - [06/Mar/2018:09:07:09 -0400] "POST /myapplication/UIDL/?v-uiId=0 HTTP/1.1" 200 337
0:0:0:0:0:0:0:1 - - [06/Mar/2018:09:07:11 -0400] "POST /myapplication/UIDL/?v-uiId=0 HTTP/1.1" 200 1014
0:0:0:0:0:0:0:1 - - [06/Mar/2018:09:07:11 -0400] "POST /myapplication/UIDL/?v-uiId=0 HTTP/1.1" 200 139
0:0:0:0:0:0:0:1 - - [06/Mar/2018:09:07:11 -0400] "POST /myapplication/UIDL/?v-uiId=0 HTTP/1.1" 200 337
0:0:0:0:0:0:0:1 - - [06/Mar/2018:09:07:11 -0400] "POST /myapplication/UIDL/?v-uiId=0 HTTP/1.1" 200 1013
0:0:0:0:0:0:0:1 - - [06/Mar/2018:09:07:11 -0400] "POST /myapplication/UIDL/?v-uiId=0 HTTP/1.1" 200 139
0:0:0:0:0:0:0:1 - - [06/Mar/2018:09:07:11 -0400] "POST /myapplication/UIDL/?v-uiId=0 HTTP/1.1" 200 337
0:0:0:0:0:0:0:1 - - [06/Mar/2018:09:07:12 -0400] "POST /myapplication/UIDL/?v-uiId=0 HTTP/1.1" 200 1015
0:0:0:0:0:0:0:1 - - [06/Mar/2018:09:07:12 -0400] "POST /myapplication/UIDL/?v-uiId=0 HTTP/1.1" 200 139
0:0:0:0:0:0:0:1 - - [06/Mar/2018:09:07:12 -0400] "POST /myapplication/UIDL/?v-uiId=0 HTTP/1.1" 200 337
0:0:0:0:0:0:0:1 - - [06/Mar/2018:09:07:13 -0400] "POST /myapplication/UIDL/?v-uiId=0 HTTP/1.1" 200 215
0:0:0:0:0:0:0:1 - - [06/Mar/2018:09:07:14 -0400] "POST /myapplication/UIDL/?v-uiId=0 HTTP/1.1" 200 209
0:0:0:0:0:0:0:1 - - [06/Mar/2018:09:07:16 -0400] "POST /myapplication/UIDL/?v-uiId=0 HTTP/1.1" 200 6847
0:0:0:0:0:0:0:1 - - [06/Mar/2018:09:07:17 -0400] "POST /myapplication/UIDL/?v-uiId=0 HTTP/1.1" 200 15961
0:0:0:0:0:0:0:1 - - [06/Mar/2018:09:07:20 -0400] "POST /myapplication/UIDL/?v-uiId=0 HTTP/1.1" 200 689
0:0:0:0:0:0:0:1 - - [06/Mar/2018:09:07:21 -0400] "POST /myapplication/UIDL/?v-uiId=0 HTTP/1.1" 200 1283
0:0:0:0:0:0:0:1 - - [06/Mar/2018:09:07:22 -0400] "POST /myapplication/UIDL/?v-uiId=0 HTTP/1.1" 200 456
0:0:0:0:0:0:0:1 - - [06/Mar/2018:09:07:22 -0400] "POST /myapplication/UIDL/?v-uiId=0 HTTP/1.1" 200 449
0:0:0:0:0:0:0:1 - - [06/Mar/2018:09:07:23 -0400] "POST /myapplication/UIDL/?v-uiId=0 HTTP/1.1" 200 6168
0:0:0:0:0:0:0:1 - - [06/Mar/2018:09:07:25 -0400] "POST /myapplication/UIDL/?v-uiId=0 HTTP/1.1" 200 215
0:0:0:0:0:0:0:1 - - [06/Mar/2018:09:07:25 -0400] "POST /myapplication/UIDL/?v-uiId=0 HTTP/1.1" 200 209
0:0:0:0:0:0:0:1 - - [06/Mar/2018:09:07:26 -0400] "POST /myapplication/UIDL/?v-uiId=0 HTTP/1.1" 200 203
0:0:0:0:0:0:0:1 - - [06/Mar/2018:09:08:44 -0400] "GET /myapplication/servlet/com.example.myapplication.MyUI$MyUIServlet HTTP/1.1" 200 1806
0:0:0:0:0:0:0:1 - - [06/Mar/2018:09:08:44 -0400] "GET /myapplication/VAADIN/widgetsets/com.vaadin.DefaultWidgetSet/com.vaadin.DefaultWidgetSet.nocache.js?1520341724170 HTTP/1.1" 200 3231
0:0:0:0:0:0:0:1 - - [06/Mar/2018:09:08:46 -0400] "POST /myapplication/servlet/com.example.myapplication.MyUI$MyUIServlet?v-1520341724170 HTTP/1.1" 200 6324
0:0:0:0:0:0:0:1 - - [06/Mar/2018:09:08:46 -0400] "POST /myapplication/UIDL/?v-uiId=0 HTTP/1.1" 200 137
0:0:0:0:0:0:0:1 - - [06/Mar/2018:09:08:50 -0400] "POST /myapplication/UIDL/?v-uiId=0 HTTP/1.1" 200 191
0:0:0:0:0:0:0:1 - - [06/Mar/2018:09:08:50 -0400] "POST /myapplication/UIDL/?v-uiId=0 HTTP/1.1" 200 137
0:0:0:0:0:0:0:1 - - [06/Mar/2018:09:08:52 -0400] "POST /myapplication/UIDL/?v-uiId=0 HTTP/1.1" 200 190
0:0:0:0:0:0:0:1 - - [06/Mar/2018:09:08:52 -0400] "POST /myapplication/UIDL/?v-uiId=0 HTTP/1.1" 200 5337
0:0:0:0:0:0:0:1 - - [06/Mar/2018:09:08:54 -0400] "POST /myapplication/UIDL/?v-uiId=0 HTTP/1.1" 200 853
0:0:0:0:0:0:0:1 - - [06/Mar/2018:09:08:55 -0400] "POST /myapplication/UIDL/?v-uiId=0 HTTP/1.1" 200 11723
0:0:0:0:0:0:0:1 - - [06/Mar/2018:09:08:57 -0400] "POST /myapplication/UIDL/?v-uiId=0 HTTP/1.1" 200 22106
0:0:0:0:0:0:0:1 - - [06/Mar/2018:09:08:59 -0400] "POST /myapplication/UIDL/?v-uiId=0 HTTP/1.1" 200 736
0:0:0:0:0:0:0:1 - - [06/Mar/2018:09:09:01 -0400] "POST /myapplication/UIDL/?v-uiId=0 HTTP/1.1" 200 15507
0:0:0:0:0:0:0:1 - - [06/Mar/2018:09:09:02 -0400] "POST /myapplication/UIDL/?v-uiId=0 HTTP/1.1" 200 16543
0:0:0:0:0:0:0:1 - - [06/Mar/2018:09:09:05 -0400] "POST /myapplication/UIDL/?v-uiId=0 HTTP/1.1" 200 690
0:0:0:0:0:0:0:1 - - [06/Mar/2018:09:09:05 -0400] "POST /myapplication/UIDL/?v-uiId=0 HTTP/1.1" 200 1042
0:0:0:0:0:0:0:1 - - [06/Mar/2018:09:09:06 -0400] "POST /myapplication/UIDL/?v-uiId=0 HTTP/1.1" 200 444
0:0:0:0:0:0:0:1 - - [06/Mar/2018:09:09:07 -0400] "POST /myapplication/UIDL/?v-uiId=0 HTTP/1.1" 200 845
0:0:0:0:0:0:0:1 - - [06/Mar/2018:09:09:09 -0400] "POST /myapplication/UIDL/?v-uiId=0 HTTP/1.1" 200 1131
0:0:0:0:0:0:0:1 - - [06/Mar/2018:09:09:10 -0400] "POST /myapplication/UIDL/?v-uiId=0 HTTP/1.1" 200 9321
0:0:0:0:0:0:0:1 - - [06/Mar/2018:09:09:12 -0400] "POST /myapplication/UIDL/?v-uiId=0 HTTP/1.1" 200 8759
0:0:0:0:0:0:0:1 - - [06/Mar/2018:09:09:14 -0400] "POST /myapplication/UIDL/?v-uiId=0 HTTP/1.1" 200 1258
0:0:0:0:0:0:0:1 - - [06/Mar/2018:09:09:14 -0400] "POST /myapplication/UIDL/?v-uiId=0 HTTP/1.1" 200 139
0:0:0:0:0:0:0:1 - - [06/Mar/2018:09:09:14 -0400] "POST /myapplication/UIDL/?v-uiId=0 HTTP/1.1" 200 337
0:0:0:0:0:0:0:1 - - [06/Mar/2018:09:09:15 -0400] "POST /myapplication/UIDL/?v-uiId=0 HTTP/1.1" 200 1014
0:0:0:0:0:0:0:1 - - [06/Mar/2018:09:09:15 -0400] "POST /myapplication/UIDL/?v-uiId=0 HTTP/1.1" 200 139
0:0:0:0:0:0:0:1 - - [06/Mar/2018:09:09:15 -0400] "POST /myapplication/UIDL/?v-uiId=0 HTTP/1.1" 200 337
0:0:0:0:0:0:0:1 - - [06/Mar/2018:09:09:16 -0400] "POST /myapplication/UIDL/?v-uiId=0 HTTP/1.1" 200 1013
0:0:0:0:0:0:0:1 - - [06/Mar/2018:09:09:16 -0400] "POST /myapplication/UIDL/?v-uiId=0 HTTP/1.1" 200 139
0:0:0:0:0:0:0:1 - - [06/Mar/2018:09:09:16 -0400] "POST /myapplication/UIDL/?v-uiId=0 HTTP/1.1" 200 337
0:0:0:0:0:0:0:1 - - [06/Mar/2018:09:09:16 -0400] "POST /myapplication/UIDL/?v-uiId=0 HTTP/1.1" 200 1015
0:0:0:0:0:0:0:1 - - [06/Mar/2018:09:09:16 -0400] "POST /myapplication/UIDL/?v-uiId=0 HTTP/1.1" 200 139
0:0:0:0:0:0:0:1 - - [06/Mar/2018:09:09:16 -0400] "POST /myapplication/UIDL/?v-uiId=0 HTTP/1.1" 200 337
0:0:0:0:0:0:0:1 - - [06/Mar/2018:09:09:17 -0400] "POST /myapplication/UIDL/?v-uiId=0 HTTP/1.1" 200 1014
0:0:0:0:0:0:0:1 - - [06/Mar/2018:09:09:17 -0400] "POST /myapplication/UIDL/?v-uiId=0 HTTP/1.1" 200 139
0:0:0:0:0:0:0:1 - - [06/Mar/2018:09:09:17 -0400] "POST /myapplication/UIDL/?v-uiId=0 HTTP/1.1" 200 337
0:0:0:0:0:0:0:1 - - [06/Mar/2018:09:09:18 -0400] "POST /myapplication/UIDL/?v-uiId=0 HTTP/1.1" 200 1016
0:0:0:0:0:0:0:1 - - [06/Mar/2018:09:09:18 -0400] "POST /myapplication/UIDL/?v-uiId=0 HTTP/1.1" 200 139
0:0:0:0:0:0:0:1 - - [06/Mar/2018:09:09:18 -0400] "POST /myapplication/UIDL/?v-uiId=0 HTTP/1.1" 200 337
0:0:0:0:0:0:0:1 - - [06/Mar/2018:09:09:20 -0400] "POST /myapplication/UIDL/?v-uiId=0 HTTP/1.1" 200 3127
0:0:0:0:0:0:0:1 - - [06/Mar/2018:09:09:22 -0400] "POST /myapplication/UIDL/?v-uiId=0 HTTP/1.1" 200 3238
0:0:0:0:0:0:0:1 - - [06/Mar/2018:09:09:29 -0400] "POST /myapplication/UIDL/?v-uiId=0 HTTP/1.1" 200 300
0:0:0:0:0:0:0:1 - - [06/Mar/2018:09:09:32 -0400] "POST /myapplication/UIDL/?v-uiId=0 HTTP/1.1" 200 139
0:0:0:0:0:0:0:1 - - [06/Mar/2018:09:09:33 -0400] "POST /myapplication/UIDL/?v-uiId=0 HTTP/1.1" 200 139
0:0:0:0:0:0:0:1 - - [06/Mar/2018:09:09:33 -0400] "POST /myapplication/UIDL/?v-uiId=0 HTTP/1.1" 200 139
0:0:0:0:0:0:0:1 - - [06/Mar/2018:09:09:33 -0400] "POST /myapplication/UIDL/?v-uiId=0 HTTP/1.1" 200 139
0:0:0:0:0:0:0:1 - - [06/Mar/2018:09:09:34 -0400] "POST /myapplication/UIDL/?v-uiId=0 HTTP/1.1" 200 139
0:0:0:0:0:0:0:1 - - [06/Mar/2018:09:09:34 -0400] "POST /myapplication/UIDL/?v-uiId=0 HTTP/1.1" 200 139
0:0:0:0:0:0:0:1 - - [06/Mar/2018:09:09:35 -0400] "POST /myapplication/UIDL/?v-uiId=0 HTTP/1.1" 200 215
0:0:0:0:0:0:0:1 - - [06/Mar/2018:09:09:36 -0400] "POST /myapplication/UIDL/?v-uiId=0 HTTP/1.1" 200 209
0:0:0:0:0:0:0:1 - - [06/Mar/2018:09:11:02 -0400] "POST /myapplication/UIDL/?v-uiId=0 HTTP/1.1" 200 235
0:0:0:0:0:0:0:1 - - [06/Mar/2018:09:11:03 -0400] "GET /myapplication/servlet/com.example.myapplication.MyUI$MyUIServlet HTTP/1.1" 200 1806
0:0:0:0:0:0:0:1 - - [06/Mar/2018:09:11:03 -0400] "GET /myapplication/VAADIN/widgetsets/com.vaadin.DefaultWidgetSet/com.vaadin.DefaultWidgetSet.nocache.js?1520341863899 HTTP/1.1" 200 3231
0:0:0:0:0:0:0:1 - - [06/Mar/2018:09:11:06 -0400] "POST /myapplication/servlet/com.example.myapplication.MyUI$MyUIServlet?v-1520341863899 HTTP/1.1" 200 6323
0:0:0:0:0:0:0:1 - - [06/Mar/2018:09:11:06 -0400] "POST /myapplication/UIDL/?v-uiId=0 HTTP/1.1" 200 137
0:0:0:0:0:0:0:1 - - [06/Mar/2018:09:11:09 -0400] "POST /myapplication/UIDL/?v-uiId=0 HTTP/1.1" 200 190
0:0:0:0:0:0:0:1 - - [06/Mar/2018:09:11:09 -0400] "POST /myapplication/UIDL/?v-uiId=0 HTTP/1.1" 200 137
0:0:0:0:0:0:0:1 - - [06/Mar/2018:09:11:11 -0400] "POST /myapplication/UIDL/?v-uiId=0 HTTP/1.1" 200 191
0:0:0:0:0:0:0:1 - - [06/Mar/2018:09:11:11 -0400] "POST /myapplication/UIDL/?v-uiId=0 HTTP/1.1" 200 5335
0:0:0:0:0:0:0:1 - - [06/Mar/2018:09:11:13 -0400] "POST /myapplication/UIDL/?v-uiId=0 HTTP/1.1" 200 853
0:0:0:0:0:0:0:1 - - [06/Mar/2018:09:11:14 -0400] "POST /myapplication/UIDL/?v-uiId=0 HTTP/1.1" 200 11753
0:0:0:0:0:0:0:1 - - [06/Mar/2018:09:11:15 -0400] "POST /myapplication/UIDL/?v-uiId=0 HTTP/1.1" 200 22093
0:0:0:0:0:0:0:1 - - [06/Mar/2018:09:11:18 -0400] "POST /myapplication/UIDL/?v-uiId=0 HTTP/1.1" 200 732
0:0:0:0:0:0:0:1 - - [06/Mar/2018:09:11:19 -0400] "POST /myapplication/UIDL/?v-uiId=0 HTTP/1.1" 200 15527
0:0:0:0:0:0:0:1 - - [06/Mar/2018:09:11:20 -0400] "POST /myapplication/UIDL/?v-uiId=0 HTTP/1.1" 200 16534
0:0:0:0:0:0:0:1 - - [06/Mar/2018:09:11:23 -0400] "POST /myapplication/UIDL/?v-uiId=0 HTTP/1.1" 200 689
0:0:0:0:0:0:0:1 - - [06/Mar/2018:09:11:23 -0400] "POST /myapplication/UIDL/?v-uiId=0 HTTP/1.1" 200 1042
0:0:0:0:0:0:0:1 - - [06/Mar/2018:09:11:24 -0400] "POST /myapplication/UIDL/?v-uiId=0 HTTP/1.1" 200 444
0:0:0:0:0:0:0:1 - - [06/Mar/2018:09:11:25 -0400] "POST /myapplication/UIDL/?v-uiId=0 HTTP/1.1" 200 837
0:0:0:0:0:0:0:1 - - [06/Mar/2018:09:11:26 -0400] "POST /myapplication/UIDL/?v-uiId=0 HTTP/1.1" 200 8509
0:0:0:0:0:0:0:1 - - [06/Mar/2018:09:11:27 -0400] "POST /myapplication/UIDL/?v-uiId=0 HTTP/1.1" 200 1258
0:0:0:0:0:0:0:1 - - [06/Mar/2018:09:11:27 -0400] "POST /myapplication/UIDL/?v-uiId=0 HTTP/1.1" 200 139
0:0:0:0:0:0:0:1 - - [06/Mar/2018:09:11:27 -0400] "POST /myapplication/UIDL/?v-uiId=0 HTTP/1.1" 200 337
0:0:0:0:0:0:0:1 - - [06/Mar/2018:09:12:24 -0400] "GET /myapplication/servlet/com.example.myapplication.MyUI$MyUIServlet HTTP/1.1" 200 1806
0:0:0:0:0:0:0:1 - - [06/Mar/2018:09:12:24 -0400] "GET /myapplication/VAADIN/widgetsets/com.vaadin.DefaultWidgetSet/com.vaadin.DefaultWidgetSet.nocache.js?1520341944441 HTTP/1.1" 200 3231
0:0:0:0:0:0:0:1 - - [06/Mar/2018:09:12:27 -0400] "POST /myapplication/servlet/com.example.myapplication.MyUI$MyUIServlet?v-1520341944441 HTTP/1.1" 200 6325
0:0:0:0:0:0:0:1 - - [06/Mar/2018:09:12:29 -0400] "POST /myapplication/UIDL/?v-uiId=0 HTTP/1.1" 200 235
0:0:0:0:0:0:0:1 - - [06/Mar/2018:09:12:30 -0400] "GET /myapplication/servlet/com.example.myapplication.MyUI$MyUIServlet HTTP/1.1" 200 1806
0:0:0:0:0:0:0:1 - - [06/Mar/2018:09:12:30 -0400] "GET /myapplication/VAADIN/vaadinBootstrap.js?v=8.3.1 HTTP/1.1" 304 -
0:0:0:0:0:0:0:1 - - [06/Mar/2018:09:12:30 -0400] "GET /myapplication/VAADIN/widgetsets/com.vaadin.DefaultWidgetSet/com.vaadin.DefaultWidgetSet.nocache.js?1520341950211 HTTP/1.1" 200 3231
0:0:0:0:0:0:0:1 - - [06/Mar/2018:09:12:30 -0400] "GET /myapplication/VAADIN/themes/mytheme/styles.css?v=8.3.1 HTTP/1.1" 200 379591
0:0:0:0:0:0:0:1 - - [06/Mar/2018:09:12:30 -0400] "GET /myapplication/VAADIN/themes/valo/shared/img/spinner.gif HTTP/1.1" 304 -
0:0:0:0:0:0:0:1 - - [06/Mar/2018:09:12:30 -0400] "GET /myapplication/VAADIN/widgetsets/com.vaadin.DefaultWidgetSet/99065197202814696C2A1A56BF276C09.cache.js HTTP/1.1" 304 -
0:0:0:0:0:0:0:1 - - [06/Mar/2018:09:12:32 -0400] "POST /myapplication/servlet/com.example.myapplication.MyUI$MyUIServlet?v-1520341950211 HTTP/1.1" 200 6324
0:0:0:0:0:0:0:1 - - [06/Mar/2018:09:12:32 -0400] "POST /myapplication/UIDL/?v-uiId=0 HTTP/1.1" 200 137
0:0:0:0:0:0:0:1 - - [06/Mar/2018:09:12:35 -0400] "POST /myapplication/UIDL/?v-uiId=0 HTTP/1.1" 200 190
0:0:0:0:0:0:0:1 - - [06/Mar/2018:09:12:35 -0400] "POST /myapplication/UIDL/?v-uiId=0 HTTP/1.1" 200 137
0:0:0:0:0:0:0:1 - - [06/Mar/2018:09:12:37 -0400] "POST /myapplication/UIDL/?v-uiId=0 HTTP/1.1" 200 191
0:0:0:0:0:0:0:1 - - [06/Mar/2018:09:12:37 -0400] "POST /myapplication/UIDL/?v-uiId=0 HTTP/1.1" 200 5337
0:0:0:0:0:0:0:1 - - [06/Mar/2018:09:12:37 -0400] "GET /myapplication/VAADIN/themes/mytheme/imagens/logo-prosaude.png HTTP/1.1" 304 -
0:0:0:0:0:0:0:1 - - [06/Mar/2018:09:12:38 -0400] "POST /myapplication/UIDL/?v-uiId=0 HTTP/1.1" 200 853
0:0:0:0:0:0:0:1 - - [06/Mar/2018:09:12:39 -0400] "POST /myapplication/UIDL/?v-uiId=0 HTTP/1.1" 200 11782
0:0:0:0:0:0:0:1 - - [06/Mar/2018:09:12:39 -0400] "GET /myapplication/VAADIN/themes/mytheme/imagens/library/update.png HTTP/1.1" 304 -
0:0:0:0:0:0:0:1 - - [06/Mar/2018:09:12:39 -0400] "GET /myapplication/VAADIN/themes/mytheme/imagens/library/insert.png HTTP/1.1" 304 -
0:0:0:0:0:0:0:1 - - [06/Mar/2018:09:12:39 -0400] "GET /myapplication/VAADIN/themes/mytheme/imagens/library/find.png HTTP/1.1" 304 -
0:0:0:0:0:0:0:1 - - [06/Mar/2018:09:12:41 -0400] "POST /myapplication/UIDL/?v-uiId=0 HTTP/1.1" 200 22088
0:0:0:0:0:0:0:1 - - [06/Mar/2018:09:12:41 -0400] "GET /myapplication/VAADIN/themes/mytheme/imagens/library/lupa.png HTTP/1.1" 304 -
0:0:0:0:0:0:0:1 - - [06/Mar/2018:09:12:41 -0400] "GET /myapplication/VAADIN/themes/mytheme/imagens/library/delete.png HTTP/1.1" 304 -
0:0:0:0:0:0:0:1 - - [06/Mar/2018:09:12:41 -0400] "GET /myapplication/VAADIN/themes/mytheme/imagens/library/money.png HTTP/1.1" 304 -
0:0:0:0:0:0:0:1 - - [06/Mar/2018:09:12:41 -0400] "GET /myapplication/VAADIN/themes/mytheme/imagens/library/cancel.png HTTP/1.1" 304 -
0:0:0:0:0:0:0:1 - - [06/Mar/2018:09:12:41 -0400] "GET /myapplication/VAADIN/themes/mytheme/imagens/library/disk.png HTTP/1.1" 304 -
0:0:0:0:0:0:0:1 - - [06/Mar/2018:09:12:43 -0400] "POST /myapplication/UIDL/?v-uiId=0 HTTP/1.1" 200 732
0:0:0:0:0:0:0:1 - - [06/Mar/2018:09:12:44 -0400] "POST /myapplication/UIDL/?v-uiId=0 HTTP/1.1" 200 15547
0:0:0:0:0:0:0:1 - - [06/Mar/2018:09:12:45 -0400] "POST /myapplication/UIDL/?v-uiId=0 HTTP/1.1" 200 16534
0:0:0:0:0:0:0:1 - - [06/Mar/2018:09:12:45 -0400] "GET /myapplication/VAADIN/themes/mytheme/imagens/library/download.png HTTP/1.1" 304 -
0:0:0:0:0:0:0:1 - - [06/Mar/2018:09:12:45 -0400] "GET /myapplication/VAADIN/themes/mytheme/imagens/library/print.png HTTP/1.1" 304 -
0:0:0:0:0:0:0:1 - - [06/Mar/2018:09:12:45 -0400] "GET /myapplication/VAADIN/themes/mytheme/imagens/library/filter_del.png HTTP/1.1" 304 -
0:0:0:0:0:0:0:1 - - [06/Mar/2018:09:12:49 -0400] "POST /myapplication/UIDL/?v-uiId=0 HTTP/1.1" 200 689
0:0:0:0:0:0:0:1 - - [06/Mar/2018:09:12:49 -0400] "POST /myapplication/UIDL/?v-uiId=0 HTTP/1.1" 200 1042
0:0:0:0:0:0:0:1 - - [06/Mar/2018:09:12:50 -0400] "POST /myapplication/UIDL/?v-uiId=0 HTTP/1.1" 200 444
0:0:0:0:0:0:0:1 - - [06/Mar/2018:09:12:51 -0400] "POST /myapplication/UIDL/?v-uiId=0 HTTP/1.1" 200 837
0:0:0:0:0:0:0:1 - - [06/Mar/2018:09:12:52 -0400] "POST /myapplication/UIDL/?v-uiId=0 HTTP/1.1" 200 8515
0:0:0:0:0:0:0:1 - - [06/Mar/2018:09:12:54 -0400] "POST /myapplication/UIDL/?v-uiId=0 HTTP/1.1" 200 1258
0:0:0:0:0:0:0:1 - - [06/Mar/2018:09:12:54 -0400] "POST /myapplication/UIDL/?v-uiId=0 HTTP/1.1" 200 139
0:0:0:0:0:0:0:1 - - [06/Mar/2018:09:12:54 -0400] "POST /myapplication/UIDL/?v-uiId=0 HTTP/1.1" 200 337
0:0:0:0:0:0:0:1 - - [06/Mar/2018:09:12:56 -0400] "POST /myapplication/UIDL/?v-uiId=0 HTTP/1.1" 200 1014
0:0:0:0:0:0:0:1 - - [06/Mar/2018:09:12:56 -0400] "POST /myapplication/UIDL/?v-uiId=0 HTTP/1.1" 200 139
0:0:0:0:0:0:0:1 - - [06/Mar/2018:09:12:56 -0400] "POST /myapplication/UIDL/?v-uiId=0 HTTP/1.1" 200 337
0:0:0:0:0:0:0:1 - - [06/Mar/2018:09:12:56 -0400] "POST /myapplication/UIDL/?v-uiId=0 HTTP/1.1" 200 1013
0:0:0:0:0:0:0:1 - - [06/Mar/2018:09:12:56 -0400] "POST /myapplication/UIDL/?v-uiId=0 HTTP/1.1" 200 139
0:0:0:0:0:0:0:1 - - [06/Mar/2018:09:12:56 -0400] "POST /myapplication/UIDL/?v-uiId=0 HTTP/1.1" 200 337
0:0:0:0:0:0:0:1 - - [06/Mar/2018:09:12:57 -0400] "POST /myapplication/UIDL/?v-uiId=0 HTTP/1.1" 200 1015
0:0:0:0:0:0:0:1 - - [06/Mar/2018:09:12:57 -0400] "POST /myapplication/UIDL/?v-uiId=0 HTTP/1.1" 200 139
0:0:0:0:0:0:0:1 - - [06/Mar/2018:09:12:57 -0400] "POST /myapplication/UIDL/?v-uiId=0 HTTP/1.1" 200 337
0:0:0:0:0:0:0:1 - - [06/Mar/2018:09:12:58 -0400] "POST /myapplication/UIDL/?v-uiId=0 HTTP/1.1" 200 1014
0:0:0:0:0:0:0:1 - - [06/Mar/2018:09:12:58 -0400] "POST /myapplication/UIDL/?v-uiId=0 HTTP/1.1" 200 139
0:0:0:0:0:0:0:1 - - [06/Mar/2018:09:12:58 -0400] "POST /myapplication/UIDL/?v-uiId=0 HTTP/1.1" 200 337
0:0:0:0:0:0:0:1 - - [06/Mar/2018:09:12:59 -0400] "POST /myapplication/UIDL/?v-uiId=0 HTTP/1.1" 200 1016
0:0:0:0:0:0:0:1 - - [06/Mar/2018:09:12:59 -0400] "POST /myapplication/UIDL/?v-uiId=0 HTTP/1.1" 200 139
0:0:0:0:0:0:0:1 - - [06/Mar/2018:09:12:59 -0400] "POST /myapplication/UIDL/?v-uiId=0 HTTP/1.1" 200 337
0:0:0:0:0:0:0:1 - - [06/Mar/2018:09:13:26 -0400] "GET /myapplication/servlet/com.example.myapplication.MyUI$MyUIServlet HTTP/1.1" 200 1806
0:0:0:0:0:0:0:1 - - [06/Mar/2018:09:13:26 -0400] "GET /myapplication/VAADIN/widgetsets/com.vaadin.DefaultWidgetSet/com.vaadin.DefaultWidgetSet.nocache.js?1520342006662 HTTP/1.1" 200 3231
0:0:0:0:0:0:0:1 - - [06/Mar/2018:09:13:29 -0400] "POST /myapplication/servlet/com.example.myapplication.MyUI$MyUIServlet?v-1520342006662 HTTP/1.1" 200 6479
0:0:0:0:0:0:0:1 - - [06/Mar/2018:09:13:31 -0400] "POST /myapplication/UIDL/?v-uiId=1 HTTP/1.1" 200 235
0:0:0:0:0:0:0:1 - - [06/Mar/2018:09:13:31 -0400] "GET /myapplication/servlet/com.example.myapplication.MyUI$MyUIServlet HTTP/1.1" 200 1806
0:0:0:0:0:0:0:1 - - [06/Mar/2018:09:13:31 -0400] "GET /myapplication/VAADIN/vaadinBootstrap.js?v=8.3.1 HTTP/1.1" 304 -
0:0:0:0:0:0:0:1 - - [06/Mar/2018:09:13:31 -0400] "GET /myapplication/VAADIN/themes/mytheme/styles.css?v=8.3.1 HTTP/1.1" 304 -
0:0:0:0:0:0:0:1 - - [06/Mar/2018:09:13:31 -0400] "GET /myapplication/VAADIN/widgetsets/com.vaadin.DefaultWidgetSet/com.vaadin.DefaultWidgetSet.nocache.js?1520342011961 HTTP/1.1" 200 3231
0:0:0:0:0:0:0:1 - - [06/Mar/2018:09:13:32 -0400] "GET /myapplication/VAADIN/themes/valo/shared/img/spinner.gif HTTP/1.1" 304 -
0:0:0:0:0:0:0:1 - - [06/Mar/2018:09:13:32 -0400] "GET /myapplication/VAADIN/widgetsets/com.vaadin.DefaultWidgetSet/99065197202814696C2A1A56BF276C09.cache.js HTTP/1.1" 304 -
0:0:0:0:0:0:0:1 - - [06/Mar/2018:09:13:34 -0400] "POST /myapplication/servlet/com.example.myapplication.MyUI$MyUIServlet?v-1520342011961 HTTP/1.1" 200 6323
0:0:0:0:0:0:0:1 - - [06/Mar/2018:09:13:34 -0400] "POST /myapplication/UIDL/?v-uiId=0 HTTP/1.1" 200 137
0:0:0:0:0:0:0:1 - - [06/Mar/2018:09:13:39 -0400] "POST /myapplication/UIDL/?v-uiId=0 HTTP/1.1" 200 190
0:0:0:0:0:0:0:1 - - [06/Mar/2018:09:13:39 -0400] "POST /myapplication/UIDL/?v-uiId=0 HTTP/1.1" 200 137
0:0:0:0:0:0:0:1 - - [06/Mar/2018:09:13:41 -0400] "POST /myapplication/UIDL/?v-uiId=0 HTTP/1.1" 200 190
0:0:0:0:0:0:0:1 - - [06/Mar/2018:09:13:41 -0400] "POST /myapplication/UIDL/?v-uiId=0 HTTP/1.1" 200 5335
0:0:0:0:0:0:0:1 - - [06/Mar/2018:09:13:42 -0400] "GET /myapplication/VAADIN/themes/mytheme/imagens/logo-prosaude.png HTTP/1.1" 304 -
0:0:0:0:0:0:0:1 - - [06/Mar/2018:09:13:43 -0400] "POST /myapplication/UIDL/?v-uiId=0 HTTP/1.1" 200 853
0:0:0:0:0:0:0:1 - - [06/Mar/2018:09:13:43 -0400] "POST /myapplication/UIDL/?v-uiId=0 HTTP/1.1" 200 11807
0:0:0:0:0:0:0:1 - - [06/Mar/2018:09:13:43 -0400] "GET /myapplication/VAADIN/themes/mytheme/imagens/library/insert.png HTTP/1.1" 304 -
0:0:0:0:0:0:0:1 - - [06/Mar/2018:09:13:43 -0400] "GET /myapplication/VAADIN/themes/mytheme/imagens/library/update.png HTTP/1.1" 304 -
0:0:0:0:0:0:0:1 - - [06/Mar/2018:09:13:43 -0400] "GET /myapplication/VAADIN/themes/mytheme/imagens/library/find.png HTTP/1.1" 304 -
0:0:0:0:0:0:0:1 - - [06/Mar/2018:09:13:45 -0400] "POST /myapplication/UIDL/?v-uiId=0 HTTP/1.1" 200 22093
0:0:0:0:0:0:0:1 - - [06/Mar/2018:09:13:45 -0400] "GET /myapplication/VAADIN/themes/mytheme/imagens/library/lupa.png HTTP/1.1" 304 -
0:0:0:0:0:0:0:1 - - [06/Mar/2018:09:13:45 -0400] "GET /myapplication/VAADIN/themes/mytheme/imagens/library/delete.png HTTP/1.1" 304 -
0:0:0:0:0:0:0:1 - - [06/Mar/2018:09:13:45 -0400] "GET /myapplication/VAADIN/themes/mytheme/imagens/library/money.png HTTP/1.1" 304 -
0:0:0:0:0:0:0:1 - - [06/Mar/2018:09:13:45 -0400] "GET /myapplication/VAADIN/themes/mytheme/imagens/library/cancel.png HTTP/1.1" 304 -
0:0:0:0:0:0:0:1 - - [06/Mar/2018:09:13:45 -0400] "GET /myapplication/VAADIN/themes/mytheme/imagens/library/disk.png HTTP/1.1" 304 -
0:0:0:0:0:0:0:1 - - [06/Mar/2018:09:13:49 -0400] "POST /myapplication/UIDL/?v-uiId=0 HTTP/1.1" 200 732
0:0:0:0:0:0:0:1 - - [06/Mar/2018:09:13:50 -0400] "POST /myapplication/UIDL/?v-uiId=0 HTTP/1.1" 200 15581
0:0:0:0:0:0:0:1 - - [06/Mar/2018:09:13:51 -0400] "POST /myapplication/UIDL/?v-uiId=0 HTTP/1.1" 200 16534
0:0:0:0:0:0:0:1 - - [06/Mar/2018:09:13:51 -0400] "GET /myapplication/VAADIN/themes/mytheme/imagens/library/print.png HTTP/1.1" 304 -
0:0:0:0:0:0:0:1 - - [06/Mar/2018:09:13:52 -0400] "GET /myapplication/VAADIN/themes/mytheme/imagens/library/download.png HTTP/1.1" 304 -
0:0:0:0:0:0:0:1 - - [06/Mar/2018:09:13:52 -0400] "GET /myapplication/VAADIN/themes/mytheme/imagens/library/filter_del.png HTTP/1.1" 304 -
0:0:0:0:0:0:0:1 - - [06/Mar/2018:09:13:55 -0400] "POST /myapplication/UIDL/?v-uiId=0 HTTP/1.1" 200 689
0:0:0:0:0:0:0:1 - - [06/Mar/2018:09:13:55 -0400] "POST /myapplication/UIDL/?v-uiId=0 HTTP/1.1" 200 1042
0:0:0:0:0:0:0:1 - - [06/Mar/2018:09:13:55 -0400] "POST /myapplication/UIDL/?v-uiId=0 HTTP/1.1" 200 444
0:0:0:0:0:0:0:1 - - [06/Mar/2018:09:13:56 -0400] "POST /myapplication/UIDL/?v-uiId=0 HTTP/1.1" 200 837
0:0:0:0:0:0:0:1 - - [06/Mar/2018:09:13:57 -0400] "POST /myapplication/UIDL/?v-uiId=0 HTTP/1.1" 200 8615
0:0:0:0:0:0:0:1 - - [06/Mar/2018:09:13:59 -0400] "POST /myapplication/UIDL/?v-uiId=0 HTTP/1.1" 200 1364
0:0:0:0:0:0:0:1 - - [06/Mar/2018:09:13:59 -0400] "POST /myapplication/UIDL/?v-uiId=0 HTTP/1.1" 200 139
0:0:0:0:0:0:0:1 - - [06/Mar/2018:09:13:59 -0400] "POST /myapplication/UIDL/?v-uiId=0 HTTP/1.1" 200 337
0:0:0:0:0:0:0:1 - - [06/Mar/2018:09:14:02 -0400] "POST /myapplication/UIDL/?v-uiId=0 HTTP/1.1" 200 1120
0:0:0:0:0:0:0:1 - - [06/Mar/2018:09:14:02 -0400] "POST /myapplication/UIDL/?v-uiId=0 HTTP/1.1" 200 139
0:0:0:0:0:0:0:1 - - [06/Mar/2018:09:14:02 -0400] "POST /myapplication/UIDL/?v-uiId=0 HTTP/1.1" 200 337
0:0:0:0:0:0:0:1 - - [06/Mar/2018:09:14:03 -0400] "POST /myapplication/UIDL/?v-uiId=0 HTTP/1.1" 200 1119
0:0:0:0:0:0:0:1 - - [06/Mar/2018:09:14:03 -0400] "POST /myapplication/UIDL/?v-uiId=0 HTTP/1.1" 200 139
0:0:0:0:0:0:0:1 - - [06/Mar/2018:09:14:03 -0400] "POST /myapplication/UIDL/?v-uiId=0 HTTP/1.1" 200 337
0:0:0:0:0:0:0:1 - - [06/Mar/2018:09:14:04 -0400] "POST /myapplication/UIDL/?v-uiId=0 HTTP/1.1" 200 371
0:0:0:0:0:0:0:1 - - [06/Mar/2018:09:14:06 -0400] "POST /myapplication/UIDL/?v-uiId=0 HTTP/1.1" 200 1128
0:0:0:0:0:0:0:1 - - [06/Mar/2018:09:14:08 -0400] "POST /myapplication/UIDL/?v-uiId=0 HTTP/1.1" 200 2512
0:0:0:0:0:0:0:1 - - [06/Mar/2018:09:14:08 -0400] "GET /myapplication/VAADIN/themes/mytheme/imagens/library/icon-error.png HTTP/1.1" 304 -
0:0:0:0:0:0:0:1 - - [06/Mar/2018:09:14:24 -0400] "POST /myapplication/UIDL/?v-uiId=0 HTTP/1.1" 200 209
0:0:0:0:0:0:0:1 - - [06/Mar/2018:09:14:38 -0400] "POST /myapplication/UIDL/?v-uiId=0 HTTP/1.1" 200 948
127.0.0.1 - - [06/Mar/2018:09:17:59 -0400] "GET / HTTP/1.1" 404 951
0:0:0:0:0:0:0:1 - - [06/Mar/2018:09:17:59 -0400] "POST /myapplication/UIDL/?v-uiId=0 HTTP/1.1" 200 235
0:0:0:0:0:0:0:1 - - [06/Mar/2018:09:17:59 -0400] "GET /myapplication/servlet/com.example.myapplication.MyUI$MyUIServlet HTTP/1.1" 200 1912
0:0:0:0:0:0:0:1 - - [06/Mar/2018:09:18:41 -0400] "GET /myapplication/servlet/com.example.myapplication.MyUI$MyUIServlet HTTP/1.1" 200 1806
0:0:0:0:0:0:0:1 - - [06/Mar/2018:09:18:41 -0400] "GET /myapplication/VAADIN/widgetsets/com.vaadin.DefaultWidgetSet/com.vaadin.DefaultWidgetSet.nocache.js?1520342321626 HTTP/1.1" 200 3231
0:0:0:0:0:0:0:1 - - [06/Mar/2018:09:18:44 -0400] "POST /myapplication/servlet/com.example.myapplication.MyUI$MyUIServlet?v-1520342321626 HTTP/1.1" 200 6325
0:0:0:0:0:0:0:1 - - [06/Mar/2018:09:18:44 -0400] "POST /myapplication/UIDL/?v-uiId=0 HTTP/1.1" 200 137
0:0:0:0:0:0:0:1 - - [06/Mar/2018:09:18:47 -0400] "POST /myapplication/UIDL/?v-uiId=0 HTTP/1.1" 200 191
0:0:0:0:0:0:0:1 - - [06/Mar/2018:09:18:47 -0400] "POST /myapplication/UIDL/?v-uiId=0 HTTP/1.1" 200 137
0:0:0:0:0:0:0:1 - - [06/Mar/2018:09:18:49 -0400] "POST /myapplication/UIDL/?v-uiId=0 HTTP/1.1" 200 190
0:0:0:0:0:0:0:1 - - [06/Mar/2018:09:18:49 -0400] "POST /myapplication/UIDL/?v-uiId=0 HTTP/1.1" 200 5341
0:0:0:0:0:0:0:1 - - [06/Mar/2018:09:18:52 -0400] "POST /myapplication/UIDL/?v-uiId=0 HTTP/1.1" 200 853
0:0:0:0:0:0:0:1 - - [06/Mar/2018:09:18:54 -0400] "POST /myapplication/UIDL/?v-uiId=0 HTTP/1.1" 200 11825
0:0:0:0:0:0:0:1 - - [06/Mar/2018:09:18:55 -0400] "POST /myapplication/UIDL/?v-uiId=0 HTTP/1.1" 200 22112
0:0:0:0:0:0:0:1 - - [06/Mar/2018:09:18:57 -0400] "POST /myapplication/UIDL/?v-uiId=0 HTTP/1.1" 200 736
0:0:0:0:0:0:0:1 - - [06/Mar/2018:09:18:58 -0400] "POST /myapplication/UIDL/?v-uiId=0 HTTP/1.1" 200 15605
0:0:0:0:0:0:0:1 - - [06/Mar/2018:09:18:59 -0400] "POST /myapplication/UIDL/?v-uiId=0 HTTP/1.1" 200 16547
0:0:0:0:0:0:0:1 - - [06/Mar/2018:09:19:01 -0400] "POST /myapplication/UIDL/?v-uiId=0 HTTP/1.1" 200 466
0:0:0:0:0:0:0:1 - - [06/Mar/2018:09:19:02 -0400] "POST /myapplication/UIDL/?v-uiId=0 HTTP/1.1" 200 215
0:0:0:0:0:0:0:1 - - [06/Mar/2018:09:19:02 -0400] "POST /myapplication/UIDL/?v-uiId=0 HTTP/1.1" 200 209
0:0:0:0:0:0:0:1 - - [06/Mar/2018:09:19:03 -0400] "POST /myapplication/UIDL/?v-uiId=0 HTTP/1.1" 200 9229
0:0:0:0:0:0:0:1 - - [06/Mar/2018:09:19:05 -0400] "POST /myapplication/UIDL/?v-uiId=0 HTTP/1.1" 200 1002
0:0:0:0:0:0:0:1 - - [06/Mar/2018:09:19:07 -0400] "POST /myapplication/UIDL/?v-uiId=0 HTTP/1.1" 200 8641
0:0:0:0:0:0:0:1 - - [06/Mar/2018:09:19:08 -0400] "POST /myapplication/UIDL/?v-uiId=0 HTTP/1.1" 200 1381
0:0:0:0:0:0:0:1 - - [06/Mar/2018:09:19:08 -0400] "POST /myapplication/UIDL/?v-uiId=0 HTTP/1.1" 200 139
0:0:0:0:0:0:0:1 - - [06/Mar/2018:09:19:08 -0400] "POST /myapplication/UIDL/?v-uiId=0 HTTP/1.1" 200 337
0:0:0:0:0:0:0:1 - - [06/Mar/2018:09:19:10 -0400] "POST /myapplication/UIDL/?v-uiId=0 HTTP/1.1" 200 373
0:0:0:0:0:0:0:1 - - [06/Mar/2018:09:19:11 -0400] "POST /myapplication/UIDL/?v-uiId=0 HTTP/1.1" 200 1129
0:0:0:0:0:0:0:1 - - [06/Mar/2018:09:19:13 -0400] "POST /myapplication/UIDL/?v-uiId=0 HTTP/1.1" 200 9229
0:0:0:0:0:0:0:1 - - [06/Mar/2018:09:19:14 -0400] "POST /myapplication/UIDL/?v-uiId=0 HTTP/1.1" 200 15847
0:0:0:0:0:0:0:1 - - [06/Mar/2018:09:19:16 -0400] "POST /myapplication/UIDL/?v-uiId=0 HTTP/1.1" 200 690
0:0:0:0:0:0:0:1 - - [06/Mar/2018:09:19:17 -0400] "POST /myapplication/UIDL/?v-uiId=0 HTTP/1.1" 200 1040
0:0:0:0:0:0:0:1 - - [06/Mar/2018:09:19:17 -0400] "POST /myapplication/UIDL/?v-uiId=0 HTTP/1.1" 200 442
0:0:0:0:0:0:0:1 - - [06/Mar/2018:09:19:18 -0400] "POST /myapplication/UIDL/?v-uiId=0 HTTP/1.1" 200 477
0:0:0:0:0:0:0:1 - - [06/Mar/2018:09:19:19 -0400] "POST /myapplication/UIDL/?v-uiId=0 HTTP/1.1" 200 7936
0:0:0:0:0:0:0:1 - - [06/Mar/2018:09:19:21 -0400] "POST /myapplication/UIDL/?v-uiId=0 HTTP/1.1" 200 1271
0:0:0:0:0:0:0:1 - - [06/Mar/2018:09:19:21 -0400] "POST /myapplication/UIDL/?v-uiId=0 HTTP/1.1" 200 139
0:0:0:0:0:0:0:1 - - [06/Mar/2018:09:19:21 -0400] "POST /myapplication/UIDL/?v-uiId=0 HTTP/1.1" 200 295
0:0:0:0:0:0:0:1 - - [06/Mar/2018:09:19:23 -0400] "POST /myapplication/UIDL/?v-uiId=0 HTTP/1.1" 200 1025
0:0:0:0:0:0:0:1 - - [06/Mar/2018:09:19:23 -0400] "POST /myapplication/UIDL/?v-uiId=0 HTTP/1.1" 200 139
0:0:0:0:0:0:0:1 - - [06/Mar/2018:09:19:23 -0400] "POST /myapplication/UIDL/?v-uiId=0 HTTP/1.1" 200 295
0:0:0:0:0:0:0:1 - - [06/Mar/2018:09:19:26 -0400] "POST /myapplication/UIDL/?v-uiId=0 HTTP/1.1" 200 1026
0:0:0:0:0:0:0:1 - - [06/Mar/2018:09:19:26 -0400] "POST /myapplication/UIDL/?v-uiId=0 HTTP/1.1" 200 139
0:0:0:0:0:0:0:1 - - [06/Mar/2018:09:19:26 -0400] "POST /myapplication/UIDL/?v-uiId=0 HTTP/1.1" 200 295
0:0:0:0:0:0:0:1 - - [06/Mar/2018:09:19:27 -0400] "POST /myapplication/UIDL/?v-uiId=0 HTTP/1.1" 200 370
0:0:0:0:0:0:0:1 - - [06/Mar/2018:09:19:30 -0400] "POST /myapplication/UIDL/?v-uiId=0 HTTP/1.1" 200 1407
0:0:0:0:0:0:0:1 - - [06/Mar/2018:09:19:33 -0400] "POST /myapplication/UIDL/?v-uiId=0 HTTP/1.1" 200 6858
0:0:0:0:0:0:0:1 - - [06/Mar/2018:09:19:35 -0400] "POST /myapplication/UIDL/?v-uiId=0 HTTP/1.1" 200 15972
0:0:0:0:0:0:0:1 - - [06/Mar/2018:09:19:37 -0400] "POST /myapplication/UIDL/?v-uiId=0 HTTP/1.1" 200 690
0:0:0:0:0:0:0:1 - - [06/Mar/2018:09:19:37 -0400] "POST /myapplication/UIDL/?v-uiId=0 HTTP/1.1" 200 1283
0:0:0:0:0:0:0:1 - - [06/Mar/2018:09:19:38 -0400] "POST /myapplication/UIDL/?v-uiId=0 HTTP/1.1" 200 456
0:0:0:0:0:0:0:1 - - [06/Mar/2018:09:19:39 -0400] "POST /myapplication/UIDL/?v-uiId=0 HTTP/1.1" 200 452
0:0:0:0:0:0:0:1 - - [06/Mar/2018:09:19:40 -0400] "POST /myapplication/UIDL/?v-uiId=0 HTTP/1.1" 200 6294
0:0:0:0:0:0:0:1 - - [06/Mar/2018:09:19:44 -0400] "POST /myapplication/UIDL/?v-uiId=0 HTTP/1.1" 200 375
0:0:0:0:0:0:0:1 - - [06/Mar/2018:09:19:48 -0400] "POST /myapplication/UIDL/?v-uiId=0 HTTP/1.1" 200 1126
0:0:0:0:0:0:0:1 - - [06/Mar/2018:09:19:49 -0400] "POST /myapplication/UIDL/?v-uiId=0 HTTP/1.1" 200 6981
0:0:0:0:0:0:0:1 - - [06/Mar/2018:09:19:50 -0400] "POST /myapplication/UIDL/?v-uiId=0 HTTP/1.1" 200 382
0:0:0:0:0:0:0:1 - - [06/Mar/2018:09:19:50 -0400] "POST /myapplication/UIDL/?v-uiId=0 HTTP/1.1" 200 16182
0:0:0:0:0:0:0:1 - - [06/Mar/2018:09:19:54 -0400] "POST /myapplication/UIDL/?v-uiId=0 HTTP/1.1" 200 711
0:0:0:0:0:0:0:1 - - [06/Mar/2018:09:19:54 -0400] "POST /myapplication/UIDL/?v-uiId=0 HTTP/1.1" 200 1585
0:0:0:0:0:0:0:1 - - [06/Mar/2018:09:19:55 -0400] "POST /myapplication/UIDL/?v-uiId=0 HTTP/1.1" 200 477
0:0:0:0:0:0:0:1 - - [06/Mar/2018:09:19:56 -0400] "POST /myapplication/UIDL/?v-uiId=0 HTTP/1.1" 200 483
0:0:0:0:0:0:0:1 - - [06/Mar/2018:09:19:57 -0400] "POST /myapplication/UIDL/?v-uiId=0 HTTP/1.1" 200 6071
0:0:0:0:0:0:0:1 - - [06/Mar/2018:09:19:59 -0400] "POST /myapplication/UIDL/?v-uiId=0 HTTP/1.1" 200 389
0:0:0:0:0:0:0:1 - - [06/Mar/2018:09:20:05 -0400] "POST /myapplication/UIDL/?v-uiId=0 HTTP/1.1" 200 1413
0:0:0:0:0:0:0:1 - - [06/Mar/2018:09:20:09 -0400] "POST /myapplication/UIDL/?v-uiId=0 HTTP/1.1" 200 768
0:0:0:0:0:0:0:1 - - [06/Mar/2018:09:20:22 -0400] "POST /myapplication/UIDL/?v-uiId=0 HTTP/1.1" 200 1231
0:0:0:0:0:0:0:1 - - [06/Mar/2018:09:20:31 -0400] "POST /myapplication/UIDL/?v-uiId=0 HTTP/1.1" 200 1196
0:0:0:0:0:0:0:1 - - [06/Mar/2018:09:20:37 -0400] "POST /myapplication/UIDL/?v-uiId=0 HTTP/1.1" 200 518
0:0:0:0:0:0:0:1 - - [06/Mar/2018:09:20:43 -0400] "POST /myapplication/UIDL/?v-uiId=0 HTTP/1.1" 200 1231
0:0:0:0:0:0:0:1 - - [06/Mar/2018:09:20:47 -0400] "POST /myapplication/UIDL/?v-uiId=0 HTTP/1.1" 200 1196
0:0:0:0:0:0:0:1 - - [06/Mar/2018:09:20:47 -0400] "POST /myapplication/UIDL/?v-uiId=0 HTTP/1.1" 200 203
127.0.0.1 - - [06/Mar/2018:10:27:22 -0400] "GET / HTTP/1.1" 404 951
0:0:0:0:0:0:0:1 - - [06/Mar/2018:10:27:24 -0400] "GET /myapplication/servlet/com.example.myapplication.MyUI$MyUIServlet HTTP/1.1" 200 1912
