0:0:0:0:0:0:0:1 - - [12/Apr/2018:00:04:39 -0400] "POST /myapplication/HEARTBEAT/?v-uiId=0 HTTP/1.1" 200 -
0:0:0:0:0:0:0:1 - - [12/Apr/2018:00:04:48 -0400] "GET /myapplication/WEB-INF/classes/com/example/myapplication/DatabaseApp.java HTTP/1.1" 404 949
0:0:0:0:0:0:0:1 - - [12/Apr/2018:00:06:02 -0400] "GET /myapplication/servlet/com.example.myapplication.MyUI$MyUIServlet HTTP/1.1" 200 1861
0:0:0:0:0:0:0:1 - - [12/Apr/2018:00:06:02 -0400] "GET /myapplication/VAADIN/vaadinBootstrap.js?v=8.3.1 HTTP/1.1" 200 3837
0:0:0:0:0:0:0:1 - - [12/Apr/2018:00:06:02 -0400] "GET /myapplication/VAADIN/widgetsets/com.vaadin.DefaultWidgetSet/com.vaadin.DefaultWidgetSet.nocache.js?1523505962018 HTTP/1.1" 200 3231
0:0:0:0:0:0:0:1 - - [12/Apr/2018:00:06:02 -0400] "GET /myapplication/VAADIN/themes/mytheme/styles.css?v=8.3.1 HTTP/1.1" 200 380400
0:0:0:0:0:0:0:1 - - [12/Apr/2018:00:06:02 -0400] "GET /myapplication/VAADIN/themes/valo/shared/img/spinner.gif HTTP/1.1" 200 7194
0:0:0:0:0:0:0:1 - - [12/Apr/2018:00:06:02 -0400] "GET /myapplication/VAADIN/widgetsets/com.vaadin.DefaultWidgetSet/99065197202814696C2A1A56BF276C09.cache.js HTTP/1.1" 200 352405
0:0:0:0:0:0:0:1 - - [12/Apr/2018:00:06:03 -0400] "POST /myapplication/servlet/com.example.myapplication.MyUI$MyUIServlet?v-1523505962018 HTTP/1.1" 200 6325
0:0:0:0:0:0:0:1 - - [12/Apr/2018:00:06:03 -0400] "GET /myapplication/VAADIN/widgetsets/com.vaadin.DefaultWidgetSet/deferredjs/99065197202814696C2A1A56BF276C09/8.cache.js HTTP/1.1" 200 1196
0:0:0:0:0:0:0:1 - - [12/Apr/2018:00:06:03 -0400] "POST /myapplication/UIDL/?v-uiId=0 HTTP/1.1" 200 137
0:0:0:0:0:0:0:1 - - [12/Apr/2018:00:06:03 -0400] "GET /myapplication/VAADIN/widgetsets/com.vaadin.DefaultWidgetSet/deferredjs/99065197202814696C2A1A56BF276C09/2.cache.js HTTP/1.1" 200 183
0:0:0:0:0:0:0:1 - - [12/Apr/2018:00:06:33 -0400] "POST /myapplication/UIDL/?v-uiId=0 HTTP/1.1" 200 191
0:0:0:0:0:0:0:1 - - [12/Apr/2018:00:06:33 -0400] "POST /myapplication/UIDL/?v-uiId=0 HTTP/1.1" 200 137
0:0:0:0:0:0:0:1 - - [12/Apr/2018:00:06:34 -0400] "POST /myapplication/UIDL/?v-uiId=0 HTTP/1.1" 200 190
0:0:0:0:0:0:0:1 - - [12/Apr/2018:00:06:37 -0400] "POST /myapplication/UIDL/?v-uiId=0 HTTP/1.1" 200 5337
0:0:0:0:0:0:0:1 - - [12/Apr/2018:00:06:37 -0400] "GET /myapplication/VAADIN/themes/mytheme/imagens/logo-prosaude.png HTTP/1.1" 200 21928
0:0:0:0:0:0:0:1 - - [12/Apr/2018:00:06:38 -0400] "POST /myapplication/UIDL/?v-uiId=0 HTTP/1.1" 200 2123
0:0:0:0:0:0:0:1 - - [12/Apr/2018:00:06:40 -0400] "POST /myapplication/UIDL/?v-uiId=0 HTTP/1.1" 200 10474
0:0:0:0:0:0:0:1 - - [12/Apr/2018:00:06:40 -0400] "GET /myapplication/VAADIN/themes/mytheme/imagens/library/lupa.png HTTP/1.1" 200 871
0:0:0:0:0:0:0:1 - - [12/Apr/2018:00:06:40 -0400] "GET /myapplication/VAADIN/themes/mytheme/imagens/library/cancel.png HTTP/1.1" 200 587
0:0:0:0:0:0:0:1 - - [12/Apr/2018:00:06:40 -0400] "GET /myapplication/VAADIN/themes/mytheme/imagens/library/print.png HTTP/1.1" 200 48290
0:0:0:0:0:0:0:1 - - [12/Apr/2018:00:06:47 -0400] "POST /myapplication/UIDL/?v-uiId=0 HTTP/1.1" 200 427
0:0:0:0:0:0:0:1 - - [12/Apr/2018:00:06:48 -0400] "POST /myapplication/UIDL/?v-uiId=0 HTTP/1.1" 200 137
0:0:0:0:0:0:0:1 - - [12/Apr/2018:00:06:50 -0400] "POST /myapplication/UIDL/?v-uiId=0 HTTP/1.1" 200 193
0:0:0:0:0:0:0:1 - - [12/Apr/2018:00:06:51 -0400] "POST /myapplication/UIDL/?v-uiId=0 HTTP/1.1" 200 234
0:0:0:0:0:0:0:1 - - [12/Apr/2018:00:06:52 -0400] "POST /myapplication/UIDL/?v-uiId=0 HTTP/1.1" 200 234
0:0:0:0:0:0:0:1 - - [12/Apr/2018:00:06:53 -0400] "POST /myapplication/UIDL/?v-uiId=0 HTTP/1.1" 200 6692
0:0:0:0:0:0:0:1 - - [12/Apr/2018:00:06:53 -0400] "GET /myapplication/VAADIN/themes/mytheme/imagens/library/insert.png HTTP/1.1" 200 733
0:0:0:0:0:0:0:1 - - [12/Apr/2018:00:06:53 -0400] "GET /myapplication/VAADIN/themes/mytheme/imagens/library/update.png HTTP/1.1" 200 450
0:0:0:0:0:0:0:1 - - [12/Apr/2018:00:06:53 -0400] "GET /myapplication/VAADIN/themes/mytheme/imagens/library/delete.png HTTP/1.1" 200 715
0:0:0:0:0:0:0:1 - - [12/Apr/2018:00:06:53 -0400] "GET /myapplication/VAADIN/themes/mytheme/imagens/library/find.png HTTP/1.1" 200 659
0:0:0:0:0:0:0:1 - - [12/Apr/2018:00:06:53 -0400] "GET /myapplication/VAADIN/themes/mytheme/imagens/library/download.png HTTP/1.1" 200 338
0:0:0:0:0:0:0:1 - - [12/Apr/2018:00:06:53 -0400] "GET /myapplication/VAADIN/themes/valo/fonts/fontawesome-webfont/fontawesome-webfont.woff HTTP/1.1" 200 83588
0:0:0:0:0:0:0:1 - - [12/Apr/2018:00:06:54 -0400] "POST /myapplication/UIDL/?v-uiId=0 HTTP/1.1" 200 546
0:0:0:0:0:0:0:1 - - [12/Apr/2018:00:06:55 -0400] "POST /myapplication/UIDL/?v-uiId=0 HTTP/1.1" 200 380
0:0:0:0:0:0:0:1 - - [12/Apr/2018:00:06:56 -0400] "POST /myapplication/UIDL/?v-uiId=0 HTTP/1.1" 200 353
0:0:0:0:0:0:0:1 - - [12/Apr/2018:00:07:26 -0400] "POST /myapplication/UIDL/?v-uiId=0 HTTP/1.1" 200 1297
0:0:0:0:0:0:0:1 - - [12/Apr/2018:00:08:27 -0400] "POST /myapplication/UIDL/?v-uiId=0 HTTP/1.1" 200 2125
0:0:0:0:0:0:0:1 - - [12/Apr/2018:00:08:29 -0400] "POST /myapplication/UIDL/?v-uiId=0 HTTP/1.1" 200 9693
0:0:0:0:0:0:0:1 - - [12/Apr/2018:00:08:37 -0400] "POST /myapplication/UIDL/?v-uiId=0 HTTP/1.1" 200 381
0:0:0:0:0:0:0:1 - - [12/Apr/2018:00:11:03 -0400] "POST /myapplication/HEARTBEAT/?v-uiId=0 HTTP/1.1" 200 -
0:0:0:0:0:0:0:1 - - [12/Apr/2018:00:16:04 -0400] "POST /myapplication/HEARTBEAT/?v-uiId=0 HTTP/1.1" 200 -
0:0:0:0:0:0:0:1 - - [12/Apr/2018:00:21:04 -0400] "POST /myapplication/HEARTBEAT/?v-uiId=0 HTTP/1.1" 200 -
0:0:0:0:0:0:0:1 - - [12/Apr/2018:00:22:34 -0400] "POST /myapplication/UIDL/?v-uiId=0 HTTP/1.1" 200 139
0:0:0:0:0:0:0:1 - - [12/Apr/2018:00:22:34 -0400] "POST /myapplication/UIDL/?v-uiId=0 HTTP/1.1" 200 203
0:0:0:0:0:0:0:1 - - [12/Apr/2018:00:24:59 -0400] "POST /myapplication/UIDL/?v-uiId=0 HTTP/1.1" 200 6189
0:0:0:0:0:0:0:1 - - [12/Apr/2018:00:25:04 -0400] "POST /myapplication/UIDL/?v-uiId=0 HTTP/1.1" 200 1297
0:0:0:0:0:0:0:1 - - [12/Apr/2018:00:25:55 -0400] "POST /myapplication/UIDL/?v-uiId=0 HTTP/1.1" 200 8017
0:0:0:0:0:0:0:1 - - [12/Apr/2018:00:25:55 -0400] "GET /myapplication/VAADIN/themes/mytheme/imagens/library/insert.png HTTP/1.1" 200 733
0:0:0:0:0:0:0:1 - - [12/Apr/2018:00:25:55 -0400] "GET /myapplication/VAADIN/themes/mytheme/imagens/library/update.png HTTP/1.1" 200 450
0:0:0:0:0:0:0:1 - - [12/Apr/2018:00:25:55 -0400] "GET /myapplication/VAADIN/themes/mytheme/imagens/library/delete.png HTTP/1.1" 200 715
0:0:0:0:0:0:0:1 - - [12/Apr/2018:00:25:55 -0400] "GET /myapplication/VAADIN/themes/mytheme/imagens/library/find.png HTTP/1.1" 200 659
0:0:0:0:0:0:0:1 - - [12/Apr/2018:00:25:57 -0400] "POST /myapplication/UIDL/?v-uiId=0 HTTP/1.1" 200 696
0:0:0:0:0:0:0:1 - - [12/Apr/2018:00:25:58 -0400] "POST /myapplication/UIDL/?v-uiId=0 HTTP/1.1" 200 6076
0:0:0:0:0:0:0:1 - - [12/Apr/2018:00:25:59 -0400] "POST /myapplication/UIDL/?v-uiId=0 HTTP/1.1" 200 696
0:0:0:0:0:0:0:1 - - [12/Apr/2018:00:26:04 -0400] "POST /myapplication/HEARTBEAT/?v-uiId=0 HTTP/1.1" 200 -
127.0.0.1 - - [12/Apr/2018:09:02:33 -0400] "GET / HTTP/1.1" 404 951
0:0:0:0:0:0:0:1 - - [12/Apr/2018:09:02:34 -0400] "GET /myapplication/servlet/com.example.myapplication.MyUI$MyUIServlet HTTP/1.1" 200 1912
0:0:0:0:0:0:0:1 - - [12/Apr/2018:09:05:37 -0400] "GET /myapplication/servlet/com.example.myapplication.MyUI$MyUIServlet HTTP/1.1" 200 1861
0:0:0:0:0:0:0:1 - - [12/Apr/2018:09:05:37 -0400] "GET /myapplication/VAADIN/vaadinBootstrap.js?v=8.3.1 HTTP/1.1" 200 3837
0:0:0:0:0:0:0:1 - - [12/Apr/2018:09:05:37 -0400] "GET /myapplication/VAADIN/themes/mytheme/styles.css?v=8.3.1 HTTP/1.1" 200 380400
0:0:0:0:0:0:0:1 - - [12/Apr/2018:09:05:37 -0400] "GET /myapplication/VAADIN/widgetsets/com.vaadin.DefaultWidgetSet/com.vaadin.DefaultWidgetSet.nocache.js?1523538337328 HTTP/1.1" 200 3231
0:0:0:0:0:0:0:1 - - [12/Apr/2018:09:05:37 -0400] "GET /myapplication/VAADIN/themes/valo/shared/img/spinner.gif HTTP/1.1" 200 7194
0:0:0:0:0:0:0:1 - - [12/Apr/2018:09:05:37 -0400] "POST /myapplication/servlet/com.example.myapplication.MyUI$MyUIServlet?v-1523538337328 HTTP/1.1" 500 4179
0:0:0:0:0:0:0:1 - - [12/Apr/2018:09:05:37 -0400] "GET /myapplication/VAADIN/widgetsets/com.vaadin.DefaultWidgetSet/99065197202814696C2A1A56BF276C09.cache.js HTTP/1.1" 200 352405
0:0:0:0:0:0:0:1 - - [12/Apr/2018:09:05:37 -0400] "GET /myapplication/VAADIN/themes/valo/fonts/open-sans/OpenSans-Light-webfont.woff HTTP/1.1" 200 22248
0:0:0:0:0:0:0:1 - - [12/Apr/2018:09:05:37 -0400] "GET /myapplication/VAADIN/themes/mytheme/favicon.ico HTTP/1.1" 200 31005
127.0.0.1 - - [12/Apr/2018:09:08:44 -0400] "GET / HTTP/1.1" 404 951
0:0:0:0:0:0:0:1 - - [12/Apr/2018:09:08:45 -0400] "GET /myapplication/servlet/com.example.myapplication.MyUI$MyUIServlet HTTP/1.1" 200 1912
0:0:0:0:0:0:0:1 - - [12/Apr/2018:09:15:11 -0400] "GET /myapplication/servlet/com.example.myapplication.MyUI$MyUIServlet HTTP/1.1" 200 1861
0:0:0:0:0:0:0:1 - - [12/Apr/2018:09:15:11 -0400] "GET /myapplication/VAADIN/widgetsets/com.vaadin.DefaultWidgetSet/com.vaadin.DefaultWidgetSet.nocache.js?1523538911762 HTTP/1.1" 200 3231
0:0:0:0:0:0:0:1 - - [12/Apr/2018:09:15:11 -0400] "GET /myapplication/VAADIN/themes/mytheme/styles.css?v=8.3.1 HTTP/1.1" 200 380400
0:0:0:0:0:0:0:1 - - [12/Apr/2018:09:15:12 -0400] "GET /favicon.ico HTTP/1.1" 404 973
0:0:0:0:0:0:0:1 - - [12/Apr/2018:09:15:14 -0400] "POST /myapplication/servlet/com.example.myapplication.MyUI$MyUIServlet?v-1523538911762 HTTP/1.1" 200 6328
0:0:0:0:0:0:0:1 - - [12/Apr/2018:09:15:14 -0400] "GET /myapplication/VAADIN/widgetsets/com.vaadin.DefaultWidgetSet/deferredjs/99065197202814696C2A1A56BF276C09/8.cache.js HTTP/1.1" 200 1196
0:0:0:0:0:0:0:1 - - [12/Apr/2018:09:15:14 -0400] "GET /myapplication/VAADIN/themes/valo/fonts/open-sans/OpenSans-Regular-webfont.woff HTTP/1.1" 200 22660
0:0:0:0:0:0:0:1 - - [12/Apr/2018:09:15:14 -0400] "POST /myapplication/UIDL/?v-uiId=0 HTTP/1.1" 200 137
0:0:0:0:0:0:0:1 - - [12/Apr/2018:09:15:14 -0400] "GET /myapplication/VAADIN/widgetsets/com.vaadin.DefaultWidgetSet/deferredjs/99065197202814696C2A1A56BF276C09/2.cache.js HTTP/1.1" 200 183
0:0:0:0:0:0:0:1 - - [12/Apr/2018:09:15:32 -0400] "GET /myapplication/servlet/com.example.myapplication.MyUI$MyUIServlet HTTP/1.1" 200 1861
0:0:0:0:0:0:0:1 - - [12/Apr/2018:09:15:32 -0400] "GET /myapplication/VAADIN/widgetsets/com.vaadin.DefaultWidgetSet/com.vaadin.DefaultWidgetSet.nocache.js?1523538932230 HTTP/1.1" 200 3231
127.0.0.1 - - [12/Apr/2018:09:28:31 -0400] "GET / HTTP/1.1" 404 951
0:0:0:0:0:0:0:1 - - [12/Apr/2018:09:28:32 -0400] "GET /myapplication/servlet/com.example.myapplication.MyUI$MyUIServlet HTTP/1.1" 200 1912
0:0:0:0:0:0:0:1 - - [12/Apr/2018:09:29:33 -0400] "GET /myapplication/servlet/com.example.myapplication.MyUI$MyUIServlet HTTP/1.1" 200 1861
0:0:0:0:0:0:0:1 - - [12/Apr/2018:09:29:33 -0400] "GET /myapplication/VAADIN/widgetsets/com.vaadin.DefaultWidgetSet/com.vaadin.DefaultWidgetSet.nocache.js?1523539773884 HTTP/1.1" 200 3231
0:0:0:0:0:0:0:1 - - [12/Apr/2018:09:29:34 -0400] "GET /myapplication/VAADIN/themes/mytheme/favicon.ico HTTP/1.1" 200 31005
127.0.0.1 - - [12/Apr/2018:09:39:46 -0400] "GET / HTTP/1.1" 404 951
0:0:0:0:0:0:0:1 - - [12/Apr/2018:09:39:46 -0400] "GET /myapplication/servlet/com.example.myapplication.MyUI$MyUIServlet HTTP/1.1" 200 1912
0:0:0:0:0:0:0:1 - - [12/Apr/2018:09:39:51 -0400] "GET /myapplication/servlet/com.example.myapplication.MyUI$MyUIServlet HTTP/1.1" 200 1861
0:0:0:0:0:0:0:1 - - [12/Apr/2018:09:39:51 -0400] "GET /myapplication/VAADIN/widgetsets/com.vaadin.DefaultWidgetSet/com.vaadin.DefaultWidgetSet.nocache.js?1523540391666 HTTP/1.1" 200 3231
127.0.0.1 - - [12/Apr/2018:09:41:37 -0400] "GET / HTTP/1.1" 404 951
0:0:0:0:0:0:0:1 - - [12/Apr/2018:09:41:37 -0400] "GET /myapplication/servlet/com.example.myapplication.MyUI$MyUIServlet HTTP/1.1" 200 1912
0:0:0:0:0:0:0:1 - - [12/Apr/2018:09:42:18 -0400] "GET /myapplication/servlet/com.example.myapplication.MyUI$MyUIServlet HTTP/1.1" 200 1861
0:0:0:0:0:0:0:1 - - [12/Apr/2018:09:42:18 -0400] "GET /myapplication/VAADIN/widgetsets/com.vaadin.DefaultWidgetSet/com.vaadin.DefaultWidgetSet.nocache.js?1523540538012 HTTP/1.1" 200 3231
0:0:0:0:0:0:0:1 - - [12/Apr/2018:09:42:19 -0400] "POST /myapplication/servlet/com.example.myapplication.MyUI$MyUIServlet?v-1523540538014 HTTP/1.1" 200 6325
0:0:0:0:0:0:0:1 - - [12/Apr/2018:09:42:19 -0400] "GET /myapplication/VAADIN/themes/valo/fonts/open-sans/OpenSans-Light-webfont.woff HTTP/1.1" 200 22248
0:0:0:0:0:0:0:1 - - [12/Apr/2018:09:42:19 -0400] "GET /myapplication/VAADIN/themes/valo/fonts/open-sans/OpenSans-Regular-webfont.woff HTTP/1.1" 200 22660
0:0:0:0:0:0:0:1 - - [12/Apr/2018:09:42:19 -0400] "POST /myapplication/UIDL/?v-uiId=0 HTTP/1.1" 200 137
0:0:0:0:0:0:0:1 - - [12/Apr/2018:09:42:24 -0400] "POST /myapplication/UIDL/?v-uiId=0 HTTP/1.1" 200 191
0:0:0:0:0:0:0:1 - - [12/Apr/2018:09:42:24 -0400] "POST /myapplication/UIDL/?v-uiId=0 HTTP/1.1" 200 137
0:0:0:0:0:0:0:1 - - [12/Apr/2018:09:42:26 -0400] "POST /myapplication/UIDL/?v-uiId=0 HTTP/1.1" 200 310
0:0:0:0:0:0:0:1 - - [12/Apr/2018:09:42:26 -0400] "GET /myapplication/VAADIN/themes/valo/fonts/open-sans/OpenSans-Semibold-webfont.woff HTTP/1.1" 200 22908
0:0:0:0:0:0:0:1 - - [12/Apr/2018:09:42:26 -0400] "POST /myapplication/UIDL/?v-uiId=0 HTTP/1.1" 200 211
0:0:0:0:0:0:0:1 - - [12/Apr/2018:09:42:28 -0400] "POST /myapplication/UIDL/?v-uiId=0 HTTP/1.1" 200 267
0:0:0:0:0:0:0:1 - - [12/Apr/2018:09:42:30 -0400] "POST /myapplication/UIDL/?v-uiId=0 HTTP/1.1" 200 5339
0:0:0:0:0:0:0:1 - - [12/Apr/2018:09:42:30 -0400] "GET /myapplication/VAADIN/themes/valo/fonts/themeicons-webfont/themeicons-webfont.woff HTTP/1.1" 200 7868
0:0:0:0:0:0:0:1 - - [12/Apr/2018:09:42:30 -0400] "GET /myapplication/VAADIN/themes/mytheme/imagens/logo-prosaude.png HTTP/1.1" 200 21928
0:0:0:0:0:0:0:1 - - [12/Apr/2018:09:42:32 -0400] "POST /myapplication/UIDL/?v-uiId=0 HTTP/1.1" 200 8887
0:0:0:0:0:0:0:1 - - [12/Apr/2018:09:42:32 -0400] "GET /myapplication/VAADIN/themes/mytheme/imagens/library/update.png HTTP/1.1" 200 450
0:0:0:0:0:0:0:1 - - [12/Apr/2018:09:42:32 -0400] "GET /myapplication/VAADIN/themes/valo/fonts/fontawesome-webfont/fontawesome-webfont.woff HTTP/1.1" 200 83588
0:0:0:0:0:0:0:1 - - [12/Apr/2018:09:42:32 -0400] "GET /myapplication/VAADIN/themes/mytheme/imagens/library/insert.png HTTP/1.1" 200 733
0:0:0:0:0:0:0:1 - - [12/Apr/2018:09:42:32 -0400] "GET /myapplication/VAADIN/themes/mytheme/imagens/library/delete.png HTTP/1.1" 200 715
0:0:0:0:0:0:0:1 - - [12/Apr/2018:09:42:32 -0400] "GET /myapplication/VAADIN/themes/mytheme/imagens/library/print.png HTTP/1.1" 200 48290
0:0:0:0:0:0:0:1 - - [12/Apr/2018:09:42:32 -0400] "GET /myapplication/VAADIN/themes/mytheme/imagens/library/find.png HTTP/1.1" 200 659
0:0:0:0:0:0:0:1 - - [12/Apr/2018:09:42:35 -0400] "POST /myapplication/UIDL/?v-uiId=0 HTTP/1.1" 200 10047
0:0:0:0:0:0:0:1 - - [12/Apr/2018:09:42:37 -0400] "POST /myapplication/UIDL/?v-uiId=0 HTTP/1.1" 200 11323
0:0:0:0:0:0:0:1 - - [12/Apr/2018:09:42:37 -0400] "GET /myapplication/VAADIN/themes/mytheme/imagens/library/filter_del.png HTTP/1.1" 200 1207
0:0:0:0:0:0:0:1 - - [12/Apr/2018:09:42:37 -0400] "GET /myapplication/VAADIN/themes/mytheme/imagens/library/cancel.png HTTP/1.1" 200 587
0:0:0:0:0:0:0:1 - - [12/Apr/2018:09:42:37 -0400] "GET /myapplication/VAADIN/themes/mytheme/imagens/library/lupa.png HTTP/1.1" 200 871
0:0:0:0:0:0:0:1 - - [12/Apr/2018:09:42:42 -0400] "POST /myapplication/UIDL/?v-uiId=0 HTTP/1.1" 200 442
0:0:0:0:0:0:0:1 - - [12/Apr/2018:09:42:42 -0400] "POST /myapplication/UIDL/?v-uiId=0 HTTP/1.1" 200 1268
0:0:0:0:0:0:0:1 - - [12/Apr/2018:09:42:43 -0400] "POST /myapplication/UIDL/?v-uiId=0 HTTP/1.1" 200 588
0:0:0:0:0:0:0:1 - - [12/Apr/2018:09:42:44 -0400] "POST /myapplication/UIDL/?v-uiId=0 HTTP/1.1" 200 25854
0:0:0:0:0:0:0:1 - - [12/Apr/2018:09:42:44 -0400] "GET /myapplication/VAADIN/themes/mytheme/imagens/library/disk.png HTTP/1.1" 200 620
0:0:0:0:0:0:0:1 - - [12/Apr/2018:09:42:49 -0400] "POST /myapplication/UIDL/?v-uiId=0 HTTP/1.1" 200 442
0:0:0:0:0:0:0:1 - - [12/Apr/2018:09:42:49 -0400] "POST /myapplication/UIDL/?v-uiId=0 HTTP/1.1" 200 961
0:0:0:0:0:0:0:1 - - [12/Apr/2018:09:43:18 -0400] "GET /myapplication/servlet/com.example.myapplication.MyUI$MyUIServlet HTTP/1.1" 200 1861
0:0:0:0:0:0:0:1 - - [12/Apr/2018:09:43:18 -0400] "GET /myapplication/VAADIN/widgetsets/com.vaadin.DefaultWidgetSet/com.vaadin.DefaultWidgetSet.nocache.js?1523540598726 HTTP/1.1" 200 3231
0:0:0:0:0:0:0:1 - - [12/Apr/2018:09:44:12 -0400] "POST /myapplication/servlet/com.example.myapplication.MyUI$MyUIServlet?v-1523540598726 HTTP/1.1" 200 6480
0:0:0:0:0:0:0:1 - - [12/Apr/2018:09:44:13 -0400] "POST /myapplication/UIDL/?v-uiId=1 HTTP/1.1" 200 137
0:0:0:0:0:0:0:1 - - [12/Apr/2018:09:44:27 -0400] "POST /myapplication/UIDL/?v-uiId=1 HTTP/1.1" 200 198
0:0:0:0:0:0:0:1 - - [12/Apr/2018:09:44:27 -0400] "POST /myapplication/UIDL/?v-uiId=1 HTTP/1.1" 200 137
0:0:0:0:0:0:0:1 - - [12/Apr/2018:09:44:29 -0400] "POST /myapplication/UIDL/?v-uiId=1 HTTP/1.1" 200 318
0:0:0:0:0:0:0:1 - - [12/Apr/2018:09:44:29 -0400] "POST /myapplication/UIDL/?v-uiId=1 HTTP/1.1" 200 221
0:0:0:0:0:0:0:1 - - [12/Apr/2018:09:44:33 -0400] "POST /myapplication/UIDL/?v-uiId=1 HTTP/1.1" 200 197
0:0:0:0:0:0:0:1 - - [12/Apr/2018:09:44:33 -0400] "POST /myapplication/UIDL/?v-uiId=1 HTTP/1.1" 200 221
0:0:0:0:0:0:0:1 - - [12/Apr/2018:09:44:37 -0400] "POST /myapplication/UIDL/?v-uiId=1 HTTP/1.1" 200 197
0:0:0:0:0:0:0:1 - - [12/Apr/2018:09:44:38 -0400] "POST /myapplication/UIDL/?v-uiId=1 HTTP/1.1" 200 221
0:0:0:0:0:0:0:1 - - [12/Apr/2018:09:49:12 -0400] "POST /myapplication/HEARTBEAT/?v-uiId=1 HTTP/1.1" 200 -
0:0:0:0:0:0:0:1 - - [12/Apr/2018:09:54:13 -0400] "POST /myapplication/HEARTBEAT/?v-uiId=1 HTTP/1.1" 200 -
0:0:0:0:0:0:0:1 - - [12/Apr/2018:09:59:14 -0400] "POST /myapplication/HEARTBEAT/?v-uiId=1 HTTP/1.1" 410 1021
0:0:0:0:0:0:0:1 - - [12/Apr/2018:10:05:07 -0400] "GET /myapplication/servlet/com.example.myapplication.MyUI$MyUIServlet HTTP/1.1" 200 1861
0:0:0:0:0:0:0:1 - - [12/Apr/2018:10:05:07 -0400] "GET /myapplication/VAADIN/widgetsets/com.vaadin.DefaultWidgetSet/com.vaadin.DefaultWidgetSet.nocache.js?1523541907542 HTTP/1.1" 200 3231
127.0.0.1 - - [12/Apr/2018:10:12:27 -0400] "GET / HTTP/1.1" 404 951
0:0:0:0:0:0:0:1 - - [12/Apr/2018:10:12:27 -0400] "GET /myapplication/servlet/com.example.myapplication.MyUI$MyUIServlet HTTP/1.1" 200 1912
0:0:0:0:0:0:0:1 - - [12/Apr/2018:10:14:02 -0400] "GET /myapplication/servlet/com.example.myapplication.MyUI$MyUIServlet HTTP/1.1" 200 1861
0:0:0:0:0:0:0:1 - - [12/Apr/2018:10:14:02 -0400] "GET /myapplication/VAADIN/vaadinBootstrap.js?v=8.3.1 HTTP/1.1" 304 -
0:0:0:0:0:0:0:1 - - [12/Apr/2018:10:14:02 -0400] "GET /myapplication/VAADIN/widgetsets/com.vaadin.DefaultWidgetSet/com.vaadin.DefaultWidgetSet.nocache.js?1523542442694 HTTP/1.1" 200 3231
0:0:0:0:0:0:0:1 - - [12/Apr/2018:10:14:02 -0400] "GET /myapplication/VAADIN/themes/valo/shared/img/spinner.gif HTTP/1.1" 200 7194
127.0.0.1 - - [12/Apr/2018:10:15:18 -0400] "GET / HTTP/1.1" 404 951
0:0:0:0:0:0:0:1 - - [12/Apr/2018:10:15:18 -0400] "GET /myapplication/servlet/com.example.myapplication.MyUI$MyUIServlet HTTP/1.1" 200 1912
0:0:0:0:0:0:0:1 - - [12/Apr/2018:10:15:42 -0400] "GET /myapplication/servlet/com.example.myapplication.MyUI$MyUIServlet HTTP/1.1" 200 1861
0:0:0:0:0:0:0:1 - - [12/Apr/2018:10:15:42 -0400] "GET /myapplication/VAADIN/themes/mytheme/styles.css?v=8.3.1 HTTP/1.1" 200 380400
0:0:0:0:0:0:0:1 - - [12/Apr/2018:10:15:42 -0400] "GET /myapplication/VAADIN/widgetsets/com.vaadin.DefaultWidgetSet/com.vaadin.DefaultWidgetSet.nocache.js?1523542542350 HTTP/1.1" 200 3231
127.0.0.1 - - [12/Apr/2018:10:16:38 -0400] "GET / HTTP/1.1" 404 951
0:0:0:0:0:0:0:1 - - [12/Apr/2018:10:16:39 -0400] "GET /myapplication/servlet/com.example.myapplication.MyUI$MyUIServlet HTTP/1.1" 200 1912
0:0:0:0:0:0:0:1 - - [12/Apr/2018:10:16:41 -0400] "GET /myapplication/servlet/com.example.myapplication.MyUI$MyUIServlet HTTP/1.1" 200 1861
0:0:0:0:0:0:0:1 - - [12/Apr/2018:10:16:41 -0400] "GET /myapplication/VAADIN/widgetsets/com.vaadin.DefaultWidgetSet/com.vaadin.DefaultWidgetSet.nocache.js?1523542601936 HTTP/1.1" 200 3231
0:0:0:0:0:0:0:1 - - [12/Apr/2018:10:16:41 -0400] "GET /myapplication/VAADIN/themes/mytheme/styles.css?v=8.3.1 HTTP/1.1" 200 380400
0:0:0:0:0:0:0:1 - - [12/Apr/2018:10:17:09 -0400] "POST /myapplication/servlet/com.example.myapplication.MyUI$MyUIServlet?v-1523542601936 HTTP/1.1" 500 3295
0:0:0:0:0:0:0:1 - - [12/Apr/2018:10:17:11 -0400] "GET /myapplication/servlet/com.example.myapplication.MyUI$MyUIServlet HTTP/1.1" 200 1861
0:0:0:0:0:0:0:1 - - [12/Apr/2018:10:17:12 -0400] "GET /myapplication/VAADIN/widgetsets/com.vaadin.DefaultWidgetSet/com.vaadin.DefaultWidgetSet.nocache.js?1523542631998 HTTP/1.1" 200 3231
0:0:0:0:0:0:0:1 - - [12/Apr/2018:10:17:45 -0400] "POST /myapplication/servlet/com.example.myapplication.MyUI$MyUIServlet?v-1523542632000 HTTP/1.1" 500 3292
0:0:0:0:0:0:0:1 - - [12/Apr/2018:10:17:48 -0400] "GET /myapplication/servlet/com.example.myapplication.MyUI$MyUIServlet HTTP/1.1" 200 1861
0:0:0:0:0:0:0:1 - - [12/Apr/2018:10:17:48 -0400] "GET /myapplication/VAADIN/widgetsets/com.vaadin.DefaultWidgetSet/com.vaadin.DefaultWidgetSet.nocache.js?1523542668332 HTTP/1.1" 200 3231
0:0:0:0:0:0:0:1 - - [12/Apr/2018:10:18:10 -0400] "POST /myapplication/servlet/com.example.myapplication.MyUI$MyUIServlet?v-1523542668332 HTTP/1.1" 500 2025
0:0:0:0:0:0:0:1 - - [12/Apr/2018:10:18:52 -0400] "GET /myapplication/servlet/com.example.myapplication.MyUI$MyUIServlet HTTP/1.1" 200 1861
0:0:0:0:0:0:0:1 - - [12/Apr/2018:10:18:52 -0400] "GET /myapplication/VAADIN/widgetsets/com.vaadin.DefaultWidgetSet/com.vaadin.DefaultWidgetSet.nocache.js?1523542732404 HTTP/1.1" 200 3231
0:0:0:0:0:0:0:1 - - [12/Apr/2018:10:19:34 -0400] "GET /myapplication/VAADIN/themes/valo/fonts/open-sans/OpenSans-Light-webfont.woff HTTP/1.1" 200 22248
0:0:0:0:0:0:0:1 - - [12/Apr/2018:10:19:53 -0400] "GET /myapplication/servlet/com.example.myapplication.MyUI$MyUIServlet HTTP/1.1" 200 1861
0:0:0:0:0:0:0:1 - - [12/Apr/2018:10:19:53 -0400] "POST /myapplication/servlet/com.example.myapplication.MyUI$MyUIServlet?v-1523542732404 HTTP/1.1" 500 6832
0:0:0:0:0:0:0:1 - - [12/Apr/2018:10:19:53 -0400] "GET /myapplication/VAADIN/widgetsets/com.vaadin.DefaultWidgetSet/com.vaadin.DefaultWidgetSet.nocache.js?1523542793670 HTTP/1.1" 200 3231
0:0:0:0:0:0:0:1 - - [12/Apr/2018:10:19:53 -0400] "GET /myapplication/VAADIN/themes/mytheme/styles.css?v=8.3.1 HTTP/1.1" 200 380400
127.0.0.1 - - [12/Apr/2018:10:21:26 -0400] "GET / HTTP/1.1" 404 951
0:0:0:0:0:0:0:1 - - [12/Apr/2018:10:21:26 -0400] "GET /myapplication/servlet/com.example.myapplication.MyUI$MyUIServlet HTTP/1.1" 200 1912
0:0:0:0:0:0:0:1 - - [12/Apr/2018:10:21:30 -0400] "GET /myapplication/servlet/com.example.myapplication.MyUI$MyUIServlet HTTP/1.1" 200 1861
0:0:0:0:0:0:0:1 - - [12/Apr/2018:10:21:30 -0400] "GET /myapplication/VAADIN/widgetsets/com.vaadin.DefaultWidgetSet/com.vaadin.DefaultWidgetSet.nocache.js?1523542890758 HTTP/1.1" 200 3231
0:0:0:0:0:0:0:1 - - [12/Apr/2018:10:22:12 -0400] "POST /myapplication/servlet/com.example.myapplication.MyUI$MyUIServlet?v-1523542890758 HTTP/1.1" 500 6832
0:0:0:0:0:0:0:1 - - [12/Apr/2018:10:22:18 -0400] "GET /myapplication/servlet/com.example.myapplication.MyUI$MyUIServlet HTTP/1.1" 200 1861
0:0:0:0:0:0:0:1 - - [12/Apr/2018:10:22:18 -0400] "GET /myapplication/VAADIN/widgetsets/com.vaadin.DefaultWidgetSet/com.vaadin.DefaultWidgetSet.nocache.js?1523542938566 HTTP/1.1" 200 3231
127.0.0.1 - - [12/Apr/2018:10:26:47 -0400] "GET / HTTP/1.1" 404 951
0:0:0:0:0:0:0:1 - - [12/Apr/2018:10:26:48 -0400] "GET /myapplication/servlet/com.example.myapplication.MyUI$MyUIServlet HTTP/1.1" 200 1912
0:0:0:0:0:0:0:1 - - [12/Apr/2018:10:26:54 -0400] "GET /myapplication/servlet/com.example.myapplication.MyUI$MyUIServlet HTTP/1.1" 200 1861
0:0:0:0:0:0:0:1 - - [12/Apr/2018:10:26:54 -0400] "GET /myapplication/VAADIN/widgetsets/com.vaadin.DefaultWidgetSet/com.vaadin.DefaultWidgetSet.nocache.js?1523543214112 HTTP/1.1" 200 3231
0:0:0:0:0:0:0:1 - - [12/Apr/2018:10:27:15 -0400] "POST /myapplication/servlet/com.example.myapplication.MyUI$MyUIServlet?v-1523543214114 HTTP/1.1" 500 6832
0:0:0:0:0:0:0:1 - - [12/Apr/2018:10:27:21 -0400] "GET /myapplication/servlet/com.example.myapplication.MyUI$MyUIServlet HTTP/1.1" 200 1861
0:0:0:0:0:0:0:1 - - [12/Apr/2018:10:27:21 -0400] "GET /myapplication/VAADIN/widgetsets/com.vaadin.DefaultWidgetSet/com.vaadin.DefaultWidgetSet.nocache.js?1523543241072 HTTP/1.1" 200 3231
0:0:0:0:0:0:0:1 - - [12/Apr/2018:10:32:26 -0400] "POST /myapplication/servlet/com.example.myapplication.MyUI$MyUIServlet?v-1523543241072 HTTP/1.1" 500 6819
0:0:0:0:0:0:0:1 - - [12/Apr/2018:10:32:31 -0400] "GET /myapplication/servlet/com.example.myapplication.MyUI$MyUIServlet HTTP/1.1" 200 1861
0:0:0:0:0:0:0:1 - - [12/Apr/2018:10:32:31 -0400] "GET /myapplication/VAADIN/widgetsets/com.vaadin.DefaultWidgetSet/com.vaadin.DefaultWidgetSet.nocache.js?1523543551236 HTTP/1.1" 200 3231
0:0:0:0:0:0:0:1 - - [12/Apr/2018:10:33:39 -0400] "POST /myapplication/servlet/com.example.myapplication.MyUI$MyUIServlet?v-1523543551236 HTTP/1.1" 500 7885
0:0:0:0:0:0:0:1 - - [12/Apr/2018:10:33:46 -0400] "GET /myapplication/servlet/com.example.myapplication.MyUI$MyUIServlet HTTP/1.1" 200 1861
0:0:0:0:0:0:0:1 - - [12/Apr/2018:10:33:46 -0400] "GET /myapplication/VAADIN/widgetsets/com.vaadin.DefaultWidgetSet/com.vaadin.DefaultWidgetSet.nocache.js?1523543626756 HTTP/1.1" 200 3231
127.0.0.1 - - [12/Apr/2018:10:35:09 -0400] "GET / HTTP/1.1" 404 951
0:0:0:0:0:0:0:1 - - [12/Apr/2018:10:35:10 -0400] "GET /myapplication/servlet/com.example.myapplication.MyUI$MyUIServlet HTTP/1.1" 200 1912
0:0:0:0:0:0:0:1 - - [12/Apr/2018:10:36:12 -0400] "GET /myapplication/servlet/com.example.myapplication.MyUI$MyUIServlet HTTP/1.1" 200 1861
0:0:0:0:0:0:0:1 - - [12/Apr/2018:10:36:12 -0400] "GET /myapplication/VAADIN/widgetsets/com.vaadin.DefaultWidgetSet/com.vaadin.DefaultWidgetSet.nocache.js?1523543772036 HTTP/1.1" 200 3231
0:0:0:0:0:0:0:1 - - [12/Apr/2018:10:36:18 -0400] "POST /myapplication/servlet/com.example.myapplication.MyUI$MyUIServlet?v-1523543772036 HTTP/1.1" 200 6312
0:0:0:0:0:0:0:1 - - [12/Apr/2018:10:36:18 -0400] "GET /myapplication/VAADIN/themes/valo/fonts/open-sans/OpenSans-Regular-webfont.woff HTTP/1.1" 200 22660
0:0:0:0:0:0:0:1 - - [12/Apr/2018:10:36:18 -0400] "GET /myapplication/VAADIN/widgetsets/com.vaadin.DefaultWidgetSet/deferredjs/99065197202814696C2A1A56BF276C09/8.cache.js HTTP/1.1" 200 1196
0:0:0:0:0:0:0:1 - - [12/Apr/2018:10:36:18 -0400] "POST /myapplication/UIDL/?v-uiId=0 HTTP/1.1" 200 137
0:0:0:0:0:0:0:1 - - [12/Apr/2018:10:36:18 -0400] "GET /myapplication/VAADIN/widgetsets/com.vaadin.DefaultWidgetSet/deferredjs/99065197202814696C2A1A56BF276C09/2.cache.js HTTP/1.1" 200 183
0:0:0:0:0:0:0:1 - - [12/Apr/2018:10:36:28 -0400] "POST /myapplication/UIDL/?v-uiId=0 HTTP/1.1" 200 191
0:0:0:0:0:0:0:1 - - [12/Apr/2018:10:36:28 -0400] "POST /myapplication/UIDL/?v-uiId=0 HTTP/1.1" 200 137
0:0:0:0:0:0:0:1 - - [12/Apr/2018:10:36:30 -0400] "POST /myapplication/UIDL/?v-uiId=0 HTTP/1.1" 200 190
0:0:0:0:0:0:0:1 - - [12/Apr/2018:10:36:31 -0400] "POST /myapplication/UIDL/?v-uiId=0 HTTP/1.1" 200 5339
0:0:0:0:0:0:0:1 - - [12/Apr/2018:10:36:31 -0400] "GET /myapplication/VAADIN/themes/valo/fonts/themeicons-webfont/themeicons-webfont.woff HTTP/1.1" 200 7868
0:0:0:0:0:0:0:1 - - [12/Apr/2018:10:36:31 -0400] "GET /myapplication/VAADIN/themes/mytheme/imagens/logo-prosaude.png HTTP/1.1" 200 21928
0:0:0:0:0:0:0:1 - - [12/Apr/2018:10:36:31 -0400] "GET /myapplication/VAADIN/themes/valo/fonts/open-sans/OpenSans-Semibold-webfont.woff HTTP/1.1" 200 22908
0:0:0:0:0:0:0:1 - - [12/Apr/2018:10:36:35 -0400] "POST /myapplication/UIDL/?v-uiId=0 HTTP/1.1" 200 8874
0:0:0:0:0:0:0:1 - - [12/Apr/2018:10:36:35 -0400] "GET /myapplication/VAADIN/themes/mytheme/imagens/library/insert.png HTTP/1.1" 200 733
0:0:0:0:0:0:0:1 - - [12/Apr/2018:10:36:35 -0400] "GET /myapplication/VAADIN/themes/mytheme/imagens/library/update.png HTTP/1.1" 200 450
0:0:0:0:0:0:0:1 - - [12/Apr/2018:10:36:35 -0400] "GET /myapplication/VAADIN/themes/mytheme/imagens/library/delete.png HTTP/1.1" 200 715
0:0:0:0:0:0:0:1 - - [12/Apr/2018:10:36:35 -0400] "GET /myapplication/VAADIN/themes/mytheme/imagens/library/find.png HTTP/1.1" 200 659
0:0:0:0:0:0:0:1 - - [12/Apr/2018:10:36:35 -0400] "GET /myapplication/VAADIN/themes/mytheme/imagens/library/print.png HTTP/1.1" 200 48290
0:0:0:0:0:0:0:1 - - [12/Apr/2018:10:36:35 -0400] "GET /myapplication/VAADIN/themes/valo/fonts/fontawesome-webfont/fontawesome-webfont.woff HTTP/1.1" 200 83588
0:0:0:0:0:0:0:1 - - [12/Apr/2018:10:36:38 -0400] "POST /myapplication/UIDL/?v-uiId=0 HTTP/1.1" 200 2945
0:0:0:0:0:0:0:1 - - [12/Apr/2018:10:36:39 -0400] "POST /myapplication/UIDL/?v-uiId=0 HTTP/1.1" 200 2780
0:0:0:0:0:0:0:1 - - [12/Apr/2018:10:36:41 -0400] "POST /myapplication/UIDL/?v-uiId=0 HTTP/1.1" 200 2798
0:0:0:0:0:0:0:1 - - [12/Apr/2018:10:36:42 -0400] "POST /myapplication/UIDL/?v-uiId=0 HTTP/1.1" 200 2870
0:0:0:0:0:0:0:1 - - [12/Apr/2018:10:36:43 -0400] "POST /myapplication/UIDL/?v-uiId=0 HTTP/1.1" 200 2808
0:0:0:0:0:0:0:1 - - [12/Apr/2018:10:36:45 -0400] "POST /myapplication/UIDL/?v-uiId=0 HTTP/1.1" 200 6320
0:0:0:0:0:0:0:1 - - [12/Apr/2018:10:36:46 -0400] "POST /myapplication/UIDL/?v-uiId=0 HTTP/1.1" 200 342
0:0:0:0:0:0:0:1 - - [12/Apr/2018:10:36:47 -0400] "POST /myapplication/UIDL/?v-uiId=0 HTTP/1.1" 200 4985
0:0:0:0:0:0:0:1 - - [12/Apr/2018:10:36:47 -0400] "POST /myapplication/UIDL/?v-uiId=0 HTTP/1.1" 200 2494
0:0:0:0:0:0:0:1 - - [12/Apr/2018:10:36:48 -0400] "POST /myapplication/UIDL/?v-uiId=0 HTTP/1.1" 200 471
0:0:0:0:0:0:0:1 - - [12/Apr/2018:10:36:49 -0400] "POST /myapplication/UIDL/?v-uiId=0 HTTP/1.1" 200 3014
0:0:0:0:0:0:0:1 - - [12/Apr/2018:10:36:50 -0400] "POST /myapplication/UIDL/?v-uiId=0 HTTP/1.1" 200 451
0:0:0:0:0:0:0:1 - - [12/Apr/2018:10:36:51 -0400] "POST /myapplication/UIDL/?v-uiId=0 HTTP/1.1" 200 8410
0:0:0:0:0:0:0:1 - - [12/Apr/2018:10:36:51 -0400] "GET /myapplication/VAADIN/themes/mytheme/imagens/library/cancel.png HTTP/1.1" 200 587
0:0:0:0:0:0:0:1 - - [12/Apr/2018:10:36:51 -0400] "GET /myapplication/VAADIN/themes/mytheme/imagens/library/disk.png HTTP/1.1" 200 620
0:0:0:0:0:0:0:1 - - [12/Apr/2018:10:36:53 -0400] "POST /myapplication/UIDL/?v-uiId=0 HTTP/1.1" 200 2797
0:0:0:0:0:0:0:1 - - [12/Apr/2018:10:36:55 -0400] "POST /myapplication/UIDL/?v-uiId=0 HTTP/1.1" 200 4449
0:0:0:0:0:0:0:1 - - [12/Apr/2018:10:36:55 -0400] "POST /myapplication/UIDL/?v-uiId=0 HTTP/1.1" 200 1317
0:0:0:0:0:0:0:1 - - [12/Apr/2018:10:36:56 -0400] "POST /myapplication/UIDL/?v-uiId=0 HTTP/1.1" 200 14844
0:0:0:0:0:0:0:1 - - [12/Apr/2018:10:37:01 -0400] "POST /myapplication/UIDL/?v-uiId=0 HTTP/1.1" 200 670
0:0:0:0:0:0:0:1 - - [12/Apr/2018:10:37:04 -0400] "POST /myapplication/UIDL/?v-uiId=0 HTTP/1.1" 200 203
0:0:0:0:0:0:0:1 - - [12/Apr/2018:10:37:06 -0400] "POST /myapplication/UIDL/?v-uiId=0 HTTP/1.1" 200 14844
0:0:0:0:0:0:0:1 - - [12/Apr/2018:10:37:10 -0400] "POST /myapplication/UIDL/?v-uiId=0 HTTP/1.1" 200 203
0:0:0:0:0:0:0:1 - - [12/Apr/2018:10:37:11 -0400] "POST /myapplication/UIDL/?v-uiId=0 HTTP/1.1" 200 445
0:0:0:0:0:0:0:1 - - [12/Apr/2018:10:37:12 -0400] "POST /myapplication/UIDL/?v-uiId=0 HTTP/1.1" 200 453
0:0:0:0:0:0:0:1 - - [12/Apr/2018:10:37:13 -0400] "POST /myapplication/UIDL/?v-uiId=0 HTTP/1.1" 200 457
0:0:0:0:0:0:0:1 - - [12/Apr/2018:10:37:14 -0400] "POST /myapplication/UIDL/?v-uiId=0 HTTP/1.1" 200 14850
0:0:0:0:0:0:0:1 - - [12/Apr/2018:10:37:17 -0400] "POST /myapplication/UIDL/?v-uiId=0 HTTP/1.1" 200 203
0:0:0:0:0:0:0:1 - - [12/Apr/2018:10:37:18 -0400] "POST /myapplication/UIDL/?v-uiId=0 HTTP/1.1" 200 1736
0:0:0:0:0:0:0:1 - - [12/Apr/2018:10:37:19 -0400] "POST /myapplication/UIDL/?v-uiId=0 HTTP/1.1" 200 1591
0:0:0:0:0:0:0:1 - - [12/Apr/2018:10:37:21 -0400] "POST /myapplication/UIDL/?v-uiId=0 HTTP/1.1" 200 356
0:0:0:0:0:0:0:1 - - [12/Apr/2018:10:37:22 -0400] "POST /myapplication/UIDL/?v-uiId=0 HTTP/1.1" 200 15413
0:0:0:0:0:0:0:1 - - [12/Apr/2018:10:37:23 -0400] "POST /myapplication/UIDL/?v-uiId=0 HTTP/1.1" 200 203
0:0:0:0:0:0:0:1 - - [12/Apr/2018:10:37:25 -0400] "POST /myapplication/UIDL/?v-uiId=0 HTTP/1.1" 200 5724
0:0:0:0:0:0:0:1 - - [12/Apr/2018:10:37:27 -0400] "POST /myapplication/UIDL/?v-uiId=0 HTTP/1.1" 200 291
0:0:0:0:0:0:0:1 - - [12/Apr/2018:10:37:27 -0400] "POST /myapplication/UIDL/?v-uiId=0 HTTP/1.1" 200 15970
0:0:0:0:0:0:0:1 - - [12/Apr/2018:10:37:27 -0400] "GET /myapplication/VAADIN/themes/mytheme/imagens/library/lupa.png HTTP/1.1" 200 871
0:0:0:0:0:0:0:1 - - [12/Apr/2018:10:37:33 -0400] "POST /myapplication/UIDL/?v-uiId=0 HTTP/1.1" 200 203
0:0:0:0:0:0:0:1 - - [12/Apr/2018:10:37:35 -0400] "POST /myapplication/UIDL/?v-uiId=0 HTTP/1.1" 200 7114
0:0:0:0:0:0:0:1 - - [12/Apr/2018:10:37:37 -0400] "POST /myapplication/UIDL/?v-uiId=0 HTTP/1.1" 200 6300
0:0:0:0:0:0:0:1 - - [12/Apr/2018:10:37:38 -0400] "POST /myapplication/UIDL/?v-uiId=0 HTTP/1.1" 200 10381
0:0:0:0:0:0:0:1 - - [12/Apr/2018:10:37:40 -0400] "POST /myapplication/UIDL/?v-uiId=0 HTTP/1.1" 200 10624
0:0:0:0:0:0:0:1 - - [12/Apr/2018:10:37:40 -0400] "GET /myapplication/VAADIN/themes/mytheme/imagens/library/filter_del.png HTTP/1.1" 200 1207
0:0:0:0:0:0:0:1 - - [12/Apr/2018:10:37:43 -0400] "POST /myapplication/UIDL/?v-uiId=0 HTTP/1.1" 200 445
0:0:0:0:0:0:0:1 - - [12/Apr/2018:10:42:55 -0400] "POST /myapplication/UIDL/?v-uiId=0 HTTP/1.1" 200 1268
0:0:0:0:0:0:0:1 - - [12/Apr/2018:10:42:55 -0400] "POST /myapplication/HEARTBEAT/?v-uiId=0 HTTP/1.1" 200 -
0:0:0:0:0:0:0:1 - - [12/Apr/2018:10:43:03 -0400] "POST /myapplication/UIDL/?v-uiId=0 HTTP/1.1" 200 5502
0:0:0:0:0:0:0:1 - - [12/Apr/2018:10:43:03 -0400] "POST /myapplication/UIDL/?v-uiId=0 HTTP/1.1" 200 863
0:0:0:0:0:0:0:1 - - [12/Apr/2018:10:43:04 -0400] "POST /myapplication/UIDL/?v-uiId=0 HTTP/1.1" 200 5632
0:0:0:0:0:0:0:1 - - [12/Apr/2018:10:43:04 -0400] "POST /myapplication/UIDL/?v-uiId=0 HTTP/1.1" 200 1547
0:0:0:0:0:0:0:1 - - [12/Apr/2018:10:43:05 -0400] "POST /myapplication/UIDL/?v-uiId=0 HTTP/1.1" 200 5055
0:0:0:0:0:0:0:1 - - [12/Apr/2018:10:43:05 -0400] "POST /myapplication/UIDL/?v-uiId=0 HTTP/1.1" 200 743
0:0:0:0:0:0:0:1 - - [12/Apr/2018:10:43:05 -0400] "POST /myapplication/UIDL/?v-uiId=0 HTTP/1.1" 200 4997
0:0:0:0:0:0:0:1 - - [12/Apr/2018:10:43:05 -0400] "POST /myapplication/UIDL/?v-uiId=0 HTTP/1.1" 200 1354
0:0:0:0:0:0:0:1 - - [12/Apr/2018:10:43:06 -0400] "POST /myapplication/UIDL/?v-uiId=0 HTTP/1.1" 200 5462
0:0:0:0:0:0:0:1 - - [12/Apr/2018:10:43:06 -0400] "POST /myapplication/UIDL/?v-uiId=0 HTTP/1.1" 200 2516
0:0:0:0:0:0:0:1 - - [12/Apr/2018:10:43:07 -0400] "POST /myapplication/UIDL/?v-uiId=0 HTTP/1.1" 200 696
0:0:0:0:0:0:0:1 - - [12/Apr/2018:10:43:08 -0400] "POST /myapplication/UIDL/?v-uiId=0 HTTP/1.1" 200 9506
0:0:0:0:0:0:0:1 - - [12/Apr/2018:10:43:10 -0400] "POST /myapplication/UIDL/?v-uiId=0 HTTP/1.1" 200 10916
0:0:0:0:0:0:0:1 - - [12/Apr/2018:10:43:15 -0400] "POST /myapplication/UIDL/?v-uiId=0 HTTP/1.1" 200 458
0:0:0:0:0:0:0:1 - - [12/Apr/2018:10:43:19 -0400] "POST /myapplication/UIDL/?v-uiId=0 HTTP/1.1" 200 1322
0:0:0:0:0:0:0:1 - - [12/Apr/2018:10:43:20 -0400] "POST /myapplication/UIDL/?v-uiId=0 HTTP/1.1" 200 604
0:0:0:0:0:0:0:1 - - [12/Apr/2018:10:43:21 -0400] "POST /myapplication/UIDL/?v-uiId=0 HTTP/1.1" 200 26355
0:0:0:0:0:0:0:1 - - [12/Apr/2018:10:43:27 -0400] "POST /myapplication/UIDL/?v-uiId=0 HTTP/1.1" 200 203
0:0:0:0:0:0:0:1 - - [12/Apr/2018:10:47:07 -0400] "GET /myapplication/servlet/com.example.myapplication.MyUI$MyUIServlet HTTP/1.1" 200 1861
0:0:0:0:0:0:0:1 - - [12/Apr/2018:10:47:07 -0400] "GET /myapplication/VAADIN/widgetsets/com.vaadin.DefaultWidgetSet/com.vaadin.DefaultWidgetSet.nocache.js?1523544427566 HTTP/1.1" 200 3231
0:0:0:0:0:0:0:1 - - [12/Apr/2018:10:47:15 -0400] "POST /myapplication/servlet/com.example.myapplication.MyUI$MyUIServlet?v-1523544427566 HTTP/1.1" 200 6311
0:0:0:0:0:0:0:1 - - [12/Apr/2018:10:47:15 -0400] "POST /myapplication/UIDL/?v-uiId=0 HTTP/1.1" 200 137
0:0:0:0:0:0:0:1 - - [12/Apr/2018:10:47:22 -0400] "POST /myapplication/UIDL/?v-uiId=0 HTTP/1.1" 200 190
0:0:0:0:0:0:0:1 - - [12/Apr/2018:10:47:22 -0400] "POST /myapplication/UIDL/?v-uiId=0 HTTP/1.1" 200 137
0:0:0:0:0:0:0:1 - - [12/Apr/2018:10:47:26 -0400] "POST /myapplication/UIDL/?v-uiId=0 HTTP/1.1" 200 190
0:0:0:0:0:0:0:1 - - [12/Apr/2018:10:47:27 -0400] "POST /myapplication/UIDL/?v-uiId=0 HTTP/1.1" 200 5337
0:0:0:0:0:0:0:1 - - [12/Apr/2018:10:48:18 -0400] "GET /myapplication/servlet/com.example.myapplication.MyUI$MyUIServlet HTTP/1.1" 200 1861
0:0:0:0:0:0:0:1 - - [12/Apr/2018:10:48:18 -0400] "GET /myapplication/VAADIN/widgetsets/com.vaadin.DefaultWidgetSet/com.vaadin.DefaultWidgetSet.nocache.js?1523544498300 HTTP/1.1" 200 3231
127.0.0.1 - - [12/Apr/2018:10:49:45 -0400] "GET / HTTP/1.1" 404 951
0:0:0:0:0:0:0:1 - - [12/Apr/2018:10:49:46 -0400] "GET /myapplication/servlet/com.example.myapplication.MyUI$MyUIServlet HTTP/1.1" 200 1912
0:0:0:0:0:0:0:1 - - [12/Apr/2018:10:50:06 -0400] "GET /myapplication/servlet/com.example.myapplication.MyUI$MyUIServlet HTTP/1.1" 200 1861
0:0:0:0:0:0:0:1 - - [12/Apr/2018:10:50:06 -0400] "GET /myapplication/VAADIN/widgetsets/com.vaadin.DefaultWidgetSet/com.vaadin.DefaultWidgetSet.nocache.js?1523544606554 HTTP/1.1" 200 3231
127.0.0.1 - - [12/Apr/2018:10:56:22 -0400] "GET / HTTP/1.1" 404 951
0:0:0:0:0:0:0:1 - - [12/Apr/2018:10:56:23 -0400] "GET /myapplication/servlet/com.example.myapplication.MyUI$MyUIServlet HTTP/1.1" 200 1912
0:0:0:0:0:0:0:1 - - [12/Apr/2018:10:56:36 -0400] "GET /myapplication/servlet/com.example.myapplication.MyUI$MyUIServlet HTTP/1.1" 200 1861
0:0:0:0:0:0:0:1 - - [12/Apr/2018:10:56:36 -0400] "GET /myapplication/VAADIN/widgetsets/com.vaadin.DefaultWidgetSet/com.vaadin.DefaultWidgetSet.nocache.js?1523544996314 HTTP/1.1" 200 3231
0:0:0:0:0:0:0:1 - - [12/Apr/2018:10:56:36 -0400] "GET /myapplication/VAADIN/themes/mytheme/favicon.ico HTTP/1.1" 200 31005
0:0:0:0:0:0:0:1 - - [12/Apr/2018:10:56:56 -0400] "POST /myapplication/servlet/com.example.myapplication.MyUI$MyUIServlet?v-1523544996316 HTTP/1.1" 200 6310
0:0:0:0:0:0:0:1 - - [12/Apr/2018:10:56:56 -0400] "GET /myapplication/VAADIN/themes/valo/fonts/open-sans/OpenSans-Regular-webfont.woff HTTP/1.1" 200 22660
0:0:0:0:0:0:0:1 - - [12/Apr/2018:10:56:56 -0400] "POST /myapplication/UIDL/?v-uiId=0 HTTP/1.1" 200 137
0:0:0:0:0:0:0:1 - - [12/Apr/2018:10:57:24 -0400] "POST /myapplication/UIDL/?v-uiId=0 HTTP/1.1" 200 190
0:0:0:0:0:0:0:1 - - [12/Apr/2018:10:57:24 -0400] "POST /myapplication/UIDL/?v-uiId=0 HTTP/1.1" 200 137
0:0:0:0:0:0:0:1 - - [12/Apr/2018:10:57:27 -0400] "POST /myapplication/UIDL/?v-uiId=0 HTTP/1.1" 200 191
0:0:0:0:0:0:0:1 - - [12/Apr/2018:10:57:27 -0400] "POST /myapplication/UIDL/?v-uiId=0 HTTP/1.1" 200 5337
0:0:0:0:0:0:0:1 - - [12/Apr/2018:10:57:27 -0400] "GET /myapplication/VAADIN/themes/valo/fonts/themeicons-webfont/themeicons-webfont.woff HTTP/1.1" 200 7868
0:0:0:0:0:0:0:1 - - [12/Apr/2018:10:57:27 -0400] "GET /myapplication/VAADIN/themes/mytheme/imagens/logo-prosaude.png HTTP/1.1" 200 21928
0:0:0:0:0:0:0:1 - - [12/Apr/2018:10:57:27 -0400] "GET /myapplication/VAADIN/themes/valo/fonts/open-sans/OpenSans-Semibold-webfont.woff HTTP/1.1" 200 22908
0:0:0:0:0:0:0:1 - - [12/Apr/2018:10:57:29 -0400] "POST /myapplication/UIDL/?v-uiId=0 HTTP/1.1" 200 10069
0:0:0:0:0:0:0:1 - - [12/Apr/2018:10:57:29 -0400] "GET /myapplication/VAADIN/themes/mytheme/imagens/library/insert.png HTTP/1.1" 200 733
0:0:0:0:0:0:0:1 - - [12/Apr/2018:10:57:29 -0400] "GET /myapplication/VAADIN/themes/mytheme/imagens/library/update.png HTTP/1.1" 200 450
0:0:0:0:0:0:0:1 - - [12/Apr/2018:10:57:29 -0400] "GET /myapplication/VAADIN/themes/mytheme/imagens/library/find.png HTTP/1.1" 200 659
0:0:0:0:0:0:0:1 - - [12/Apr/2018:10:57:29 -0400] "GET /myapplication/VAADIN/themes/mytheme/imagens/library/print.png HTTP/1.1" 200 48290
0:0:0:0:0:0:0:1 - - [12/Apr/2018:10:57:29 -0400] "GET /myapplication/VAADIN/themes/valo/fonts/fontawesome-webfont/fontawesome-webfont.woff HTTP/1.1" 200 83588
0:0:0:0:0:0:0:1 - - [12/Apr/2018:10:57:30 -0400] "POST /myapplication/UIDL/?v-uiId=0 HTTP/1.1" 200 11311
0:0:0:0:0:0:0:1 - - [12/Apr/2018:10:57:30 -0400] "GET /myapplication/VAADIN/themes/mytheme/imagens/library/lupa.png HTTP/1.1" 200 871
0:0:0:0:0:0:0:1 - - [12/Apr/2018:10:57:31 -0400] "GET /myapplication/VAADIN/themes/mytheme/imagens/library/cancel.png HTTP/1.1" 200 587
0:0:0:0:0:0:0:1 - - [12/Apr/2018:10:57:31 -0400] "GET /myapplication/VAADIN/themes/mytheme/imagens/library/filter_del.png HTTP/1.1" 200 1207
0:0:0:0:0:0:0:1 - - [12/Apr/2018:10:57:33 -0400] "POST /myapplication/UIDL/?v-uiId=0 HTTP/1.1" 200 439
0:0:0:0:0:0:0:1 - - [12/Apr/2018:10:57:37 -0400] "POST /myapplication/UIDL/?v-uiId=0 HTTP/1.1" 200 1250
0:0:0:0:0:0:0:1 - - [12/Apr/2018:10:57:39 -0400] "POST /myapplication/UIDL/?v-uiId=0 HTTP/1.1" 200 581
0:0:0:0:0:0:0:1 - - [12/Apr/2018:10:57:39 -0400] "POST /myapplication/UIDL/?v-uiId=0 HTTP/1.1" 200 25847
0:0:0:0:0:0:0:1 - - [12/Apr/2018:10:57:48 -0400] "POST /myapplication/UIDL/?v-uiId=0 HTTP/1.1" 200 441
0:0:0:0:0:0:0:1 - - [12/Apr/2018:10:57:48 -0400] "POST /myapplication/UIDL/?v-uiId=0 HTTP/1.1" 200 1890
0:0:0:0:0:0:0:1 - - [12/Apr/2018:10:58:04 -0400] "POST /myapplication/UIDL/?v-uiId=0 HTTP/1.1" 200 313
0:0:0:0:0:0:0:1 - - [12/Apr/2018:10:58:06 -0400] "POST /myapplication/UIDL/?v-uiId=0 HTTP/1.1" 200 940
0:0:0:0:0:0:0:1 - - [12/Apr/2018:10:58:10 -0400] "POST /myapplication/UIDL/?v-uiId=0 HTTP/1.1" 200 25877
0:0:0:0:0:0:0:1 - - [12/Apr/2018:10:58:12 -0400] "POST /myapplication/UIDL/?v-uiId=0 HTTP/1.1" 200 203
0:0:0:0:0:0:0:1 - - [12/Apr/2018:10:58:13 -0400] "POST /myapplication/UIDL/?v-uiId=0 HTTP/1.1" 200 696
0:0:0:0:0:0:0:1 - - [12/Apr/2018:10:58:14 -0400] "POST /myapplication/UIDL/?v-uiId=0 HTTP/1.1" 200 9211
0:0:0:0:0:0:0:1 - - [12/Apr/2018:10:58:15 -0400] "POST /myapplication/UIDL/?v-uiId=0 HTTP/1.1" 200 10547
0:0:0:0:0:0:0:1 - - [12/Apr/2018:10:58:18 -0400] "POST /myapplication/UIDL/?v-uiId=0 HTTP/1.1" 200 443
0:0:0:0:0:0:0:1 - - [12/Apr/2018:10:58:22 -0400] "POST /myapplication/UIDL/?v-uiId=0 HTTP/1.1" 200 1275
0:0:0:0:0:0:0:1 - - [12/Apr/2018:10:58:24 -0400] "POST /myapplication/UIDL/?v-uiId=0 HTTP/1.1" 200 595
0:0:0:0:0:0:0:1 - - [12/Apr/2018:10:58:51 -0400] "GET /myapplication/servlet/com.example.myapplication.MyUI$MyUIServlet HTTP/1.1" 200 1861
0:0:0:0:0:0:0:1 - - [12/Apr/2018:10:58:51 -0400] "GET /myapplication/VAADIN/widgetsets/com.vaadin.DefaultWidgetSet/com.vaadin.DefaultWidgetSet.nocache.js?1523545131470 HTTP/1.1" 200 3231
0:0:0:0:0:0:0:1 - - [12/Apr/2018:10:58:52 -0400] "POST /myapplication/servlet/com.example.myapplication.MyUI$MyUIServlet?v-1523545131470 HTTP/1.1" 200 6465
0:0:0:0:0:0:0:1 - - [12/Apr/2018:10:58:52 -0400] "POST /myapplication/UIDL/?v-uiId=1 HTTP/1.1" 200 137
0:0:0:0:0:0:0:1 - - [12/Apr/2018:10:58:55 -0400] "POST /myapplication/UIDL/?v-uiId=1 HTTP/1.1" 200 235
0:0:0:0:0:0:0:1 - - [12/Apr/2018:10:58:56 -0400] "GET /myapplication/servlet/com.example.myapplication.MyUI$MyUIServlet HTTP/1.1" 200 1861
0:0:0:0:0:0:0:1 - - [12/Apr/2018:10:58:56 -0400] "GET /myapplication/VAADIN/vaadinBootstrap.js?v=8.3.1 HTTP/1.1" 304 -
0:0:0:0:0:0:0:1 - - [12/Apr/2018:10:58:56 -0400] "GET /myapplication/VAADIN/widgetsets/com.vaadin.DefaultWidgetSet/com.vaadin.DefaultWidgetSet.nocache.js?1523545136426 HTTP/1.1" 200 3231
0:0:0:0:0:0:0:1 - - [12/Apr/2018:10:58:56 -0400] "GET /myapplication/VAADIN/themes/mytheme/styles.css?v=8.3.1 HTTP/1.1" 304 -
0:0:0:0:0:0:0:1 - - [12/Apr/2018:10:58:56 -0400] "GET /myapplication/VAADIN/themes/valo/shared/img/spinner.gif HTTP/1.1" 200 7194
0:0:0:0:0:0:0:1 - - [12/Apr/2018:10:58:56 -0400] "GET /myapplication/VAADIN/widgetsets/com.vaadin.DefaultWidgetSet/99065197202814696C2A1A56BF276C09.cache.js HTTP/1.1" 304 -
0:0:0:0:0:0:0:1 - - [12/Apr/2018:10:58:58 -0400] "POST /myapplication/servlet/com.example.myapplication.MyUI$MyUIServlet?v-1523545136428 HTTP/1.1" 200 6312
0:0:0:0:0:0:0:1 - - [12/Apr/2018:10:58:58 -0400] "POST /myapplication/UIDL/?v-uiId=0 HTTP/1.1" 200 137
0:0:0:0:0:0:0:1 - - [12/Apr/2018:10:59:00 -0400] "POST /myapplication/UIDL/?v-uiId=0 HTTP/1.1" 200 191
0:0:0:0:0:0:0:1 - - [12/Apr/2018:10:59:00 -0400] "POST /myapplication/UIDL/?v-uiId=0 HTTP/1.1" 200 137
0:0:0:0:0:0:0:1 - - [12/Apr/2018:10:59:02 -0400] "POST /myapplication/UIDL/?v-uiId=0 HTTP/1.1" 200 311
0:0:0:0:0:0:0:1 - - [12/Apr/2018:10:59:02 -0400] "POST /myapplication/UIDL/?v-uiId=0 HTTP/1.1" 200 211
0:0:0:0:0:0:0:1 - - [12/Apr/2018:10:59:06 -0400] "POST /myapplication/UIDL/?v-uiId=0 HTTP/1.1" 200 268
0:0:0:0:0:0:0:1 - - [12/Apr/2018:10:59:06 -0400] "POST /myapplication/UIDL/?v-uiId=0 HTTP/1.1" 200 5339
0:0:0:0:0:0:0:1 - - [12/Apr/2018:10:59:06 -0400] "GET /myapplication/VAADIN/themes/mytheme/imagens/logo-prosaude.png HTTP/1.1" 304 -
0:0:0:0:0:0:0:1 - - [12/Apr/2018:10:59:07 -0400] "POST /myapplication/UIDL/?v-uiId=0 HTTP/1.1" 200 853
0:0:0:0:0:0:0:1 - - [12/Apr/2018:10:59:08 -0400] "POST /myapplication/UIDL/?v-uiId=0 HTTP/1.1" 200 1295
0:0:0:0:0:0:0:1 - - [12/Apr/2018:10:59:10 -0400] "POST /myapplication/UIDL/?v-uiId=0 HTTP/1.1" 200 10073
0:0:0:0:0:0:0:1 - - [12/Apr/2018:10:59:10 -0400] "GET /myapplication/VAADIN/themes/mytheme/imagens/library/insert.png HTTP/1.1" 304 -
0:0:0:0:0:0:0:1 - - [12/Apr/2018:10:59:10 -0400] "GET /myapplication/VAADIN/themes/mytheme/imagens/library/update.png HTTP/1.1" 304 -
0:0:0:0:0:0:0:1 - - [12/Apr/2018:10:59:10 -0400] "GET /myapplication/VAADIN/themes/mytheme/imagens/library/find.png HTTP/1.1" 304 -
0:0:0:0:0:0:0:1 - - [12/Apr/2018:10:59:10 -0400] "GET /myapplication/VAADIN/themes/mytheme/imagens/library/print.png HTTP/1.1" 304 -
0:0:0:0:0:0:0:1 - - [12/Apr/2018:10:59:12 -0400] "POST /myapplication/UIDL/?v-uiId=0 HTTP/1.1" 200 11335
0:0:0:0:0:0:0:1 - - [12/Apr/2018:10:59:12 -0400] "GET /myapplication/VAADIN/themes/mytheme/imagens/library/lupa.png HTTP/1.1" 304 -
0:0:0:0:0:0:0:1 - - [12/Apr/2018:10:59:12 -0400] "GET /myapplication/VAADIN/themes/mytheme/imagens/library/cancel.png HTTP/1.1" 304 -
0:0:0:0:0:0:0:1 - - [12/Apr/2018:10:59:12 -0400] "GET /myapplication/VAADIN/themes/mytheme/imagens/library/filter_del.png HTTP/1.1" 304 -
0:0:0:0:0:0:0:1 - - [12/Apr/2018:10:59:15 -0400] "POST /myapplication/UIDL/?v-uiId=0 HTTP/1.1" 200 442
0:0:0:0:0:0:0:1 - - [12/Apr/2018:10:59:15 -0400] "POST /myapplication/UIDL/?v-uiId=0 HTTP/1.1" 200 1259
0:0:0:0:0:0:0:1 - - [12/Apr/2018:10:59:16 -0400] "POST /myapplication/UIDL/?v-uiId=0 HTTP/1.1" 200 588
0:0:0:0:0:0:0:1 - - [12/Apr/2018:10:59:17 -0400] "POST /myapplication/UIDL/?v-uiId=0 HTTP/1.1" 200 25939
0:0:0:0:0:0:0:1 - - [12/Apr/2018:10:59:17 -0400] "GET /myapplication/VAADIN/themes/mytheme/imagens/library/disk.png HTTP/1.1" 304 -
0:0:0:0:0:0:0:1 - - [12/Apr/2018:10:59:20 -0400] "POST /myapplication/UIDL/?v-uiId=0 HTTP/1.1" 200 442
0:0:0:0:0:0:0:1 - - [12/Apr/2018:10:59:20 -0400] "POST /myapplication/UIDL/?v-uiId=0 HTTP/1.1" 200 942
0:0:0:0:0:0:0:1 - - [12/Apr/2018:10:59:23 -0400] "POST /myapplication/UIDL/?v-uiId=0 HTTP/1.1" 200 696
0:0:0:0:0:0:0:1 - - [12/Apr/2018:10:59:24 -0400] "POST /myapplication/UIDL/?v-uiId=0 HTTP/1.1" 200 9213
0:0:0:0:0:0:0:1 - - [12/Apr/2018:10:59:25 -0400] "POST /myapplication/UIDL/?v-uiId=0 HTTP/1.1" 200 10567
0:0:0:0:0:0:0:1 - - [12/Apr/2018:10:59:28 -0400] "POST /myapplication/UIDL/?v-uiId=0 HTTP/1.1" 200 444
0:0:0:0:0:0:0:1 - - [12/Apr/2018:10:59:28 -0400] "POST /myapplication/UIDL/?v-uiId=0 HTTP/1.1" 200 1277
0:0:0:0:0:0:0:1 - - [12/Apr/2018:10:59:29 -0400] "POST /myapplication/UIDL/?v-uiId=0 HTTP/1.1" 200 597
0:0:0:0:0:0:0:1 - - [12/Apr/2018:10:59:30 -0400] "POST /myapplication/UIDL/?v-uiId=0 HTTP/1.1" 200 25943
0:0:0:0:0:0:0:1 - - [12/Apr/2018:10:59:39 -0400] "POST /myapplication/UIDL/?v-uiId=0 HTTP/1.1" 200 444
0:0:0:0:0:0:0:1 - - [12/Apr/2018:10:59:39 -0400] "POST /myapplication/UIDL/?v-uiId=0 HTTP/1.1" 200 949
0:0:0:0:0:0:0:1 - - [12/Apr/2018:10:59:44 -0400] "POST /myapplication/UIDL/?v-uiId=0 HTTP/1.1" 200 696
0:0:0:0:0:0:0:1 - - [12/Apr/2018:10:59:46 -0400] "POST /myapplication/UIDL/?v-uiId=0 HTTP/1.1" 200 4972
0:0:0:0:0:0:0:1 - - [12/Apr/2018:10:59:46 -0400] "GET /myapplication/VAADIN/themes/mytheme/imagens/library/delete.png HTTP/1.1" 304 -
0:0:0:0:0:0:0:1 - - [12/Apr/2018:10:59:47 -0400] "POST /myapplication/UIDL/?v-uiId=0 HTTP/1.1" 200 294
0:0:0:0:0:0:0:1 - - [12/Apr/2018:10:59:48 -0400] "POST /myapplication/UIDL/?v-uiId=0 HTTP/1.1" 200 7037
0:0:0:0:0:0:0:1 - - [12/Apr/2018:10:59:49 -0400] "POST /myapplication/UIDL/?v-uiId=0 HTTP/1.1" 200 597
0:0:0:0:0:0:0:1 - - [12/Apr/2018:10:59:51 -0400] "POST /myapplication/UIDL/?v-uiId=0 HTTP/1.1" 200 621
0:0:0:0:0:0:0:1 - - [12/Apr/2018:10:59:53 -0400] "POST /myapplication/UIDL/?v-uiId=0 HTTP/1.1" 200 11011
0:0:0:0:0:0:0:1 - - [12/Apr/2018:10:59:55 -0400] "POST /myapplication/UIDL/?v-uiId=0 HTTP/1.1" 200 624
0:0:0:0:0:0:0:1 - - [12/Apr/2018:10:59:57 -0400] "POST /myapplication/UIDL/?v-uiId=0 HTTP/1.1" 200 1033
0:0:0:0:0:0:0:1 - - [12/Apr/2018:11:00:03 -0400] "POST /myapplication/UIDL/?v-uiId=0 HTTP/1.1" 200 17654
0:0:0:0:0:0:0:1 - - [12/Apr/2018:11:00:07 -0400] "POST /myapplication/UIDL/?v-uiId=0 HTTP/1.1" 200 203
0:0:0:0:0:0:0:1 - - [12/Apr/2018:11:00:08 -0400] "POST /myapplication/UIDL/?v-uiId=0 HTTP/1.1" 200 8700
0:0:0:0:0:0:0:1 - - [12/Apr/2018:11:00:09 -0400] "POST /myapplication/UIDL/?v-uiId=0 HTTP/1.1" 200 884
0:0:0:0:0:0:0:1 - - [12/Apr/2018:11:00:10 -0400] "POST /myapplication/UIDL/?v-uiId=0 HTTP/1.1" 200 4636
0:0:0:0:0:0:0:1 - - [12/Apr/2018:11:00:10 -0400] "POST /myapplication/UIDL/?v-uiId=0 HTTP/1.1" 200 401
0:0:0:0:0:0:0:1 - - [12/Apr/2018:11:00:11 -0400] "POST /myapplication/UIDL/?v-uiId=0 HTTP/1.1" 200 696
0:0:0:0:0:0:0:1 - - [12/Apr/2018:11:00:19 -0400] "GET /myapplication/servlet/com.example.myapplication.MyUI$MyUIServlet HTTP/1.1" 200 1861
0:0:0:0:0:0:0:1 - - [12/Apr/2018:11:00:19 -0400] "GET /myapplication/VAADIN/widgetsets/com.vaadin.DefaultWidgetSet/com.vaadin.DefaultWidgetSet.nocache.js?1523545219496 HTTP/1.1" 200 3231
0:0:0:0:0:0:0:1 - - [12/Apr/2018:11:00:20 -0400] "POST /myapplication/servlet/com.example.myapplication.MyUI$MyUIServlet?v-1523545219496 HTTP/1.1" 200 6585
0:0:0:0:0:0:0:1 - - [12/Apr/2018:11:00:20 -0400] "POST /myapplication/UIDL/?v-uiId=1 HTTP/1.1" 200 137
0:0:0:0:0:0:0:1 - - [12/Apr/2018:11:00:22 -0400] "POST /myapplication/UIDL/?v-uiId=1 HTTP/1.1" 200 137
0:0:0:0:0:0:0:1 - - [12/Apr/2018:11:00:58 -0400] "POST /myapplication/UIDL/?v-uiId=1 HTTP/1.1" 200 205
0:0:0:0:0:0:0:1 - - [12/Apr/2018:11:00:58 -0400] "POST /myapplication/UIDL/?v-uiId=1 HTTP/1.1" 200 137
0:0:0:0:0:0:0:1 - - [12/Apr/2018:11:00:59 -0400] "POST /myapplication/UIDL/?v-uiId=1 HTTP/1.1" 200 137
0:0:0:0:0:0:0:1 - - [12/Apr/2018:11:01:00 -0400] "POST /myapplication/UIDL/?v-uiId=1 HTTP/1.1" 200 205
0:0:0:0:0:0:0:1 - - [12/Apr/2018:11:01:00 -0400] "POST /myapplication/UIDL/?v-uiId=1 HTTP/1.1" 200 137
0:0:0:0:0:0:0:1 - - [12/Apr/2018:11:01:04 -0400] "POST /myapplication/UIDL/?v-uiId=1 HTTP/1.1" 200 205
0:0:0:0:0:0:0:1 - - [12/Apr/2018:11:01:05 -0400] "POST /myapplication/UIDL/?v-uiId=1 HTTP/1.1" 200 5585
0:0:0:0:0:0:0:1 - - [12/Apr/2018:11:01:32 -0400] "POST /myapplication/UIDL/?v-uiId=1 HTTP/1.1" 200 9226
0:0:0:0:0:0:0:1 - - [12/Apr/2018:11:01:34 -0400] "POST /myapplication/UIDL/?v-uiId=1 HTTP/1.1" 200 3109
0:0:0:0:0:0:0:1 - - [12/Apr/2018:11:02:15 -0400] "POST /myapplication/UIDL/?v-uiId=1 HTTP/1.1" 200 483
0:0:0:0:0:0:0:1 - - [12/Apr/2018:11:02:16 -0400] "POST /myapplication/UIDL/?v-uiId=1 HTTP/1.1" 200 8640
0:0:0:0:0:0:0:1 - - [12/Apr/2018:11:02:40 -0400] "POST /myapplication/UIDL/?v-uiId=1 HTTP/1.1" 200 223
0:0:0:0:0:0:0:1 - - [12/Apr/2018:11:02:42 -0400] "POST /myapplication/UIDL/?v-uiId=1 HTTP/1.1" 200 6487
0:0:0:0:0:0:0:1 - - [12/Apr/2018:11:02:44 -0400] "POST /myapplication/UIDL/?v-uiId=1 HTTP/1.1" 200 351
0:0:0:0:0:0:0:1 - - [12/Apr/2018:11:02:45 -0400] "POST /myapplication/UIDL/?v-uiId=1 HTTP/1.1" 200 16053
0:0:0:0:0:0:0:1 - - [12/Apr/2018:11:02:54 -0400] "POST /myapplication/UIDL/?v-uiId=1 HTTP/1.1" 200 223
0:0:0:0:0:0:0:1 - - [12/Apr/2018:11:02:55 -0400] "POST /myapplication/UIDL/?v-uiId=1 HTTP/1.1" 200 465
0:0:0:0:0:0:0:1 - - [12/Apr/2018:11:02:58 -0400] "POST /myapplication/UIDL/?v-uiId=1 HTTP/1.1" 200 15713
0:0:0:0:0:0:0:1 - - [12/Apr/2018:11:03:22 -0400] "POST /myapplication/UIDL/?v-uiId=1 HTTP/1.1" 200 223
0:0:0:0:0:0:0:1 - - [12/Apr/2018:11:03:24 -0400] "POST /myapplication/UIDL/?v-uiId=1 HTTP/1.1" 200 9991
0:0:0:0:0:0:0:1 - - [12/Apr/2018:11:03:28 -0400] "POST /myapplication/UIDL/?v-uiId=1 HTTP/1.1" 200 3925
0:0:0:0:0:0:0:1 - - [12/Apr/2018:11:03:29 -0400] "POST /myapplication/UIDL/?v-uiId=1 HTTP/1.1" 200 3881
0:0:0:0:0:0:0:1 - - [12/Apr/2018:11:03:29 -0400] "POST /myapplication/UIDL/?v-uiId=1 HTTP/1.1" 200 3951
0:0:0:0:0:0:0:1 - - [12/Apr/2018:11:03:29 -0400] "POST /myapplication/UIDL/?v-uiId=1 HTTP/1.1" 200 3951
0:0:0:0:0:0:0:1 - - [12/Apr/2018:11:03:29 -0400] "POST /myapplication/UIDL/?v-uiId=1 HTTP/1.1" 200 3994
0:0:0:0:0:0:0:1 - - [12/Apr/2018:11:03:57 -0400] "POST /myapplication/UIDL/?v-uiId=1 HTTP/1.1" 200 575
0:0:0:0:0:0:0:1 - - [12/Apr/2018:11:03:58 -0400] "POST /myapplication/UIDL/?v-uiId=1 HTTP/1.1" 200 10969
0:0:0:0:0:0:0:1 - - [12/Apr/2018:11:04:01 -0400] "POST /myapplication/UIDL/?v-uiId=1 HTTP/1.1" 200 458
0:0:0:0:0:0:0:1 - - [12/Apr/2018:11:04:01 -0400] "POST /myapplication/UIDL/?v-uiId=1 HTTP/1.1" 200 1536
0:0:0:0:0:0:0:1 - - [12/Apr/2018:11:04:02 -0400] "POST /myapplication/UIDL/?v-uiId=1 HTTP/1.1" 200 604
0:0:0:0:0:0:0:1 - - [12/Apr/2018:11:04:03 -0400] "POST /myapplication/UIDL/?v-uiId=1 HTTP/1.1" 200 26851
0:0:0:0:0:0:0:1 - - [12/Apr/2018:11:04:09 -0400] "POST /myapplication/UIDL/?v-uiId=1 HTTP/1.1" 200 425
0:0:0:0:0:0:0:1 - - [12/Apr/2018:11:04:10 -0400] "POST /myapplication/UIDL/?v-uiId=1 HTTP/1.1" 200 370
0:0:0:0:0:0:0:1 - - [12/Apr/2018:11:04:15 -0400] "POST /myapplication/UIDL/?v-uiId=1 HTTP/1.1" 200 376
0:0:0:0:0:0:0:1 - - [12/Apr/2018:11:04:36 -0400] "POST /myapplication/UIDL/?v-uiId=1 HTTP/1.1" 200 223
0:0:0:0:0:0:0:1 - - [12/Apr/2018:11:04:39 -0400] "POST /myapplication/UIDL/?v-uiId=1 HTTP/1.1" 200 11829
0:0:0:0:0:0:0:1 - - [12/Apr/2018:11:04:41 -0400] "POST /myapplication/UIDL/?v-uiId=1 HTTP/1.1" 200 642
0:0:0:0:0:0:0:1 - - [12/Apr/2018:11:04:41 -0400] "POST /myapplication/UIDL/?v-uiId=1 HTTP/1.1" 200 18010
0:0:0:0:0:0:0:1 - - [12/Apr/2018:11:05:20 -0400] "POST /myapplication/HEARTBEAT/?v-uiId=1 HTTP/1.1" 200 -
0:0:0:0:0:0:0:1 - - [12/Apr/2018:11:05:27 -0400] "POST /myapplication/UIDL/?v-uiId=1 HTTP/1.1" 200 223
0:0:0:0:0:0:0:1 - - [12/Apr/2018:11:05:30 -0400] "POST /myapplication/UIDL/?v-uiId=1 HTTP/1.1" 200 903
0:0:0:0:0:0:0:1 - - [12/Apr/2018:11:05:31 -0400] "POST /myapplication/UIDL/?v-uiId=1 HTTP/1.1" 200 7641
0:0:0:0:0:0:0:1 - - [12/Apr/2018:11:05:33 -0400] "POST /myapplication/UIDL/?v-uiId=1 HTTP/1.1" 200 19226
0:0:0:0:0:0:0:1 - - [12/Apr/2018:11:05:33 -0400] "GET /myapplication/VAADIN/themes/mytheme/imagens/library/money.png HTTP/1.1" 200 546
0:0:0:0:0:0:0:1 - - [12/Apr/2018:11:05:38 -0400] "POST /myapplication/UIDL/?v-uiId=1 HTTP/1.1" 200 387
0:0:0:0:0:0:0:1 - - [12/Apr/2018:11:05:41 -0400] "POST /myapplication/UIDL/?v-uiId=1 HTTP/1.1" 200 376
0:0:0:0:0:0:0:1 - - [12/Apr/2018:11:06:53 -0400] "POST /myapplication/UIDL/?v-uiId=1 HTTP/1.1" 200 231
0:0:0:0:0:0:0:1 - - [12/Apr/2018:11:06:55 -0400] "POST /myapplication/UIDL/?v-uiId=1 HTTP/1.1" 200 376
0:0:0:0:0:0:0:1 - - [12/Apr/2018:11:06:56 -0400] "POST /myapplication/UIDL/?v-uiId=1 HTTP/1.1" 200 490
0:0:0:0:0:0:0:1 - - [12/Apr/2018:11:06:58 -0400] "POST /myapplication/UIDL/?v-uiId=1 HTTP/1.1" 200 230
0:0:0:0:0:0:0:1 - - [12/Apr/2018:11:06:58 -0400] "POST /myapplication/UIDL/?v-uiId=1 HTTP/1.1" 200 230
0:0:0:0:0:0:0:1 - - [12/Apr/2018:11:06:58 -0400] "POST /myapplication/UIDL/?v-uiId=1 HTTP/1.1" 200 274
0:0:0:0:0:0:0:1 - - [12/Apr/2018:11:07:00 -0400] "POST /myapplication/UIDL/?v-uiId=1 HTTP/1.1" 200 565
0:0:0:0:0:0:0:1 - - [12/Apr/2018:11:07:01 -0400] "POST /myapplication/UIDL/?v-uiId=1 HTTP/1.1" 200 139
0:0:0:0:0:0:0:1 - - [12/Apr/2018:11:07:02 -0400] "POST /myapplication/UIDL/?v-uiId=1 HTTP/1.1" 200 231
0:0:0:0:0:0:0:1 - - [12/Apr/2018:11:07:02 -0400] "POST /myapplication/UIDL/?v-uiId=1 HTTP/1.1" 200 571
0:0:0:0:0:0:0:1 - - [12/Apr/2018:11:07:02 -0400] "POST /myapplication/UIDL/?v-uiId=1 HTTP/1.1" 200 230
0:0:0:0:0:0:0:1 - - [12/Apr/2018:11:07:02 -0400] "POST /myapplication/UIDL/?v-uiId=1 HTTP/1.1" 200 467
0:0:0:0:0:0:0:1 - - [12/Apr/2018:11:07:02 -0400] "POST /myapplication/UIDL/?v-uiId=1 HTTP/1.1" 200 230
0:0:0:0:0:0:0:1 - - [12/Apr/2018:11:07:04 -0400] "POST /myapplication/UIDL/?v-uiId=1 HTTP/1.1" 200 230
0:0:0:0:0:0:0:1 - - [12/Apr/2018:11:07:04 -0400] "POST /myapplication/UIDL/?v-uiId=1 HTTP/1.1" 200 467
0:0:0:0:0:0:0:1 - - [12/Apr/2018:11:07:09 -0400] "POST /myapplication/UIDL/?v-uiId=1 HTTP/1.1" 200 231
0:0:0:0:0:0:0:1 - - [12/Apr/2018:11:07:09 -0400] "POST /myapplication/UIDL/?v-uiId=1 HTTP/1.1" 200 535
0:0:0:0:0:0:0:1 - - [12/Apr/2018:11:07:12 -0400] "POST /myapplication/UIDL/?v-uiId=1 HTTP/1.1" 200 296
0:0:0:0:0:0:0:1 - - [12/Apr/2018:11:07:17 -0400] "POST /myapplication/UIDL/?v-uiId=1 HTTP/1.1" 200 139
0:0:0:0:0:0:0:1 - - [12/Apr/2018:11:07:17 -0400] "POST /myapplication/UIDL/?v-uiId=1 HTTP/1.1" 200 3059
0:0:0:0:0:0:0:1 - - [12/Apr/2018:11:07:19 -0400] "POST /myapplication/UIDL/?v-uiId=1 HTTP/1.1" 200 223
0:0:0:0:0:0:0:1 - - [12/Apr/2018:11:07:20 -0400] "POST /myapplication/UIDL/?v-uiId=1 HTTP/1.1" 200 677
0:0:0:0:0:0:0:1 - - [12/Apr/2018:11:07:21 -0400] "POST /myapplication/UIDL/?v-uiId=1 HTTP/1.1" 200 2231
0:0:0:0:0:0:0:1 - - [12/Apr/2018:11:07:21 -0400] "GET /myapplication/VAADIN/themes/mytheme/imagens/library/icon-error.png HTTP/1.1" 200 2272
0:0:0:0:0:0:0:1 - - [12/Apr/2018:11:07:22 -0400] "POST /myapplication/UIDL/?v-uiId=1 HTTP/1.1" 200 223
0:0:0:0:0:0:0:1 - - [12/Apr/2018:11:07:22 -0400] "POST /myapplication/UIDL/?v-uiId=1 HTTP/1.1" 200 686
0:0:0:0:0:0:0:1 - - [12/Apr/2018:11:07:24 -0400] "POST /myapplication/UIDL/?v-uiId=1 HTTP/1.1" 200 18753
0:0:0:0:0:0:0:1 - - [12/Apr/2018:11:07:32 -0400] "POST /myapplication/UIDL/?v-uiId=1 HTTP/1.1" 200 481
0:0:0:0:0:0:0:1 - - [12/Apr/2018:11:07:32 -0400] "POST /myapplication/UIDL/?v-uiId=1 HTTP/1.1" 200 574
0:0:0:0:0:0:0:1 - - [12/Apr/2018:11:07:33 -0400] "POST /myapplication/UIDL/?v-uiId=1 HTTP/1.1" 200 231
0:0:0:0:0:0:0:1 - - [12/Apr/2018:11:07:33 -0400] "POST /myapplication/UIDL/?v-uiId=1 HTTP/1.1" 200 641
0:0:0:0:0:0:0:1 - - [12/Apr/2018:11:07:33 -0400] "POST /myapplication/UIDL/?v-uiId=1 HTTP/1.1" 200 230
0:0:0:0:0:0:0:1 - - [12/Apr/2018:11:07:33 -0400] "POST /myapplication/UIDL/?v-uiId=1 HTTP/1.1" 200 376
0:0:0:0:0:0:0:1 - - [12/Apr/2018:11:07:33 -0400] "POST /myapplication/UIDL/?v-uiId=1 HTTP/1.1" 200 230
0:0:0:0:0:0:0:1 - - [12/Apr/2018:11:07:33 -0400] "POST /myapplication/UIDL/?v-uiId=1 HTTP/1.1" 200 376
0:0:0:0:0:0:0:1 - - [12/Apr/2018:11:07:35 -0400] "POST /myapplication/UIDL/?v-uiId=1 HTTP/1.1" 200 460
0:0:0:0:0:0:0:1 - - [12/Apr/2018:11:07:37 -0400] "POST /myapplication/UIDL/?v-uiId=1 HTTP/1.1" 200 139
0:0:0:0:0:0:0:1 - - [12/Apr/2018:11:07:37 -0400] "POST /myapplication/UIDL/?v-uiId=1 HTTP/1.1" 200 3315
0:0:0:0:0:0:0:1 - - [12/Apr/2018:11:07:41 -0400] "POST /myapplication/UIDL/?v-uiId=1 HTTP/1.1" 200 231
0:0:0:0:0:0:0:1 - - [12/Apr/2018:11:07:41 -0400] "POST /myapplication/UIDL/?v-uiId=1 HTTP/1.1" 200 595
0:0:0:0:0:0:0:1 - - [12/Apr/2018:11:07:41 -0400] "POST /myapplication/UIDL/?v-uiId=1 HTTP/1.1" 200 231
0:0:0:0:0:0:0:1 - - [12/Apr/2018:11:07:41 -0400] "POST /myapplication/UIDL/?v-uiId=1 HTTP/1.1" 200 683
0:0:0:0:0:0:0:1 - - [12/Apr/2018:11:07:41 -0400] "POST /myapplication/UIDL/?v-uiId=1 HTTP/1.1" 200 230
0:0:0:0:0:0:0:1 - - [12/Apr/2018:11:07:41 -0400] "POST /myapplication/UIDL/?v-uiId=1 HTTP/1.1" 200 644
0:0:0:0:0:0:0:1 - - [12/Apr/2018:11:07:41 -0400] "POST /myapplication/UIDL/?v-uiId=1 HTTP/1.1" 200 230
0:0:0:0:0:0:0:1 - - [12/Apr/2018:11:07:41 -0400] "POST /myapplication/UIDL/?v-uiId=1 HTTP/1.1" 200 566
0:0:0:0:0:0:0:1 - - [12/Apr/2018:11:07:42 -0400] "POST /myapplication/UIDL/?v-uiId=1 HTTP/1.1" 200 230
0:0:0:0:0:0:0:1 - - [12/Apr/2018:11:07:42 -0400] "POST /myapplication/UIDL/?v-uiId=1 HTTP/1.1" 200 566
0:0:0:0:0:0:0:1 - - [12/Apr/2018:11:07:43 -0400] "POST /myapplication/UIDL/?v-uiId=1 HTTP/1.1" 200 452
0:0:0:0:0:0:0:1 - - [12/Apr/2018:11:07:44 -0400] "POST /myapplication/UIDL/?v-uiId=1 HTTP/1.1" 200 139
0:0:0:0:0:0:0:1 - - [12/Apr/2018:11:07:44 -0400] "POST /myapplication/UIDL/?v-uiId=1 HTTP/1.1" 200 3744
0:0:0:0:0:0:0:1 - - [12/Apr/2018:11:07:46 -0400] "POST /myapplication/UIDL/?v-uiId=1 HTTP/1.1" 200 139
0:0:0:0:0:0:0:1 - - [12/Apr/2018:11:07:46 -0400] "POST /myapplication/UIDL/?v-uiId=1 HTTP/1.1" 200 2076
0:0:0:0:0:0:0:1 - - [12/Apr/2018:11:07:46 -0400] "GET /myapplication/VAADIN/themes/mytheme/imagens/library/icon-question.png HTTP/1.1" 200 1668
0:0:0:0:0:0:0:1 - - [12/Apr/2018:11:07:46 -0400] "GET /myapplication/VAADIN/themes/mytheme/imagens/library/accept.png HTTP/1.1" 200 781
0:0:0:0:0:0:0:1 - - [12/Apr/2018:11:07:47 -0400] "POST /myapplication/UIDL/?v-uiId=1 HTTP/1.1" 200 2505
0:0:0:0:0:0:0:1 - - [12/Apr/2018:11:07:56 -0400] "POST /myapplication/UIDL/?v-uiId=1 HTTP/1.1" 200 233
0:0:0:0:0:0:0:1 - - [12/Apr/2018:11:07:56 -0400] "POST /myapplication/UIDL/?v-uiId=1 HTTP/1.1" 200 652
0:0:0:0:0:0:0:1 - - [12/Apr/2018:11:07:56 -0400] "POST /myapplication/UIDL/?v-uiId=1 HTTP/1.1" 200 232
0:0:0:0:0:0:0:1 - - [12/Apr/2018:11:07:56 -0400] "POST /myapplication/UIDL/?v-uiId=1 HTTP/1.1" 200 282
0:0:0:0:0:0:0:1 - - [12/Apr/2018:11:07:56 -0400] "POST /myapplication/UIDL/?v-uiId=1 HTTP/1.1" 200 232
0:0:0:0:0:0:0:1 - - [12/Apr/2018:11:07:56 -0400] "POST /myapplication/UIDL/?v-uiId=1 HTTP/1.1" 200 282
0:0:0:0:0:0:0:1 - - [12/Apr/2018:11:07:58 -0400] "POST /myapplication/UIDL/?v-uiId=1 HTTP/1.1" 200 466
0:0:0:0:0:0:0:1 - - [12/Apr/2018:11:07:59 -0400] "POST /myapplication/UIDL/?v-uiId=1 HTTP/1.1" 200 141
0:0:0:0:0:0:0:1 - - [12/Apr/2018:11:07:59 -0400] "POST /myapplication/UIDL/?v-uiId=1 HTTP/1.1" 200 3751
0:0:0:0:0:0:0:1 - - [12/Apr/2018:11:08:03 -0400] "POST /myapplication/UIDL/?v-uiId=1 HTTP/1.1" 200 141
0:0:0:0:0:0:0:1 - - [12/Apr/2018:11:08:03 -0400] "POST /myapplication/UIDL/?v-uiId=1 HTTP/1.1" 200 404
0:0:0:0:0:0:0:1 - - [12/Apr/2018:11:08:03 -0400] "POST /myapplication/UIDL/?v-uiId=1 HTTP/1.1" 200 356
0:0:0:0:0:0:0:1 - - [12/Apr/2018:11:08:07 -0400] "POST /myapplication/UIDL/?v-uiId=1 HTTP/1.1" 200 141
0:0:0:0:0:0:0:1 - - [12/Apr/2018:11:08:07 -0400] "POST /myapplication/UIDL/?v-uiId=1 HTTP/1.1" 200 1238
0:0:0:0:0:0:0:1 - - [12/Apr/2018:11:10:21 -0400] "POST /myapplication/HEARTBEAT/?v-uiId=1 HTTP/1.1" 200 -
0:0:0:0:0:0:0:1 - - [12/Apr/2018:11:15:21 -0400] "POST /myapplication/HEARTBEAT/?v-uiId=1 HTTP/1.1" 200 -
0:0:0:0:0:0:0:1 - - [12/Apr/2018:11:16:18 -0400] "POST /myapplication/UIDL/?v-uiId=1 HTTP/1.1" 200 225
0:0:0:0:0:0:0:1 - - [12/Apr/2018:11:17:28 -0400] "GET /myapplication/VAADIN/widgetsets/com.vaadin.DefaultWidgetSet/com.vaadin.DefaultWidgetSet.nocache.js?1523546248002 HTTP/1.1" 200 3231
0:0:0:0:0:0:0:1 - - [12/Apr/2018:11:17:30 -0400] "POST /myapplication/servlet/com.example.myapplication.MyUI$MyUIServlet?v-1523546248002 HTTP/1.1" 200 6550
0:0:0:0:0:0:0:1 - - [12/Apr/2018:11:17:30 -0400] "POST /myapplication/UIDL/?v-uiId=2 HTTP/1.1" 200 137
0:0:0:0:0:0:0:1 - - [12/Apr/2018:11:18:20 -0400] "POST /myapplication/UIDL/?v-uiId=2 HTTP/1.1" 200 205
0:0:0:0:0:0:0:1 - - [12/Apr/2018:11:18:20 -0400] "POST /myapplication/UIDL/?v-uiId=2 HTTP/1.1" 200 137
0:0:0:0:0:0:0:1 - - [12/Apr/2018:11:18:23 -0400] "POST /myapplication/UIDL/?v-uiId=2 HTTP/1.1" 200 327
0:0:0:0:0:0:0:1 - - [12/Apr/2018:11:18:23 -0400] "POST /myapplication/UIDL/?v-uiId=2 HTTP/1.1" 200 231
0:0:0:0:0:0:0:1 - - [12/Apr/2018:11:18:26 -0400] "POST /myapplication/UIDL/?v-uiId=2 HTTP/1.1" 200 205
0:0:0:0:0:0:0:1 - - [12/Apr/2018:11:18:26 -0400] "POST /myapplication/UIDL/?v-uiId=2 HTTP/1.1" 200 231
0:0:0:0:0:0:0:1 - - [12/Apr/2018:11:18:30 -0400] "POST /myapplication/UIDL/?v-uiId=2 HTTP/1.1" 200 231
0:0:0:0:0:0:0:1 - - [12/Apr/2018:11:18:34 -0400] "POST /myapplication/UIDL/?v-uiId=2 HTTP/1.1" 200 205
0:0:0:0:0:0:0:1 - - [12/Apr/2018:11:18:34 -0400] "POST /myapplication/UIDL/?v-uiId=2 HTTP/1.1" 200 233
0:0:0:0:0:0:0:1 - - [12/Apr/2018:11:18:59 -0400] "GET /myapplication/servlet/com.example.myapplication.MyUI$MyUIServlet HTTP/1.1" 200 1861
0:0:0:0:0:0:0:1 - - [12/Apr/2018:11:18:59 -0400] "GET /myapplication/VAADIN/widgetsets/com.vaadin.DefaultWidgetSet/com.vaadin.DefaultWidgetSet.nocache.js?1523546339520 HTTP/1.1" 200 3231
0:0:0:0:0:0:0:1 - - [12/Apr/2018:11:18:59 -0400] "POST /myapplication/servlet/com.example.myapplication.MyUI$MyUIServlet?v-1523546339520 HTTP/1.1" 200 6597
0:0:0:0:0:0:0:1 - - [12/Apr/2018:11:19:00 -0400] "POST /myapplication/UIDL/?v-uiId=3 HTTP/1.1" 200 137
0:0:0:0:0:0:0:1 - - [12/Apr/2018:11:19:03 -0400] "POST /myapplication/UIDL/?v-uiId=3 HTTP/1.1" 200 205
0:0:0:0:0:0:0:1 - - [12/Apr/2018:11:19:04 -0400] "POST /myapplication/UIDL/?v-uiId=3 HTTP/1.1" 200 137
0:0:0:0:0:0:0:1 - - [12/Apr/2018:11:19:05 -0400] "POST /myapplication/UIDL/?v-uiId=3 HTTP/1.1" 200 205
0:0:0:0:0:0:0:1 - - [12/Apr/2018:11:19:06 -0400] "POST /myapplication/UIDL/?v-uiId=3 HTTP/1.1" 200 5585
0:0:0:0:0:0:0:1 - - [12/Apr/2018:11:19:11 -0400] "POST /myapplication/UIDL/?v-uiId=3 HTTP/1.1" 200 901
0:0:0:0:0:0:0:1 - - [12/Apr/2018:11:19:14 -0400] "POST /myapplication/UIDL/?v-uiId=3 HTTP/1.1" 200 9036
0:0:0:0:0:0:0:1 - - [12/Apr/2018:11:19:29 -0400] "POST /myapplication/UIDL/?v-uiId=3 HTTP/1.1" 200 1375
0:0:0:0:0:0:0:1 - - [12/Apr/2018:11:19:30 -0400] "POST /myapplication/UIDL/?v-uiId=3 HTTP/1.1" 200 10341
0:0:0:0:0:0:0:1 - - [12/Apr/2018:11:19:32 -0400] "POST /myapplication/UIDL/?v-uiId=3 HTTP/1.1" 200 11738
0:0:0:0:0:0:0:1 - - [12/Apr/2018:11:19:35 -0400] "POST /myapplication/UIDL/?v-uiId=3 HTTP/1.1" 200 458
0:0:0:0:0:0:0:1 - - [12/Apr/2018:11:19:35 -0400] "POST /myapplication/UIDL/?v-uiId=3 HTTP/1.1" 200 1354
0:0:0:0:0:0:0:1 - - [12/Apr/2018:11:19:36 -0400] "POST /myapplication/UIDL/?v-uiId=3 HTTP/1.1" 200 616
0:0:0:0:0:0:0:1 - - [12/Apr/2018:11:19:36 -0400] "POST /myapplication/UIDL/?v-uiId=3 HTTP/1.1" 200 26817
0:0:0:0:0:0:0:1 - - [12/Apr/2018:11:19:39 -0400] "POST /myapplication/UIDL/?v-uiId=3 HTTP/1.1" 200 1025
0:0:0:0:0:0:0:1 - - [12/Apr/2018:11:19:54 -0400] "POST /myapplication/UIDL/?v-uiId=3 HTTP/1.1" 200 648
0:0:0:0:0:0:0:1 - - [12/Apr/2018:11:19:56 -0400] "POST /myapplication/UIDL/?v-uiId=3 HTTP/1.1" 200 718
0:0:0:0:0:0:0:1 - - [12/Apr/2018:11:24:00 -0400] "POST /myapplication/HEARTBEAT/?v-uiId=3 HTTP/1.1" 200 -
0:0:0:0:0:0:0:1 - - [12/Apr/2018:11:29:00 -0400] "POST /myapplication/HEARTBEAT/?v-uiId=3 HTTP/1.1" 200 -
0:0:0:0:0:0:0:1 - - [12/Apr/2018:11:34:00 -0400] "POST /myapplication/HEARTBEAT/?v-uiId=3 HTTP/1.1" 200 -
0:0:0:0:0:0:0:1 - - [12/Apr/2018:11:39:00 -0400] "POST /myapplication/HEARTBEAT/?v-uiId=3 HTTP/1.1" 200 -
127.0.0.1 - - [12/Apr/2018:22:41:41 -0400] "GET / HTTP/1.1" 404 951
0:0:0:0:0:0:0:1 - - [12/Apr/2018:22:41:43 -0400] "GET /myapplication/servlet/com.example.myapplication.MyUI$MyUIServlet HTTP/1.1" 200 1912
0:0:0:0:0:0:0:1 - - [12/Apr/2018:22:41:49 -0400] "GET /myapplication/servlet/com.example.myapplication.MyUI$MyUIServlet HTTP/1.1" 200 1861
0:0:0:0:0:0:0:1 - - [12/Apr/2018:22:41:49 -0400] "GET /myapplication/VAADIN/vaadinBootstrap.js?v=8.3.1 HTTP/1.1" 200 3837
0:0:0:0:0:0:0:1 - - [12/Apr/2018:22:41:49 -0400] "GET /myapplication/VAADIN/widgetsets/com.vaadin.DefaultWidgetSet/com.vaadin.DefaultWidgetSet.nocache.js?1523587309482 HTTP/1.1" 200 3231
0:0:0:0:0:0:0:1 - - [12/Apr/2018:22:41:49 -0400] "GET /myapplication/VAADIN/themes/mytheme/styles.css?v=8.3.1 HTTP/1.1" 200 380400
0:0:0:0:0:0:0:1 - - [12/Apr/2018:22:41:49 -0400] "GET /myapplication/VAADIN/themes/valo/shared/img/spinner.gif HTTP/1.1" 200 7194
0:0:0:0:0:0:0:1 - - [12/Apr/2018:22:41:49 -0400] "GET /myapplication/VAADIN/widgetsets/com.vaadin.DefaultWidgetSet/99065197202814696C2A1A56BF276C09.cache.js HTTP/1.1" 200 352405
0:0:0:0:0:0:0:1 - - [12/Apr/2018:22:41:49 -0400] "GET /myapplication/VAADIN/themes/mytheme/favicon.ico HTTP/1.1" 200 31005
0:0:0:0:0:0:0:1 - - [12/Apr/2018:22:41:53 -0400] "POST /myapplication/servlet/com.example.myapplication.MyUI$MyUIServlet?v-1523587309484 HTTP/1.1" 200 6323
0:0:0:0:0:0:0:1 - - [12/Apr/2018:22:41:53 -0400] "GET /myapplication/VAADIN/themes/valo/fonts/open-sans/OpenSans-Light-webfont.woff HTTP/1.1" 200 22248
0:0:0:0:0:0:0:1 - - [12/Apr/2018:22:41:53 -0400] "GET /myapplication/VAADIN/themes/valo/fonts/open-sans/OpenSans-Regular-webfont.woff HTTP/1.1" 200 22660
0:0:0:0:0:0:0:1 - - [12/Apr/2018:22:41:53 -0400] "GET /myapplication/VAADIN/widgetsets/com.vaadin.DefaultWidgetSet/deferredjs/99065197202814696C2A1A56BF276C09/8.cache.js HTTP/1.1" 200 1196
0:0:0:0:0:0:0:1 - - [12/Apr/2018:22:41:53 -0400] "POST /myapplication/UIDL/?v-uiId=0 HTTP/1.1" 200 137
0:0:0:0:0:0:0:1 - - [12/Apr/2018:22:41:53 -0400] "GET /myapplication/VAADIN/widgetsets/com.vaadin.DefaultWidgetSet/deferredjs/99065197202814696C2A1A56BF276C09/2.cache.js HTTP/1.1" 200 183
