127.0.0.1 - - [10/Jul/2018:11:23:00 -0400] "GET / HTTP/1.1" 404 951
0:0:0:0:0:0:0:1 - - [10/Jul/2018:11:23:01 -0400] "GET /myapplication/servlet/com.example.myapplication.MyUI$MyUIServlet HTTP/1.1" 200 1912
0:0:0:0:0:0:0:1 - - [10/Jul/2018:11:23:09 -0400] "GET /myapplication/servlet/com.example.myapplication.MyUI$MyUIServlet HTTP/1.1" 200 1861
0:0:0:0:0:0:0:1 - - [10/Jul/2018:11:23:09 -0400] "GET /myapplication/VAADIN/vaadinBootstrap.js?v=8.4.0 HTTP/1.1" 200 3837
0:0:0:0:0:0:0:1 - - [10/Jul/2018:11:23:09 -0400] "GET /myapplication/VAADIN/themes/mytheme/styles.css?v=8.4.0 HTTP/1.1" 200 380611
0:0:0:0:0:0:0:1 - - [10/Jul/2018:11:23:09 -0400] "GET /myapplication/VAADIN/widgetsets/com.vaadin.DefaultWidgetSet/com.vaadin.DefaultWidgetSet.nocache.js?1531236189728 HTTP/1.1" 200 3231
0:0:0:0:0:0:0:1 - - [10/Jul/2018:11:23:09 -0400] "GET /myapplication/VAADIN/themes/valo/shared/img/spinner.gif HTTP/1.1" 200 7194
0:0:0:0:0:0:0:1 - - [10/Jul/2018:11:23:09 -0400] "GET /myapplication/VAADIN/widgetsets/com.vaadin.DefaultWidgetSet/5261D6BEE375FB843C1757C3A6B56D47.cache.js HTTP/1.1" 200 355903
0:0:0:0:0:0:0:1 - - [10/Jul/2018:11:23:10 -0400] "GET /myapplication/VAADIN/themes/mytheme/favicon.ico HTTP/1.1" 200 31005
0:0:0:0:0:0:0:1 - - [10/Jul/2018:11:23:13 -0400] "POST /myapplication/servlet/com.example.myapplication.MyUI$MyUIServlet?v-1531236189728 HTTP/1.1" 200 6046
0:0:0:0:0:0:0:1 - - [10/Jul/2018:11:23:13 -0400] "GET /myapplication/VAADIN/themes/valo/fonts/open-sans/OpenSans-Light-webfont.woff HTTP/1.1" 200 22248
0:0:0:0:0:0:0:1 - - [10/Jul/2018:11:23:13 -0400] "GET /myapplication/VAADIN/themes/valo/fonts/open-sans/OpenSans-Regular-webfont.woff HTTP/1.1" 200 22660
0:0:0:0:0:0:0:1 - - [10/Jul/2018:11:23:13 -0400] "GET /myapplication/VAADIN/widgetsets/com.vaadin.DefaultWidgetSet/deferredjs/5261D6BEE375FB843C1757C3A6B56D47/8.cache.js HTTP/1.1" 200 1205
0:0:0:0:0:0:0:1 - - [10/Jul/2018:11:23:13 -0400] "POST /myapplication/UIDL/?v-uiId=0 HTTP/1.1" 200 137
0:0:0:0:0:0:0:1 - - [10/Jul/2018:11:23:13 -0400] "GET /myapplication/VAADIN/widgetsets/com.vaadin.DefaultWidgetSet/deferredjs/5261D6BEE375FB843C1757C3A6B56D47/2.cache.js HTTP/1.1" 200 183
0:0:0:0:0:0:0:1 - - [10/Jul/2018:11:23:16 -0400] "POST /myapplication/UIDL/?v-uiId=0 HTTP/1.1" 200 191
0:0:0:0:0:0:0:1 - - [10/Jul/2018:11:23:16 -0400] "POST /myapplication/UIDL/?v-uiId=0 HTTP/1.1" 200 137
0:0:0:0:0:0:0:1 - - [10/Jul/2018:11:23:18 -0400] "POST /myapplication/UIDL/?v-uiId=0 HTTP/1.1" 200 190
0:0:0:0:0:0:0:1 - - [10/Jul/2018:11:23:18 -0400] "POST /myapplication/UIDL/?v-uiId=0 HTTP/1.1" 200 5458
0:0:0:0:0:0:0:1 - - [10/Jul/2018:11:23:18 -0400] "GET /myapplication/VAADIN/themes/valo/fonts/themeicons-webfont/themeicons-webfont.woff HTTP/1.1" 200 7868
0:0:0:0:0:0:0:1 - - [10/Jul/2018:11:23:18 -0400] "GET /myapplication/VAADIN/themes/valo/fonts/open-sans/OpenSans-Semibold-webfont.woff HTTP/1.1" 200 22908
0:0:0:0:0:0:0:1 - - [10/Jul/2018:11:23:18 -0400] "GET /myapplication/VAADIN/themes/mytheme/imagens/logo-prosaude.png HTTP/1.1" 200 21928
0:0:0:0:0:0:0:1 - - [10/Jul/2018:11:23:21 -0400] "POST /myapplication/UIDL/?v-uiId=0 HTTP/1.1" 200 9156
0:0:0:0:0:0:0:1 - - [10/Jul/2018:11:23:21 -0400] "GET /myapplication/VAADIN/themes/valo/fonts/fontawesome-webfont/fontawesome-webfont.woff HTTP/1.1" 200 83588
0:0:0:0:0:0:0:1 - - [10/Jul/2018:11:23:21 -0400] "GET /myapplication/VAADIN/themes/mytheme/imagens/library/update.png HTTP/1.1" 200 450
0:0:0:0:0:0:0:1 - - [10/Jul/2018:11:23:21 -0400] "GET /myapplication/VAADIN/themes/mytheme/imagens/library/delete.png HTTP/1.1" 200 715
0:0:0:0:0:0:0:1 - - [10/Jul/2018:11:23:21 -0400] "GET /myapplication/VAADIN/themes/mytheme/imagens/library/insert.png HTTP/1.1" 200 733
0:0:0:0:0:0:0:1 - - [10/Jul/2018:11:23:21 -0400] "GET /myapplication/VAADIN/themes/mytheme/imagens/library/find.png HTTP/1.1" 200 659
0:0:0:0:0:0:0:1 - - [10/Jul/2018:11:23:21 -0400] "GET /myapplication/VAADIN/themes/mytheme/imagens/library/print.png HTTP/1.1" 200 48290
0:0:0:0:0:0:0:1 - - [10/Jul/2018:11:23:25 -0400] "POST /myapplication/UIDL/?v-uiId=0 HTTP/1.1" 200 451
0:0:0:0:0:0:0:1 - - [10/Jul/2018:11:23:29 -0400] "POST /myapplication/UIDL/?v-uiId=0 HTTP/1.1" 200 2923
0:0:0:0:0:0:0:1 - - [10/Jul/2018:11:23:32 -0400] "POST /myapplication/UIDL/?v-uiId=0 HTTP/1.1" 200 2792
0:0:0:0:0:0:0:1 - - [10/Jul/2018:11:23:34 -0400] "POST /myapplication/UIDL/?v-uiId=0 HTTP/1.1" 200 8343
0:0:0:0:0:0:0:1 - - [10/Jul/2018:11:23:34 -0400] "GET /myapplication/VAADIN/themes/mytheme/imagens/library/cancel.png HTTP/1.1" 200 587
0:0:0:0:0:0:0:1 - - [10/Jul/2018:11:23:34 -0400] "GET /myapplication/VAADIN/themes/mytheme/imagens/library/filter_del.png HTTP/1.1" 200 1207
0:0:0:0:0:0:0:1 - - [10/Jul/2018:11:23:37 -0400] "POST /myapplication/UIDL/?v-uiId=0 HTTP/1.1" 200 442
0:0:0:0:0:0:0:1 - - [10/Jul/2018:11:23:38 -0400] "POST /myapplication/UIDL/?v-uiId=0 HTTP/1.1" 200 139
0:0:0:0:0:0:0:1 - - [10/Jul/2018:11:23:38 -0400] "POST /myapplication/UIDL/?v-uiId=0 HTTP/1.1" 200 1238
0:0:0:0:0:0:0:1 - - [10/Jul/2018:11:23:39 -0400] "POST /myapplication/UIDL/?v-uiId=0 HTTP/1.1" 200 446
0:0:0:0:0:0:0:1 - - [10/Jul/2018:11:23:40 -0400] "POST /myapplication/UIDL/?v-uiId=0 HTTP/1.1" 200 7626
0:0:0:0:0:0:0:1 - - [10/Jul/2018:11:23:40 -0400] "GET /myapplication/VAADIN/themes/mytheme/imagens/library/disk.png HTTP/1.1" 200 620
0:0:0:0:0:0:0:1 - - [10/Jul/2018:11:28:13 -0400] "POST /myapplication/HEARTBEAT/?v-uiId=0 HTTP/1.1" 200 -
0:0:0:0:0:0:0:1 - - [10/Jul/2018:11:31:58 -0400] "GET /myapplication/servlet/com.example.myapplication.MyUI$MyUIServlet HTTP/1.1" 200 1861
0:0:0:0:0:0:0:1 - - [10/Jul/2018:11:31:58 -0400] "GET /myapplication/VAADIN/vaadinBootstrap.js?v=8.4.0 HTTP/1.1" 200 3837
0:0:0:0:0:0:0:1 - - [10/Jul/2018:11:31:58 -0400] "GET /myapplication/VAADIN/widgetsets/com.vaadin.DefaultWidgetSet/com.vaadin.DefaultWidgetSet.nocache.js?1531236718226 HTTP/1.1" 200 3231
0:0:0:0:0:0:0:1 - - [10/Jul/2018:11:31:58 -0400] "GET /myapplication/VAADIN/themes/mytheme/styles.css?v=8.4.0 HTTP/1.1" 200 380611
0:0:0:0:0:0:0:1 - - [10/Jul/2018:11:31:58 -0400] "GET /myapplication/VAADIN/widgetsets/com.vaadin.DefaultWidgetSet/5261D6BEE375FB843C1757C3A6B56D47.cache.js HTTP/1.1" 200 355903
0:0:0:0:0:0:0:1 - - [10/Jul/2018:11:31:58 -0400] "GET /favicon.ico HTTP/1.1" 404 973
0:0:0:0:0:0:0:1 - - [10/Jul/2018:11:31:59 -0400] "POST /myapplication/servlet/com.example.myapplication.MyUI$MyUIServlet?v-1531236718226 HTTP/1.1" 200 6045
0:0:0:0:0:0:0:1 - - [10/Jul/2018:11:31:59 -0400] "GET /myapplication/VAADIN/widgetsets/com.vaadin.DefaultWidgetSet/deferredjs/5261D6BEE375FB843C1757C3A6B56D47/8.cache.js HTTP/1.1" 200 1205
0:0:0:0:0:0:0:1 - - [10/Jul/2018:11:31:59 -0400] "POST /myapplication/UIDL/?v-uiId=0 HTTP/1.1" 200 137
0:0:0:0:0:0:0:1 - - [10/Jul/2018:11:31:59 -0400] "GET /myapplication/VAADIN/widgetsets/com.vaadin.DefaultWidgetSet/deferredjs/5261D6BEE375FB843C1757C3A6B56D47/2.cache.js HTTP/1.1" 200 183
0:0:0:0:0:0:0:1 - - [10/Jul/2018:11:32:02 -0400] "POST /myapplication/UIDL/?v-uiId=0 HTTP/1.1" 200 190
0:0:0:0:0:0:0:1 - - [10/Jul/2018:11:32:02 -0400] "POST /myapplication/UIDL/?v-uiId=0 HTTP/1.1" 200 137
0:0:0:0:0:0:0:1 - - [10/Jul/2018:11:32:04 -0400] "POST /myapplication/UIDL/?v-uiId=0 HTTP/1.1" 200 310
0:0:0:0:0:0:0:1 - - [10/Jul/2018:11:32:04 -0400] "POST /myapplication/UIDL/?v-uiId=0 HTTP/1.1" 200 211
0:0:0:0:0:0:0:1 - - [10/Jul/2018:11:32:07 -0400] "POST /myapplication/UIDL/?v-uiId=0 HTTP/1.1" 200 211
0:0:0:0:0:0:0:1 - - [10/Jul/2018:11:32:09 -0400] "POST /myapplication/UIDL/?v-uiId=0 HTTP/1.1" 200 211
0:0:0:0:0:0:0:1 - - [10/Jul/2018:11:32:13 -0400] "POST /myapplication/UIDL/?v-uiId=0 HTTP/1.1" 200 211
0:0:0:0:0:0:0:1 - - [10/Jul/2018:11:32:17 -0400] "POST /myapplication/UIDL/?v-uiId=0 HTTP/1.1" 200 137
0:0:0:0:0:0:0:1 - - [10/Jul/2018:11:32:19 -0400] "POST /myapplication/UIDL/?v-uiId=0 HTTP/1.1" 200 213
0:0:0:0:0:0:0:1 - - [10/Jul/2018:11:32:22 -0400] "POST /myapplication/UIDL/?v-uiId=0 HTTP/1.1" 200 269
0:0:0:0:0:0:0:1 - - [10/Jul/2018:11:32:22 -0400] "POST /myapplication/UIDL/?v-uiId=0 HTTP/1.1" 200 5460
0:0:0:0:0:0:0:1 - - [10/Jul/2018:11:32:22 -0400] "GET /myapplication/VAADIN/themes/valo/fonts/themeicons-webfont/themeicons-webfont.woff HTTP/1.1" 200 7868
0:0:0:0:0:0:0:1 - - [10/Jul/2018:11:32:24 -0400] "POST /myapplication/UIDL/?v-uiId=0 HTTP/1.1" 200 9158
0:0:0:0:0:0:0:1 - - [10/Jul/2018:11:32:26 -0400] "POST /myapplication/UIDL/?v-uiId=0 HTTP/1.1" 200 8343
0:0:0:0:0:0:0:1 - - [10/Jul/2018:11:32:26 -0400] "GET /myapplication/VAADIN/themes/mytheme/imagens/library/filter_del.png HTTP/1.1" 200 1207
0:0:0:0:0:0:0:1 - - [10/Jul/2018:11:32:29 -0400] "POST /myapplication/UIDL/?v-uiId=0 HTTP/1.1" 200 441
0:0:0:0:0:0:0:1 - - [10/Jul/2018:11:32:30 -0400] "POST /myapplication/UIDL/?v-uiId=0 HTTP/1.1" 200 139
0:0:0:0:0:0:0:1 - - [10/Jul/2018:11:32:31 -0400] "POST /myapplication/UIDL/?v-uiId=0 HTTP/1.1" 200 1044
0:0:0:0:0:0:0:1 - - [10/Jul/2018:11:32:32 -0400] "POST /myapplication/UIDL/?v-uiId=0 HTTP/1.1" 200 446
0:0:0:0:0:0:0:1 - - [10/Jul/2018:11:32:32 -0400] "POST /myapplication/UIDL/?v-uiId=0 HTTP/1.1" 200 7626
0:0:0:0:0:0:0:1 - - [10/Jul/2018:11:36:01 -0400] "GET /myapplication/servlet/com.example.myapplication.MyUI$MyUIServlet HTTP/1.1" 200 1861
0:0:0:0:0:0:0:1 - - [10/Jul/2018:11:36:01 -0400] "GET /myapplication/VAADIN/widgetsets/com.vaadin.DefaultWidgetSet/com.vaadin.DefaultWidgetSet.nocache.js?1531236961332 HTTP/1.1" 200 3231
0:0:0:0:0:0:0:1 - - [10/Jul/2018:11:36:02 -0400] "POST /myapplication/servlet/com.example.myapplication.MyUI$MyUIServlet?v-1531236961332 HTTP/1.1" 200 6045
0:0:0:0:0:0:0:1 - - [10/Jul/2018:11:36:03 -0400] "POST /myapplication/UIDL/?v-uiId=0 HTTP/1.1" 200 137
0:0:0:0:0:0:0:1 - - [10/Jul/2018:11:36:37 -0400] "POST /myapplication/UIDL/?v-uiId=0 HTTP/1.1" 200 190
0:0:0:0:0:0:0:1 - - [10/Jul/2018:11:36:37 -0400] "POST /myapplication/UIDL/?v-uiId=0 HTTP/1.1" 200 137
0:0:0:0:0:0:0:1 - - [10/Jul/2018:11:36:38 -0400] "POST /myapplication/UIDL/?v-uiId=0 HTTP/1.1" 200 191
0:0:0:0:0:0:0:1 - - [10/Jul/2018:11:36:38 -0400] "POST /myapplication/UIDL/?v-uiId=0 HTTP/1.1" 200 5460
0:0:0:0:0:0:0:1 - - [10/Jul/2018:11:36:38 -0400] "GET /myapplication/VAADIN/themes/valo/fonts/open-sans/OpenSans-Semibold-webfont.woff HTTP/1.1" 200 22908
0:0:0:0:0:0:0:1 - - [10/Jul/2018:11:36:40 -0400] "POST /myapplication/UIDL/?v-uiId=0 HTTP/1.1" 200 9158
0:0:0:0:0:0:0:1 - - [10/Jul/2018:11:36:40 -0400] "GET /myapplication/VAADIN/themes/valo/fonts/fontawesome-webfont/fontawesome-webfont.woff HTTP/1.1" 200 83588
0:0:0:0:0:0:0:1 - - [10/Jul/2018:11:37:48 -0400] "POST /myapplication/UIDL/?v-uiId=0 HTTP/1.1" 200 8338
0:0:0:0:0:0:0:1 - - [10/Jul/2018:11:37:48 -0400] "GET /myapplication/VAADIN/themes/mytheme/imagens/library/cancel.png HTTP/1.1" 200 587
0:0:0:0:0:0:0:1 - - [10/Jul/2018:11:37:48 -0400] "GET /myapplication/VAADIN/themes/mytheme/imagens/library/filter_del.png HTTP/1.1" 200 1207
0:0:0:0:0:0:0:1 - - [10/Jul/2018:11:37:51 -0400] "POST /myapplication/UIDL/?v-uiId=0 HTTP/1.1" 200 377
0:0:0:0:0:0:0:1 - - [10/Jul/2018:11:37:51 -0400] "GET /myapplication/servlet/com.example.myapplication.MyUI$MyUIServlet HTTP/1.1" 200 1861
0:0:0:0:0:0:0:1 - - [10/Jul/2018:11:37:51 -0400] "POST /myapplication/UIDL/?v-uiId=0 HTTP/1.1" 200 137
0:0:0:0:0:0:0:1 - - [10/Jul/2018:11:37:51 -0400] "GET /myapplication/VAADIN/widgetsets/com.vaadin.DefaultWidgetSet/com.vaadin.DefaultWidgetSet.nocache.js?1531237071850 HTTP/1.1" 200 3231
0:0:0:0:0:0:0:1 - - [10/Jul/2018:11:37:52 -0400] "POST /myapplication/servlet/com.example.myapplication.MyUI$MyUIServlet?v-1531237071850 HTTP/1.1" 200 6196
0:0:0:0:0:0:0:1 - - [10/Jul/2018:11:37:52 -0400] "POST /myapplication/UIDL/?v-uiId=1 HTTP/1.1" 200 137
0:0:0:0:0:0:0:1 - - [10/Jul/2018:11:37:55 -0400] "POST /myapplication/UIDL/?v-uiId=1 HTTP/1.1" 200 197
0:0:0:0:0:0:0:1 - - [10/Jul/2018:11:37:55 -0400] "POST /myapplication/UIDL/?v-uiId=1 HTTP/1.1" 200 137
0:0:0:0:0:0:0:1 - - [10/Jul/2018:11:37:56 -0400] "POST /myapplication/UIDL/?v-uiId=1 HTTP/1.1" 200 198
0:0:0:0:0:0:0:1 - - [10/Jul/2018:11:37:56 -0400] "POST /myapplication/UIDL/?v-uiId=1 HTTP/1.1" 200 5586
0:0:0:0:0:0:0:1 - - [10/Jul/2018:11:37:57 -0400] "POST /myapplication/UIDL/?v-uiId=1 HTTP/1.1" 200 9271
0:0:0:0:0:0:0:1 - - [10/Jul/2018:11:37:59 -0400] "POST /myapplication/UIDL/?v-uiId=1 HTTP/1.1" 200 465
0:0:0:0:0:0:0:1 - - [10/Jul/2018:11:37:59 -0400] "POST /myapplication/UIDL/?v-uiId=1 HTTP/1.1" 200 8905
0:0:0:0:0:0:0:1 - - [10/Jul/2018:11:37:59 -0400] "GET /myapplication/VAADIN/themes/mytheme/imagens/library/disk.png HTTP/1.1" 200 620
127.0.0.1 - - [10/Jul/2018:11:40:56 -0400] "GET / HTTP/1.1" 404 951
0:0:0:0:0:0:0:1 - - [10/Jul/2018:11:40:56 -0400] "GET /myapplication/servlet/com.example.myapplication.MyUI$MyUIServlet HTTP/1.1" 200 1912
0:0:0:0:0:0:0:1 - - [10/Jul/2018:11:41:10 -0400] "GET /myapplication/servlet/com.example.myapplication.MyUI$MyUIServlet HTTP/1.1" 200 1861
0:0:0:0:0:0:0:1 - - [10/Jul/2018:11:41:10 -0400] "GET /myapplication/VAADIN/widgetsets/com.vaadin.DefaultWidgetSet/com.vaadin.DefaultWidgetSet.nocache.js?1531237270262 HTTP/1.1" 200 3231
0:0:0:0:0:0:0:1 - - [10/Jul/2018:11:41:12 -0400] "POST /myapplication/servlet/com.example.myapplication.MyUI$MyUIServlet?v-1531237270262 HTTP/1.1" 200 6045
0:0:0:0:0:0:0:1 - - [10/Jul/2018:11:41:12 -0400] "POST /myapplication/UIDL/?v-uiId=0 HTTP/1.1" 200 137
0:0:0:0:0:0:0:1 - - [10/Jul/2018:11:41:14 -0400] "POST /myapplication/UIDL/?v-uiId=0 HTTP/1.1" 200 190
0:0:0:0:0:0:0:1 - - [10/Jul/2018:11:41:14 -0400] "POST /myapplication/UIDL/?v-uiId=0 HTTP/1.1" 200 137
0:0:0:0:0:0:0:1 - - [10/Jul/2018:11:41:15 -0400] "POST /myapplication/UIDL/?v-uiId=0 HTTP/1.1" 200 190
0:0:0:0:0:0:0:1 - - [10/Jul/2018:11:41:15 -0400] "POST /myapplication/UIDL/?v-uiId=0 HTTP/1.1" 200 5460
0:0:0:0:0:0:0:1 - - [10/Jul/2018:11:41:42 -0400] "POST /myapplication/UIDL/?v-uiId=0 HTTP/1.1" 200 9158
0:0:0:0:0:0:0:1 - - [10/Jul/2018:11:41:42 -0400] "GET /myapplication/VAADIN/themes/valo/fonts/fontawesome-webfont/fontawesome-webfont.woff HTTP/1.1" 200 83588
0:0:0:0:0:0:0:1 - - [10/Jul/2018:11:41:44 -0400] "POST /myapplication/UIDL/?v-uiId=0 HTTP/1.1" 200 8945
0:0:0:0:0:0:0:1 - - [10/Jul/2018:11:41:46 -0400] "POST /myapplication/UIDL/?v-uiId=0 HTTP/1.1" 200 201
0:0:0:0:0:0:0:1 - - [10/Jul/2018:11:41:47 -0400] "POST /myapplication/UIDL/?v-uiId=0 HTTP/1.1" 200 7569
0:0:0:0:0:0:0:1 - - [10/Jul/2018:11:41:48 -0400] "GET /myapplication/VAADIN/themes/mytheme/imagens/library/filter_del.png HTTP/1.1" 200 1207
0:0:0:0:0:0:0:1 - - [10/Jul/2018:11:41:51 -0400] "POST /myapplication/UIDL/?v-uiId=0 HTTP/1.1" 200 441
0:0:0:0:0:0:0:1 - - [10/Jul/2018:11:41:52 -0400] "POST /myapplication/UIDL/?v-uiId=0 HTTP/1.1" 200 139
0:0:0:0:0:0:0:1 - - [10/Jul/2018:11:41:53 -0400] "POST /myapplication/UIDL/?v-uiId=0 HTTP/1.1" 200 1044
0:0:0:0:0:0:0:1 - - [10/Jul/2018:11:41:53 -0400] "POST /myapplication/UIDL/?v-uiId=0 HTTP/1.1" 200 446
0:0:0:0:0:0:0:1 - - [10/Jul/2018:11:41:54 -0400] "POST /myapplication/UIDL/?v-uiId=0 HTTP/1.1" 200 8266
0:0:0:0:0:0:0:1 - - [10/Jul/2018:11:41:59 -0400] "POST /myapplication/UIDL/?v-uiId=0 HTTP/1.1" 200 479
0:0:0:0:0:0:0:1 - - [10/Jul/2018:11:42:11 -0400] "POST /myapplication/UIDL/?v-uiId=0 HTTP/1.1" 200 725
0:0:0:0:0:0:0:1 - - [10/Jul/2018:11:42:13 -0400] "POST /myapplication/UIDL/?v-uiId=0 HTTP/1.1" 200 8290
0:0:0:0:0:0:0:1 - - [10/Jul/2018:11:42:53 -0400] "POST /myapplication/UIDL/?v-uiId=0 HTTP/1.1" 200 725
0:0:0:0:0:0:0:1 - - [10/Jul/2018:11:42:55 -0400] "POST /myapplication/UIDL/?v-uiId=0 HTTP/1.1" 200 8290
0:0:0:0:0:0:0:1 - - [10/Jul/2018:11:44:01 -0400] "POST /myapplication/UIDL/?v-uiId=0 HTTP/1.1" 200 235
0:0:0:0:0:0:0:1 - - [10/Jul/2018:11:44:03 -0400] "GET /myapplication/servlet/com.example.myapplication.MyUI$MyUIServlet HTTP/1.1" 200 1861
0:0:0:0:0:0:0:1 - - [10/Jul/2018:11:44:03 -0400] "GET /myapplication/VAADIN/widgetsets/com.vaadin.DefaultWidgetSet/com.vaadin.DefaultWidgetSet.nocache.js?1531237443546 HTTP/1.1" 200 3231
0:0:0:0:0:0:0:1 - - [10/Jul/2018:11:44:04 -0400] "POST /myapplication/servlet/com.example.myapplication.MyUI$MyUIServlet?v-1531237443546 HTTP/1.1" 200 6045
0:0:0:0:0:0:0:1 - - [10/Jul/2018:11:44:05 -0400] "POST /myapplication/UIDL/?v-uiId=0 HTTP/1.1" 200 137
0:0:0:0:0:0:0:1 - - [10/Jul/2018:11:44:08 -0400] "POST /myapplication/UIDL/?v-uiId=0 HTTP/1.1" 200 190
0:0:0:0:0:0:0:1 - - [10/Jul/2018:11:44:08 -0400] "POST /myapplication/UIDL/?v-uiId=0 HTTP/1.1" 200 137
0:0:0:0:0:0:0:1 - - [10/Jul/2018:11:44:09 -0400] "POST /myapplication/UIDL/?v-uiId=0 HTTP/1.1" 200 190
0:0:0:0:0:0:0:1 - - [10/Jul/2018:11:44:09 -0400] "POST /myapplication/UIDL/?v-uiId=0 HTTP/1.1" 200 5458
0:0:0:0:0:0:0:1 - - [10/Jul/2018:11:44:11 -0400] "POST /myapplication/UIDL/?v-uiId=0 HTTP/1.1" 200 9156
0:0:0:0:0:0:0:1 - - [10/Jul/2018:11:44:13 -0400] "POST /myapplication/UIDL/?v-uiId=0 HTTP/1.1" 200 8339
0:0:0:0:0:0:0:1 - - [10/Jul/2018:11:44:14 -0400] "POST /myapplication/UIDL/?v-uiId=0 HTTP/1.1" 200 201
0:0:0:0:0:0:0:1 - - [10/Jul/2018:11:44:15 -0400] "POST /myapplication/UIDL/?v-uiId=0 HTTP/1.1" 200 443
0:0:0:0:0:0:0:1 - - [10/Jul/2018:11:44:16 -0400] "POST /myapplication/UIDL/?v-uiId=0 HTTP/1.1" 200 8290
0:0:0:0:0:0:0:1 - - [10/Jul/2018:11:44:23 -0400] "POST /myapplication/UIDL/?v-uiId=0 HTTP/1.1" 200 2774
0:0:0:0:0:0:0:1 - - [10/Jul/2018:11:44:38 -0400] "POST /myapplication/UIDL/?v-uiId=0 HTTP/1.1" 200 11954
0:0:0:0:0:0:0:1 - - [10/Jul/2018:11:44:40 -0400] "POST /myapplication/UIDL/?v-uiId=0 HTTP/1.1" 200 24623
0:0:0:0:0:0:0:1 - - [10/Jul/2018:11:44:40 -0400] "POST /myapplication/UIDL/?v-uiId=0 HTTP/1.1" 200 525
0:0:0:0:0:0:0:1 - - [10/Jul/2018:11:44:42 -0400] "POST /myapplication/UIDL/?v-uiId=0 HTTP/1.1" 200 286
0:0:0:0:0:0:0:1 - - [10/Jul/2018:11:44:42 -0400] "POST /myapplication/UIDL/?v-uiId=0 HTTP/1.1" 200 3300
0:0:0:0:0:0:0:1 - - [10/Jul/2018:11:44:42 -0400] "POST /myapplication/UIDL/?v-uiId=0 HTTP/1.1" 200 286
0:0:0:0:0:0:0:1 - - [10/Jul/2018:11:44:42 -0400] "POST /myapplication/UIDL/?v-uiId=0 HTTP/1.1" 200 3300
0:0:0:0:0:0:0:1 - - [10/Jul/2018:11:44:42 -0400] "POST /myapplication/UIDL/?v-uiId=0 HTTP/1.1" 200 286
0:0:0:0:0:0:0:1 - - [10/Jul/2018:11:44:42 -0400] "POST /myapplication/UIDL/?v-uiId=0 HTTP/1.1" 200 916
0:0:0:0:0:0:0:1 - - [10/Jul/2018:11:44:42 -0400] "POST /myapplication/UIDL/?v-uiId=0 HTTP/1.1" 200 287
0:0:0:0:0:0:0:1 - - [10/Jul/2018:11:44:42 -0400] "POST /myapplication/UIDL/?v-uiId=0 HTTP/1.1" 200 358
0:0:0:0:0:0:0:1 - - [10/Jul/2018:11:44:42 -0400] "POST /myapplication/UIDL/?v-uiId=0 HTTP/1.1" 200 289
0:0:0:0:0:0:0:1 - - [10/Jul/2018:11:44:42 -0400] "POST /myapplication/UIDL/?v-uiId=0 HTTP/1.1" 200 358
0:0:0:0:0:0:0:1 - - [10/Jul/2018:11:44:43 -0400] "POST /myapplication/UIDL/?v-uiId=0 HTTP/1.1" 200 626
0:0:0:0:0:0:0:1 - - [10/Jul/2018:11:44:45 -0400] "POST /myapplication/UIDL/?v-uiId=0 HTTP/1.1" 200 139
0:0:0:0:0:0:0:1 - - [10/Jul/2018:11:44:45 -0400] "POST /myapplication/UIDL/?v-uiId=0 HTTP/1.1" 200 285
0:0:0:0:0:0:0:1 - - [10/Jul/2018:11:44:45 -0400] "POST /myapplication/UIDL/?v-uiId=0 HTTP/1.1" 200 2270
0:0:0:0:0:0:0:1 - - [10/Jul/2018:11:44:46 -0400] "POST /myapplication/UIDL/?v-uiId=0 HTTP/1.1" 200 285
0:0:0:0:0:0:0:1 - - [10/Jul/2018:11:44:46 -0400] "POST /myapplication/UIDL/?v-uiId=0 HTTP/1.1" 200 1759
0:0:0:0:0:0:0:1 - - [10/Jul/2018:11:44:46 -0400] "POST /myapplication/UIDL/?v-uiId=0 HTTP/1.1" 200 285
0:0:0:0:0:0:0:1 - - [10/Jul/2018:11:44:46 -0400] "POST /myapplication/UIDL/?v-uiId=0 HTTP/1.1" 200 255
0:0:0:0:0:0:0:1 - - [10/Jul/2018:11:44:47 -0400] "POST /myapplication/UIDL/?v-uiId=0 HTTP/1.1" 200 266
0:0:0:0:0:0:0:1 - - [10/Jul/2018:11:44:49 -0400] "POST /myapplication/UIDL/?v-uiId=0 HTTP/1.1" 200 139
0:0:0:0:0:0:0:1 - - [10/Jul/2018:11:44:49 -0400] "POST /myapplication/UIDL/?v-uiId=0 HTTP/1.1" 200 9212
0:0:0:0:0:0:0:1 - - [10/Jul/2018:11:44:59 -0400] "POST /myapplication/UIDL/?v-uiId=0 HTTP/1.1" 200 209
0:0:0:0:0:0:0:1 - - [10/Jul/2018:11:45:01 -0400] "POST /myapplication/UIDL/?v-uiId=0 HTTP/1.1" 200 8587
0:0:0:0:0:0:0:1 - - [10/Jul/2018:11:45:05 -0400] "POST /myapplication/UIDL/?v-uiId=0 HTTP/1.1" 200 596
0:0:0:0:0:0:0:1 - - [10/Jul/2018:11:45:14 -0400] "POST /myapplication/UIDL/?v-uiId=0 HTTP/1.1" 200 343
0:0:0:0:0:0:0:1 - - [10/Jul/2018:11:45:14 -0400] "POST /myapplication/UIDL/?v-uiId=0 HTTP/1.1" 200 352
0:0:0:0:0:0:0:1 - - [10/Jul/2018:11:45:35 -0400] "POST /myapplication/UIDL/?v-uiId=0 HTTP/1.1" 200 3147
0:0:0:0:0:0:0:1 - - [10/Jul/2018:11:45:40 -0400] "POST /myapplication/UIDL/?v-uiId=0 HTTP/1.1" 200 139
0:0:0:0:0:0:0:1 - - [10/Jul/2018:11:45:47 -0400] "POST /myapplication/UIDL/?v-uiId=0 HTTP/1.1" 200 726
0:0:0:0:0:0:0:1 - - [10/Jul/2018:11:46:08 -0400] "POST /myapplication/UIDL/?v-uiId=0 HTTP/1.1" 200 5511
0:0:0:0:0:0:0:1 - - [10/Jul/2018:11:46:10 -0400] "POST /myapplication/UIDL/?v-uiId=0 HTTP/1.1" 200 18825
0:0:0:0:0:0:0:1 - - [10/Jul/2018:11:46:10 -0400] "POST /myapplication/UIDL/?v-uiId=0 HTTP/1.1" 200 527
0:0:0:0:0:0:0:1 - - [10/Jul/2018:11:46:13 -0400] "POST /myapplication/UIDL/?v-uiId=0 HTTP/1.1" 200 203
0:0:0:0:0:0:0:1 - - [10/Jul/2018:11:48:19 -0400] "GET /myapplication/servlet/com.example.myapplication.MyUI$MyUIServlet HTTP/1.1" 200 1861
0:0:0:0:0:0:0:1 - - [10/Jul/2018:11:48:19 -0400] "GET /myapplication/VAADIN/widgetsets/com.vaadin.DefaultWidgetSet/com.vaadin.DefaultWidgetSet.nocache.js?1531237699942 HTTP/1.1" 200 3231
0:0:0:0:0:0:0:1 - - [10/Jul/2018:11:48:21 -0400] "POST /myapplication/servlet/com.example.myapplication.MyUI$MyUIServlet?v-1531237699942 HTTP/1.1" 200 6046
0:0:0:0:0:0:0:1 - - [10/Jul/2018:11:48:21 -0400] "POST /myapplication/UIDL/?v-uiId=0 HTTP/1.1" 200 137
0:0:0:0:0:0:0:1 - - [10/Jul/2018:11:48:29 -0400] "POST /myapplication/UIDL/?v-uiId=0 HTTP/1.1" 200 191
0:0:0:0:0:0:0:1 - - [10/Jul/2018:11:48:29 -0400] "POST /myapplication/UIDL/?v-uiId=0 HTTP/1.1" 200 137
0:0:0:0:0:0:0:1 - - [10/Jul/2018:11:48:31 -0400] "POST /myapplication/UIDL/?v-uiId=0 HTTP/1.1" 200 190
0:0:0:0:0:0:0:1 - - [10/Jul/2018:11:48:31 -0400] "POST /myapplication/UIDL/?v-uiId=0 HTTP/1.1" 200 5458
0:0:0:0:0:0:0:1 - - [10/Jul/2018:11:48:51 -0400] "POST /myapplication/UIDL/?v-uiId=0 HTTP/1.1" 200 9156
0:0:0:0:0:0:0:1 - - [10/Jul/2018:11:48:51 -0400] "GET /myapplication/VAADIN/themes/mytheme/imagens/library/delete.png HTTP/1.1" 200 715
0:0:0:0:0:0:0:1 - - [10/Jul/2018:11:48:51 -0400] "GET /myapplication/VAADIN/themes/valo/fonts/fontawesome-webfont/fontawesome-webfont.woff HTTP/1.1" 200 83588
0:0:0:0:0:0:0:1 - - [10/Jul/2018:11:48:53 -0400] "POST /myapplication/UIDL/?v-uiId=0 HTTP/1.1" 200 443
0:0:0:0:0:0:0:1 - - [10/Jul/2018:11:48:54 -0400] "POST /myapplication/UIDL/?v-uiId=0 HTTP/1.1" 200 7656
0:0:0:0:0:0:0:1 - - [10/Jul/2018:11:50:54 -0400] "GET /myapplication/servlet/com.example.myapplication.MyUI$MyUIServlet HTTP/1.1" 200 1861
0:0:0:0:0:0:0:1 - - [10/Jul/2018:11:50:54 -0400] "GET /myapplication/VAADIN/widgetsets/com.vaadin.DefaultWidgetSet/com.vaadin.DefaultWidgetSet.nocache.js?1531237854610 HTTP/1.1" 200 3231
0:0:0:0:0:0:0:1 - - [10/Jul/2018:11:50:56 -0400] "POST /myapplication/servlet/com.example.myapplication.MyUI$MyUIServlet?v-1531237854610 HTTP/1.1" 200 6045
0:0:0:0:0:0:0:1 - - [10/Jul/2018:11:50:56 -0400] "POST /myapplication/UIDL/?v-uiId=0 HTTP/1.1" 200 137
0:0:0:0:0:0:0:1 - - [10/Jul/2018:11:51:22 -0400] "POST /myapplication/UIDL/?v-uiId=0 HTTP/1.1" 200 190
0:0:0:0:0:0:0:1 - - [10/Jul/2018:11:51:22 -0400] "POST /myapplication/UIDL/?v-uiId=0 HTTP/1.1" 200 137
0:0:0:0:0:0:0:1 - - [10/Jul/2018:11:51:23 -0400] "POST /myapplication/UIDL/?v-uiId=0 HTTP/1.1" 200 191
0:0:0:0:0:0:0:1 - - [10/Jul/2018:11:51:23 -0400] "POST /myapplication/UIDL/?v-uiId=0 HTTP/1.1" 200 5458
0:0:0:0:0:0:0:1 - - [10/Jul/2018:11:51:25 -0400] "POST /myapplication/UIDL/?v-uiId=0 HTTP/1.1" 200 9156
0:0:0:0:0:0:0:1 - - [10/Jul/2018:11:51:26 -0400] "POST /myapplication/UIDL/?v-uiId=0 HTTP/1.1" 200 443
0:0:0:0:0:0:0:1 - - [10/Jul/2018:11:51:27 -0400] "POST /myapplication/UIDL/?v-uiId=0 HTTP/1.1" 200 9603
0:0:0:0:0:0:0:1 - - [10/Jul/2018:11:51:27 -0400] "GET /myapplication/VAADIN/themes/mytheme/imagens/library/cancel.png HTTP/1.1" 200 587
0:0:0:0:0:0:0:1 - - [10/Jul/2018:11:51:27 -0400] "GET /myapplication/VAADIN/themes/mytheme/imagens/library/disk.png HTTP/1.1" 200 620
0:0:0:0:0:0:0:1 - - [10/Jul/2018:11:51:49 -0400] "POST /myapplication/UIDL/?v-uiId=0 HTTP/1.1" 200 475
0:0:0:0:0:0:0:1 - - [10/Jul/2018:11:51:52 -0400] "POST /myapplication/UIDL/?v-uiId=0 HTTP/1.1" 200 2774
0:0:0:0:0:0:0:1 - - [10/Jul/2018:11:51:53 -0400] "POST /myapplication/UIDL/?v-uiId=0 HTTP/1.1" 200 8858
0:0:0:0:0:0:0:1 - - [10/Jul/2018:11:52:05 -0400] "POST /myapplication/UIDL/?v-uiId=0 HTTP/1.1" 200 2774
0:0:0:0:0:0:0:1 - - [10/Jul/2018:11:52:08 -0400] "POST /myapplication/UIDL/?v-uiId=0 HTTP/1.1" 200 8858
0:0:0:0:0:0:0:1 - - [10/Jul/2018:11:52:09 -0400] "POST /myapplication/UIDL/?v-uiId=0 HTTP/1.1" 200 2774
0:0:0:0:0:0:0:1 - - [10/Jul/2018:11:52:54 -0400] "POST /myapplication/UIDL/?v-uiId=0 HTTP/1.1" 200 11964
0:0:0:0:0:0:0:1 - - [10/Jul/2018:11:52:57 -0400] "POST /myapplication/UIDL/?v-uiId=0 HTTP/1.1" 200 21769
0:0:0:0:0:0:0:1 - - [10/Jul/2018:11:53:01 -0400] "POST /myapplication/UIDL/?v-uiId=0 HTTP/1.1" 200 381
0:0:0:0:0:0:0:1 - - [10/Jul/2018:11:53:28 -0400] "POST /myapplication/UIDL/?v-uiId=0 HTTP/1.1" 200 235
0:0:0:0:0:0:0:1 - - [10/Jul/2018:11:53:28 -0400] "GET /myapplication/servlet/com.example.myapplication.MyUI$MyUIServlet HTTP/1.1" 200 1861
0:0:0:0:0:0:0:1 - - [10/Jul/2018:11:53:28 -0400] "GET /myapplication/VAADIN/widgetsets/com.vaadin.DefaultWidgetSet/com.vaadin.DefaultWidgetSet.nocache.js?1531238008366 HTTP/1.1" 200 3231
0:0:0:0:0:0:0:1 - - [10/Jul/2018:11:53:28 -0400] "POST /myapplication/UIDL/?v-uiId=0 HTTP/1.1" 200 235
0:0:0:0:0:0:0:1 - - [10/Jul/2018:11:53:29 -0400] "POST /myapplication/servlet/com.example.myapplication.MyUI$MyUIServlet?v-1531238008368 HTTP/1.1" 200 6045
0:0:0:0:0:0:0:1 - - [10/Jul/2018:11:53:29 -0400] "POST /myapplication/UIDL/?v-uiId=0 HTTP/1.1" 200 137
0:0:0:0:0:0:0:1 - - [10/Jul/2018:11:53:51 -0400] "POST /myapplication/UIDL/?v-uiId=0 HTTP/1.1" 200 190
0:0:0:0:0:0:0:1 - - [10/Jul/2018:11:53:51 -0400] "POST /myapplication/UIDL/?v-uiId=0 HTTP/1.1" 200 137
0:0:0:0:0:0:0:1 - - [10/Jul/2018:11:53:53 -0400] "POST /myapplication/UIDL/?v-uiId=0 HTTP/1.1" 200 190
0:0:0:0:0:0:0:1 - - [10/Jul/2018:11:53:53 -0400] "POST /myapplication/UIDL/?v-uiId=0 HTTP/1.1" 200 5458
0:0:0:0:0:0:0:1 - - [10/Jul/2018:11:54:01 -0400] "POST /myapplication/UIDL/?v-uiId=0 HTTP/1.1" 200 12566
0:0:0:0:0:0:0:1 - - [10/Jul/2018:11:54:04 -0400] "POST /myapplication/UIDL/?v-uiId=0 HTTP/1.1" 200 24961
0:0:0:0:0:0:0:1 - - [10/Jul/2018:11:54:05 -0400] "POST /myapplication/UIDL/?v-uiId=0 HTTP/1.1" 200 523
0:0:0:0:0:0:0:1 - - [10/Jul/2018:11:54:07 -0400] "POST /myapplication/UIDL/?v-uiId=0 HTTP/1.1" 200 190
0:0:0:0:0:0:0:1 - - [10/Jul/2018:11:54:14 -0400] "POST /myapplication/UIDL/?v-uiId=0 HTTP/1.1" 200 139
0:0:0:0:0:0:0:1 - - [10/Jul/2018:11:54:53 -0400] "POST /myapplication/UIDL/?v-uiId=0 HTTP/1.1" 200 203
0:0:0:0:0:0:0:1 - - [10/Jul/2018:11:54:54 -0400] "POST /myapplication/UIDL/?v-uiId=0 HTTP/1.1" 200 23729
0:0:0:0:0:0:0:1 - - [10/Jul/2018:11:54:55 -0400] "POST /myapplication/UIDL/?v-uiId=0 HTTP/1.1" 200 525
0:0:0:0:0:0:0:1 - - [10/Jul/2018:11:54:56 -0400] "POST /myapplication/UIDL/?v-uiId=0 HTTP/1.1" 200 203
0:0:0:0:0:0:0:1 - - [10/Jul/2018:11:54:57 -0400] "POST /myapplication/UIDL/?v-uiId=0 HTTP/1.1" 200 23731
0:0:0:0:0:0:0:1 - - [10/Jul/2018:11:54:58 -0400] "POST /myapplication/UIDL/?v-uiId=0 HTTP/1.1" 200 527
0:0:0:0:0:0:0:1 - - [10/Jul/2018:11:57:09 -0400] "POST /myapplication/UIDL/?v-uiId=0 HTTP/1.1" 200 4742
0:0:0:0:0:0:0:1 - - [10/Jul/2018:11:57:39 -0400] "POST /myapplication/UIDL/?v-uiId=0 HTTP/1.1" 200 4742
0:0:0:0:0:0:0:1 - - [10/Jul/2018:11:58:19 -0400] "POST /myapplication/UIDL/?v-uiId=0 HTTP/1.1" 200 286
0:0:0:0:0:0:0:1 - - [10/Jul/2018:11:58:19 -0400] "POST /myapplication/UIDL/?v-uiId=0 HTTP/1.1" 200 3300
0:0:0:0:0:0:0:1 - - [10/Jul/2018:11:58:19 -0400] "POST /myapplication/UIDL/?v-uiId=0 HTTP/1.1" 200 286
0:0:0:0:0:0:0:1 - - [10/Jul/2018:11:58:19 -0400] "POST /myapplication/UIDL/?v-uiId=0 HTTP/1.1" 200 3300
0:0:0:0:0:0:0:1 - - [10/Jul/2018:11:58:19 -0400] "POST /myapplication/UIDL/?v-uiId=0 HTTP/1.1" 200 286
0:0:0:0:0:0:0:1 - - [10/Jul/2018:11:58:19 -0400] "POST /myapplication/UIDL/?v-uiId=0 HTTP/1.1" 200 916
0:0:0:0:0:0:0:1 - - [10/Jul/2018:11:58:19 -0400] "POST /myapplication/UIDL/?v-uiId=0 HTTP/1.1" 200 287
0:0:0:0:0:0:0:1 - - [10/Jul/2018:11:58:19 -0400] "POST /myapplication/UIDL/?v-uiId=0 HTTP/1.1" 200 358
0:0:0:0:0:0:0:1 - - [10/Jul/2018:11:58:20 -0400] "POST /myapplication/UIDL/?v-uiId=0 HTTP/1.1" 200 288
0:0:0:0:0:0:0:1 - - [10/Jul/2018:11:58:20 -0400] "POST /myapplication/UIDL/?v-uiId=0 HTTP/1.1" 200 358
0:0:0:0:0:0:0:1 - - [10/Jul/2018:11:58:20 -0400] "POST /myapplication/UIDL/?v-uiId=0 HTTP/1.1" 200 289
0:0:0:0:0:0:0:1 - - [10/Jul/2018:11:58:20 -0400] "POST /myapplication/UIDL/?v-uiId=0 HTTP/1.1" 200 358
0:0:0:0:0:0:0:1 - - [10/Jul/2018:11:58:20 -0400] "POST /myapplication/UIDL/?v-uiId=0 HTTP/1.1" 200 626
0:0:0:0:0:0:0:1 - - [10/Jul/2018:11:58:22 -0400] "POST /myapplication/UIDL/?v-uiId=0 HTTP/1.1" 200 139
0:0:0:0:0:0:0:1 - - [10/Jul/2018:11:58:25 -0400] "POST /myapplication/UIDL/?v-uiId=0 HTTP/1.1" 200 139
0:0:0:0:0:0:0:1 - - [10/Jul/2018:11:58:29 -0400] "POST /myapplication/HEARTBEAT/?v-uiId=0 HTTP/1.1" 200 -
0:0:0:0:0:0:0:1 - - [10/Jul/2018:12:00:42 -0400] "POST /myapplication/UIDL/?v-uiId=0 HTTP/1.1" 200 235
0:0:0:0:0:0:0:1 - - [10/Jul/2018:12:00:43 -0400] "GET /myapplication/servlet/com.example.myapplication.MyUI$MyUIServlet HTTP/1.1" 200 1861
0:0:0:0:0:0:0:1 - - [10/Jul/2018:12:00:43 -0400] "GET /myapplication/VAADIN/widgetsets/com.vaadin.DefaultWidgetSet/com.vaadin.DefaultWidgetSet.nocache.js?1531238443114 HTTP/1.1" 200 3231
0:0:0:0:0:0:0:1 - - [10/Jul/2018:12:00:44 -0400] "POST /myapplication/servlet/com.example.myapplication.MyUI$MyUIServlet?v-1531238443114 HTTP/1.1" 200 6045
0:0:0:0:0:0:0:1 - - [10/Jul/2018:12:00:44 -0400] "POST /myapplication/UIDL/?v-uiId=0 HTTP/1.1" 200 137
0:0:0:0:0:0:0:1 - - [10/Jul/2018:12:00:46 -0400] "POST /myapplication/UIDL/?v-uiId=0 HTTP/1.1" 200 190
0:0:0:0:0:0:0:1 - - [10/Jul/2018:12:00:46 -0400] "POST /myapplication/UIDL/?v-uiId=0 HTTP/1.1" 200 137
0:0:0:0:0:0:0:1 - - [10/Jul/2018:12:00:47 -0400] "POST /myapplication/UIDL/?v-uiId=0 HTTP/1.1" 200 190
0:0:0:0:0:0:0:1 - - [10/Jul/2018:12:00:47 -0400] "POST /myapplication/UIDL/?v-uiId=0 HTTP/1.1" 200 5460
0:0:0:0:0:0:0:1 - - [10/Jul/2018:12:00:49 -0400] "POST /myapplication/UIDL/?v-uiId=0 HTTP/1.1" 200 12568
0:0:0:0:0:0:0:1 - - [10/Jul/2018:12:00:51 -0400] "POST /myapplication/UIDL/?v-uiId=0 HTTP/1.1" 200 847
0:0:0:0:0:0:0:1 - - [10/Jul/2018:12:00:53 -0400] "POST /myapplication/UIDL/?v-uiId=0 HTTP/1.1" 200 1295
0:0:0:0:0:0:0:1 - - [10/Jul/2018:12:00:53 -0400] "POST /myapplication/UIDL/?v-uiId=0 HTTP/1.1" 200 137
0:0:0:0:0:0:0:1 - - [10/Jul/2018:12:00:57 -0400] "POST /myapplication/UIDL/?v-uiId=0 HTTP/1.1" 200 23588
0:0:0:0:0:0:0:1 - - [10/Jul/2018:12:00:57 -0400] "POST /myapplication/UIDL/?v-uiId=0 HTTP/1.1" 200 525
0:0:0:0:0:0:0:1 - - [10/Jul/2018:12:00:59 -0400] "POST /myapplication/UIDL/?v-uiId=0 HTTP/1.1" 200 286
0:0:0:0:0:0:0:1 - - [10/Jul/2018:12:00:59 -0400] "POST /myapplication/UIDL/?v-uiId=0 HTTP/1.1" 200 3300
0:0:0:0:0:0:0:1 - - [10/Jul/2018:12:00:59 -0400] "POST /myapplication/UIDL/?v-uiId=0 HTTP/1.1" 200 286
0:0:0:0:0:0:0:1 - - [10/Jul/2018:12:00:59 -0400] "POST /myapplication/UIDL/?v-uiId=0 HTTP/1.1" 200 3300
0:0:0:0:0:0:0:1 - - [10/Jul/2018:12:00:59 -0400] "POST /myapplication/UIDL/?v-uiId=0 HTTP/1.1" 200 286
0:0:0:0:0:0:0:1 - - [10/Jul/2018:12:00:59 -0400] "POST /myapplication/UIDL/?v-uiId=0 HTTP/1.1" 200 916
0:0:0:0:0:0:0:1 - - [10/Jul/2018:12:00:59 -0400] "POST /myapplication/UIDL/?v-uiId=0 HTTP/1.1" 200 287
0:0:0:0:0:0:0:1 - - [10/Jul/2018:12:00:59 -0400] "POST /myapplication/UIDL/?v-uiId=0 HTTP/1.1" 200 358
0:0:0:0:0:0:0:1 - - [10/Jul/2018:12:00:59 -0400] "POST /myapplication/UIDL/?v-uiId=0 HTTP/1.1" 200 289
0:0:0:0:0:0:0:1 - - [10/Jul/2018:12:00:59 -0400] "POST /myapplication/UIDL/?v-uiId=0 HTTP/1.1" 200 358
0:0:0:0:0:0:0:1 - - [10/Jul/2018:12:01:00 -0400] "POST /myapplication/UIDL/?v-uiId=0 HTTP/1.1" 200 626
0:0:0:0:0:0:0:1 - - [10/Jul/2018:12:01:01 -0400] "POST /myapplication/UIDL/?v-uiId=0 HTTP/1.1" 200 139
0:0:0:0:0:0:0:1 - - [10/Jul/2018:12:01:02 -0400] "POST /myapplication/UIDL/?v-uiId=0 HTTP/1.1" 200 192
0:0:0:0:0:0:0:1 - - [10/Jul/2018:12:01:07 -0400] "POST /myapplication/UIDL/?v-uiId=0 HTTP/1.1" 200 139
127.0.0.1 - - [10/Jul/2018:12:01:35 -0400] "GET / HTTP/1.1" 404 951
0:0:0:0:0:0:0:1 - - [10/Jul/2018:12:01:35 -0400] "GET /myapplication/servlet/com.example.myapplication.MyUI$MyUIServlet HTTP/1.1" 200 1912
0:0:0:0:0:0:0:1 - - [10/Jul/2018:12:01:38 -0400] "POST /myapplication/UIDL/?v-uiId=0 HTTP/1.1" 200 235
0:0:0:0:0:0:0:1 - - [10/Jul/2018:12:01:39 -0400] "GET /myapplication/servlet/com.example.myapplication.MyUI$MyUIServlet HTTP/1.1" 200 1861
0:0:0:0:0:0:0:1 - - [10/Jul/2018:12:01:39 -0400] "GET /myapplication/VAADIN/widgetsets/com.vaadin.DefaultWidgetSet/com.vaadin.DefaultWidgetSet.nocache.js?1531238499298 HTTP/1.1" 200 3231
0:0:0:0:0:0:0:1 - - [10/Jul/2018:12:01:40 -0400] "POST /myapplication/servlet/com.example.myapplication.MyUI$MyUIServlet?v-1531238499298 HTTP/1.1" 200 6045
0:0:0:0:0:0:0:1 - - [10/Jul/2018:12:01:41 -0400] "POST /myapplication/UIDL/?v-uiId=0 HTTP/1.1" 200 137
0:0:0:0:0:0:0:1 - - [10/Jul/2018:12:01:43 -0400] "POST /myapplication/UIDL/?v-uiId=0 HTTP/1.1" 200 190
0:0:0:0:0:0:0:1 - - [10/Jul/2018:12:01:43 -0400] "POST /myapplication/UIDL/?v-uiId=0 HTTP/1.1" 200 137
0:0:0:0:0:0:0:1 - - [10/Jul/2018:12:01:44 -0400] "POST /myapplication/UIDL/?v-uiId=0 HTTP/1.1" 200 191
0:0:0:0:0:0:0:1 - - [10/Jul/2018:12:01:44 -0400] "POST /myapplication/UIDL/?v-uiId=0 HTTP/1.1" 200 5460
0:0:0:0:0:0:0:1 - - [10/Jul/2018:12:01:47 -0400] "POST /myapplication/UIDL/?v-uiId=0 HTTP/1.1" 200 12568
0:0:0:0:0:0:0:1 - - [10/Jul/2018:12:01:49 -0400] "POST /myapplication/UIDL/?v-uiId=0 HTTP/1.1" 200 23570
0:0:0:0:0:0:0:1 - - [10/Jul/2018:12:01:49 -0400] "POST /myapplication/UIDL/?v-uiId=0 HTTP/1.1" 200 523
0:0:0:0:0:0:0:1 - - [10/Jul/2018:12:01:50 -0400] "POST /myapplication/UIDL/?v-uiId=0 HTTP/1.1" 200 284
0:0:0:0:0:0:0:1 - - [10/Jul/2018:12:01:50 -0400] "POST /myapplication/UIDL/?v-uiId=0 HTTP/1.1" 200 3300
0:0:0:0:0:0:0:1 - - [10/Jul/2018:12:01:50 -0400] "POST /myapplication/UIDL/?v-uiId=0 HTTP/1.1" 200 286
0:0:0:0:0:0:0:1 - - [10/Jul/2018:12:01:50 -0400] "POST /myapplication/UIDL/?v-uiId=0 HTTP/1.1" 200 3300
0:0:0:0:0:0:0:1 - - [10/Jul/2018:12:01:50 -0400] "POST /myapplication/UIDL/?v-uiId=0 HTTP/1.1" 200 286
0:0:0:0:0:0:0:1 - - [10/Jul/2018:12:01:50 -0400] "POST /myapplication/UIDL/?v-uiId=0 HTTP/1.1" 200 916
0:0:0:0:0:0:0:1 - - [10/Jul/2018:12:01:51 -0400] "POST /myapplication/UIDL/?v-uiId=0 HTTP/1.1" 200 287
0:0:0:0:0:0:0:1 - - [10/Jul/2018:12:01:51 -0400] "POST /myapplication/UIDL/?v-uiId=0 HTTP/1.1" 200 358
0:0:0:0:0:0:0:1 - - [10/Jul/2018:12:01:51 -0400] "POST /myapplication/UIDL/?v-uiId=0 HTTP/1.1" 200 288
0:0:0:0:0:0:0:1 - - [10/Jul/2018:12:01:51 -0400] "POST /myapplication/UIDL/?v-uiId=0 HTTP/1.1" 200 358
0:0:0:0:0:0:0:1 - - [10/Jul/2018:12:01:51 -0400] "POST /myapplication/UIDL/?v-uiId=0 HTTP/1.1" 200 289
0:0:0:0:0:0:0:1 - - [10/Jul/2018:12:01:51 -0400] "POST /myapplication/UIDL/?v-uiId=0 HTTP/1.1" 200 358
0:0:0:0:0:0:0:1 - - [10/Jul/2018:12:01:51 -0400] "POST /myapplication/UIDL/?v-uiId=0 HTTP/1.1" 200 626
0:0:0:0:0:0:0:1 - - [10/Jul/2018:12:01:53 -0400] "POST /myapplication/UIDL/?v-uiId=0 HTTP/1.1" 200 139
0:0:0:0:0:0:0:1 - - [10/Jul/2018:12:01:53 -0400] "POST /myapplication/UIDL/?v-uiId=0 HTTP/1.1" 200 192
0:0:0:0:0:0:0:1 - - [10/Jul/2018:12:01:57 -0400] "POST /myapplication/UIDL/?v-uiId=0 HTTP/1.1" 200 283
0:0:0:0:0:0:0:1 - - [10/Jul/2018:12:01:57 -0400] "POST /myapplication/UIDL/?v-uiId=0 HTTP/1.1" 200 255
0:0:0:0:0:0:0:1 - - [10/Jul/2018:12:01:59 -0400] "POST /myapplication/UIDL/?v-uiId=0 HTTP/1.1" 200 282
0:0:0:0:0:0:0:1 - - [10/Jul/2018:12:01:59 -0400] "POST /myapplication/UIDL/?v-uiId=0 HTTP/1.1" 200 255
0:0:0:0:0:0:0:1 - - [10/Jul/2018:12:01:59 -0400] "POST /myapplication/UIDL/?v-uiId=0 HTTP/1.1" 200 283
0:0:0:0:0:0:0:1 - - [10/Jul/2018:12:01:59 -0400] "POST /myapplication/UIDL/?v-uiId=0 HTTP/1.1" 200 255
0:0:0:0:0:0:0:1 - - [10/Jul/2018:12:01:59 -0400] "POST /myapplication/UIDL/?v-uiId=0 HTTP/1.1" 200 284
0:0:0:0:0:0:0:1 - - [10/Jul/2018:12:01:59 -0400] "POST /myapplication/UIDL/?v-uiId=0 HTTP/1.1" 200 281
0:0:0:0:0:0:0:1 - - [10/Jul/2018:12:02:00 -0400] "POST /myapplication/UIDL/?v-uiId=0 HTTP/1.1" 200 283
0:0:0:0:0:0:0:1 - - [10/Jul/2018:12:02:00 -0400] "POST /myapplication/UIDL/?v-uiId=0 HTTP/1.1" 200 255
0:0:0:0:0:0:0:1 - - [10/Jul/2018:12:02:01 -0400] "POST /myapplication/UIDL/?v-uiId=0 HTTP/1.1" 200 282
0:0:0:0:0:0:0:1 - - [10/Jul/2018:12:02:01 -0400] "POST /myapplication/UIDL/?v-uiId=0 HTTP/1.1" 200 255
0:0:0:0:0:0:0:1 - - [10/Jul/2018:12:02:01 -0400] "POST /myapplication/UIDL/?v-uiId=0 HTTP/1.1" 200 283
0:0:0:0:0:0:0:1 - - [10/Jul/2018:12:02:01 -0400] "POST /myapplication/UIDL/?v-uiId=0 HTTP/1.1" 200 255
0:0:0:0:0:0:0:1 - - [10/Jul/2018:12:02:02 -0400] "POST /myapplication/UIDL/?v-uiId=0 HTTP/1.1" 200 779
0:0:0:0:0:0:0:1 - - [10/Jul/2018:12:02:23 -0400] "POST /myapplication/UIDL/?v-uiId=0 HTTP/1.1" 200 139
0:0:0:0:0:0:0:1 - - [10/Jul/2018:12:02:23 -0400] "POST /myapplication/UIDL/?v-uiId=0 HTTP/1.1" 200 9214
0:0:0:0:0:0:0:1 - - [10/Jul/2018:12:02:36 -0400] "POST /myapplication/UIDL/?v-uiId=0 HTTP/1.1" 200 3390
0:0:0:0:0:0:0:1 - - [10/Jul/2018:12:02:40 -0400] "POST /myapplication/UIDL/?v-uiId=0 HTTP/1.1" 200 3145
0:0:0:0:0:0:0:1 - - [10/Jul/2018:12:02:42 -0400] "POST /myapplication/UIDL/?v-uiId=0 HTTP/1.1" 200 209
0:0:0:0:0:0:0:1 - - [10/Jul/2018:12:02:55 -0400] "POST /myapplication/UIDL/?v-uiId=0 HTTP/1.1" 200 8590
0:0:0:0:0:0:0:1 - - [10/Jul/2018:12:02:57 -0400] "POST /myapplication/UIDL/?v-uiId=0 HTTP/1.1" 200 3392
0:0:0:0:0:0:0:1 - - [10/Jul/2018:12:02:58 -0400] "POST /myapplication/UIDL/?v-uiId=0 HTTP/1.1" 200 592
0:0:0:0:0:0:0:1 - - [10/Jul/2018:12:03:12 -0400] "POST /myapplication/UIDL/?v-uiId=0 HTTP/1.1" 200 5443
0:0:0:0:0:0:0:1 - - [10/Jul/2018:12:03:23 -0400] "POST /myapplication/UIDL/?v-uiId=0 HTTP/1.1" 200 8521
0:0:0:0:0:0:0:1 - - [10/Jul/2018:12:03:26 -0400] "POST /myapplication/UIDL/?v-uiId=0 HTTP/1.1" 200 488
0:0:0:0:0:0:0:1 - - [10/Jul/2018:12:03:26 -0400] "POST /myapplication/UIDL/?v-uiId=0 HTTP/1.1" 200 8839
0:0:0:0:0:0:0:1 - - [10/Jul/2018:12:03:28 -0400] "POST /myapplication/UIDL/?v-uiId=0 HTTP/1.1" 200 479
0:0:0:0:0:0:0:1 - - [10/Jul/2018:12:03:30 -0400] "POST /myapplication/UIDL/?v-uiId=0 HTTP/1.1" 200 234
0:0:0:0:0:0:0:1 - - [10/Jul/2018:12:03:31 -0400] "POST /myapplication/UIDL/?v-uiId=0 HTTP/1.1" 200 2814
0:0:0:0:0:0:0:1 - - [10/Jul/2018:12:03:33 -0400] "POST /myapplication/UIDL/?v-uiId=0 HTTP/1.1" 200 6824
0:0:0:0:0:0:0:1 - - [10/Jul/2018:12:03:33 -0400] "POST /myapplication/UIDL/?v-uiId=0 HTTP/1.1" 200 4873
0:0:0:0:0:0:0:1 - - [10/Jul/2018:12:03:34 -0400] "POST /myapplication/UIDL/?v-uiId=0 HTTP/1.1" 200 22386
0:0:0:0:0:0:0:1 - - [10/Jul/2018:12:03:34 -0400] "POST /myapplication/UIDL/?v-uiId=0 HTTP/1.1" 200 527
0:0:0:0:0:0:0:1 - - [10/Jul/2018:12:03:36 -0400] "POST /myapplication/UIDL/?v-uiId=0 HTTP/1.1" 200 286
0:0:0:0:0:0:0:1 - - [10/Jul/2018:12:03:36 -0400] "POST /myapplication/UIDL/?v-uiId=0 HTTP/1.1" 200 3300
0:0:0:0:0:0:0:1 - - [10/Jul/2018:12:03:36 -0400] "POST /myapplication/UIDL/?v-uiId=0 HTTP/1.1" 200 286
0:0:0:0:0:0:0:1 - - [10/Jul/2018:12:03:36 -0400] "POST /myapplication/UIDL/?v-uiId=0 HTTP/1.1" 200 3300
0:0:0:0:0:0:0:1 - - [10/Jul/2018:12:03:36 -0400] "POST /myapplication/UIDL/?v-uiId=0 HTTP/1.1" 200 286
0:0:0:0:0:0:0:1 - - [10/Jul/2018:12:03:36 -0400] "POST /myapplication/UIDL/?v-uiId=0 HTTP/1.1" 200 916
0:0:0:0:0:0:0:1 - - [10/Jul/2018:12:03:36 -0400] "POST /myapplication/UIDL/?v-uiId=0 HTTP/1.1" 200 287
0:0:0:0:0:0:0:1 - - [10/Jul/2018:12:03:36 -0400] "POST /myapplication/UIDL/?v-uiId=0 HTTP/1.1" 200 358
0:0:0:0:0:0:0:1 - - [10/Jul/2018:12:03:36 -0400] "POST /myapplication/UIDL/?v-uiId=0 HTTP/1.1" 200 288
0:0:0:0:0:0:0:1 - - [10/Jul/2018:12:03:36 -0400] "POST /myapplication/UIDL/?v-uiId=0 HTTP/1.1" 200 358
0:0:0:0:0:0:0:1 - - [10/Jul/2018:12:03:36 -0400] "POST /myapplication/UIDL/?v-uiId=0 HTTP/1.1" 200 289
0:0:0:0:0:0:0:1 - - [10/Jul/2018:12:03:36 -0400] "POST /myapplication/UIDL/?v-uiId=0 HTTP/1.1" 200 358
0:0:0:0:0:0:0:1 - - [10/Jul/2018:12:03:38 -0400] "POST /myapplication/UIDL/?v-uiId=0 HTTP/1.1" 200 626
0:0:0:0:0:0:0:1 - - [10/Jul/2018:12:03:39 -0400] "POST /myapplication/UIDL/?v-uiId=0 HTTP/1.1" 200 139
0:0:0:0:0:0:0:1 - - [10/Jul/2018:12:04:16 -0400] "POST /myapplication/UIDL/?v-uiId=0 HTTP/1.1" 200 192
0:0:0:0:0:0:0:1 - - [10/Jul/2018:12:04:18 -0400] "POST /myapplication/UIDL/?v-uiId=0 HTTP/1.1" 200 283
0:0:0:0:0:0:0:1 - - [10/Jul/2018:12:04:18 -0400] "POST /myapplication/UIDL/?v-uiId=0 HTTP/1.1" 200 300
0:0:0:0:0:0:0:1 - - [10/Jul/2018:12:04:18 -0400] "POST /myapplication/UIDL/?v-uiId=0 HTTP/1.1" 200 284
0:0:0:0:0:0:0:1 - - [10/Jul/2018:12:04:18 -0400] "POST /myapplication/UIDL/?v-uiId=0 HTTP/1.1" 200 276
0:0:0:0:0:0:0:1 - - [10/Jul/2018:12:04:19 -0400] "POST /myapplication/UIDL/?v-uiId=0 HTTP/1.1" 200 283
0:0:0:0:0:0:0:1 - - [10/Jul/2018:12:04:19 -0400] "POST /myapplication/UIDL/?v-uiId=0 HTTP/1.1" 200 300
0:0:0:0:0:0:0:1 - - [10/Jul/2018:12:04:19 -0400] "POST /myapplication/UIDL/?v-uiId=0 HTTP/1.1" 200 282
0:0:0:0:0:0:0:1 - - [10/Jul/2018:12:04:19 -0400] "POST /myapplication/UIDL/?v-uiId=0 HTTP/1.1" 200 300
0:0:0:0:0:0:0:1 - - [10/Jul/2018:12:04:19 -0400] "POST /myapplication/UIDL/?v-uiId=0 HTTP/1.1" 200 283
0:0:0:0:0:0:0:1 - - [10/Jul/2018:12:04:19 -0400] "POST /myapplication/UIDL/?v-uiId=0 HTTP/1.1" 200 300
0:0:0:0:0:0:0:1 - - [10/Jul/2018:12:04:19 -0400] "POST /myapplication/UIDL/?v-uiId=0 HTTP/1.1" 200 284
0:0:0:0:0:0:0:1 - - [10/Jul/2018:12:04:19 -0400] "POST /myapplication/UIDL/?v-uiId=0 HTTP/1.1" 200 281
0:0:0:0:0:0:0:1 - - [10/Jul/2018:12:04:20 -0400] "POST /myapplication/UIDL/?v-uiId=0 HTTP/1.1" 200 283
0:0:0:0:0:0:0:1 - - [10/Jul/2018:12:04:20 -0400] "POST /myapplication/UIDL/?v-uiId=0 HTTP/1.1" 200 300
0:0:0:0:0:0:0:1 - - [10/Jul/2018:12:04:20 -0400] "POST /myapplication/UIDL/?v-uiId=0 HTTP/1.1" 200 282
0:0:0:0:0:0:0:1 - - [10/Jul/2018:12:04:20 -0400] "POST /myapplication/UIDL/?v-uiId=0 HTTP/1.1" 200 300
0:0:0:0:0:0:0:1 - - [10/Jul/2018:12:04:22 -0400] "POST /myapplication/UIDL/?v-uiId=0 HTTP/1.1" 200 813
0:0:0:0:0:0:0:1 - - [10/Jul/2018:12:05:02 -0400] "POST /myapplication/UIDL/?v-uiId=0 HTTP/1.1" 200 139
0:0:0:0:0:0:0:1 - - [10/Jul/2018:12:05:03 -0400] "POST /myapplication/UIDL/?v-uiId=0 HTTP/1.1" 200 139
0:0:0:0:0:0:0:1 - - [10/Jul/2018:12:06:40 -0400] "POST /myapplication/HEARTBEAT/?v-uiId=0 HTTP/1.1" 200 -
0:0:0:0:0:0:0:1 - - [10/Jul/2018:12:11:40 -0400] "POST /myapplication/HEARTBEAT/?v-uiId=0 HTTP/1.1" 200 -
0:0:0:0:0:0:0:1 - - [10/Jul/2018:12:16:05 -0400] "POST /myapplication/UIDL/?v-uiId=0 HTTP/1.1" 200 139
0:0:0:0:0:0:0:1 - - [10/Jul/2018:12:16:41 -0400] "POST /myapplication/HEARTBEAT/?v-uiId=0 HTTP/1.1" 200 -
0:0:0:0:0:0:0:1 - - [10/Jul/2018:12:17:00 -0400] "POST /myapplication/UIDL/?v-uiId=0 HTTP/1.1" 200 139
0:0:0:0:0:0:0:1 - - [10/Jul/2018:12:18:32 -0400] "POST /myapplication/UIDL/?v-uiId=0 HTTP/1.1" 200 139
0:0:0:0:0:0:0:1 - - [10/Jul/2018:12:18:35 -0400] "POST /myapplication/UIDL/?v-uiId=0 HTTP/1.1" 200 139
0:0:0:0:0:0:0:1 - - [10/Jul/2018:12:21:13 -0400] "POST /myapplication/UIDL/?v-uiId=0 HTTP/1.1" 200 203
0:0:0:0:0:0:0:1 - - [10/Jul/2018:12:21:17 -0400] "POST /myapplication/UIDL/?v-uiId=0 HTTP/1.1" 200 22386
0:0:0:0:0:0:0:1 - - [10/Jul/2018:12:21:17 -0400] "POST /myapplication/UIDL/?v-uiId=0 HTTP/1.1" 200 527
0:0:0:0:0:0:0:1 - - [10/Jul/2018:12:21:18 -0400] "POST /myapplication/UIDL/?v-uiId=0 HTTP/1.1" 200 286
0:0:0:0:0:0:0:1 - - [10/Jul/2018:12:21:18 -0400] "POST /myapplication/UIDL/?v-uiId=0 HTTP/1.1" 200 3302
0:0:0:0:0:0:0:1 - - [10/Jul/2018:12:21:19 -0400] "POST /myapplication/UIDL/?v-uiId=0 HTTP/1.1" 200 288
0:0:0:0:0:0:0:1 - - [10/Jul/2018:12:21:19 -0400] "POST /myapplication/UIDL/?v-uiId=0 HTTP/1.1" 200 3302
0:0:0:0:0:0:0:1 - - [10/Jul/2018:12:21:19 -0400] "POST /myapplication/UIDL/?v-uiId=0 HTTP/1.1" 200 288
0:0:0:0:0:0:0:1 - - [10/Jul/2018:12:21:19 -0400] "POST /myapplication/UIDL/?v-uiId=0 HTTP/1.1" 200 918
0:0:0:0:0:0:0:1 - - [10/Jul/2018:12:21:19 -0400] "POST /myapplication/UIDL/?v-uiId=0 HTTP/1.1" 200 289
0:0:0:0:0:0:0:1 - - [10/Jul/2018:12:21:19 -0400] "POST /myapplication/UIDL/?v-uiId=0 HTTP/1.1" 200 360
0:0:0:0:0:0:0:1 - - [10/Jul/2018:12:21:19 -0400] "POST /myapplication/UIDL/?v-uiId=0 HTTP/1.1" 200 290
0:0:0:0:0:0:0:1 - - [10/Jul/2018:12:21:19 -0400] "POST /myapplication/UIDL/?v-uiId=0 HTTP/1.1" 200 360
0:0:0:0:0:0:0:1 - - [10/Jul/2018:12:21:19 -0400] "POST /myapplication/UIDL/?v-uiId=0 HTTP/1.1" 200 291
0:0:0:0:0:0:0:1 - - [10/Jul/2018:12:21:19 -0400] "POST /myapplication/UIDL/?v-uiId=0 HTTP/1.1" 200 360
0:0:0:0:0:0:0:1 - - [10/Jul/2018:12:21:19 -0400] "POST /myapplication/UIDL/?v-uiId=0 HTTP/1.1" 200 628
0:0:0:0:0:0:0:1 - - [10/Jul/2018:12:21:21 -0400] "POST /myapplication/UIDL/?v-uiId=0 HTTP/1.1" 200 141
0:0:0:0:0:0:0:1 - - [10/Jul/2018:12:21:21 -0400] "POST /myapplication/UIDL/?v-uiId=0 HTTP/1.1" 200 285
0:0:0:0:0:0:0:1 - - [10/Jul/2018:12:21:21 -0400] "POST /myapplication/UIDL/?v-uiId=0 HTTP/1.1" 200 302
0:0:0:0:0:0:0:1 - - [10/Jul/2018:12:21:21 -0400] "POST /myapplication/UIDL/?v-uiId=0 HTTP/1.1" 200 286
0:0:0:0:0:0:0:1 - - [10/Jul/2018:12:21:21 -0400] "POST /myapplication/UIDL/?v-uiId=0 HTTP/1.1" 200 257
0:0:0:0:0:0:0:1 - - [10/Jul/2018:12:21:22 -0400] "POST /myapplication/UIDL/?v-uiId=0 HTTP/1.1" 200 781
0:0:0:0:0:0:0:1 - - [10/Jul/2018:12:21:25 -0400] "POST /myapplication/UIDL/?v-uiId=0 HTTP/1.1" 200 141
0:0:0:0:0:0:0:1 - - [10/Jul/2018:12:21:25 -0400] "POST /myapplication/UIDL/?v-uiId=0 HTTP/1.1" 200 8592
0:0:0:0:0:0:0:1 - - [10/Jul/2018:12:21:26 -0400] "POST /myapplication/UIDL/?v-uiId=0 HTTP/1.1" 200 3394
0:0:0:0:0:0:0:1 - - [10/Jul/2018:12:21:27 -0400] "POST /myapplication/UIDL/?v-uiId=0 HTTP/1.1" 200 595
0:0:0:0:0:0:0:1 - - [10/Jul/2018:12:21:30 -0400] "POST /myapplication/UIDL/?v-uiId=0 HTTP/1.1" 200 6923
0:0:0:0:0:0:0:1 - - [10/Jul/2018:12:21:41 -0400] "POST /myapplication/HEARTBEAT/?v-uiId=0 HTTP/1.1" 200 -
0:0:0:0:0:0:0:1 - - [10/Jul/2018:12:23:31 -0400] "POST /myapplication/UIDL/?v-uiId=0 HTTP/1.1" 200 1241
0:0:0:0:0:0:0:1 - - [10/Jul/2018:12:23:57 -0400] "POST /myapplication/UIDL/?v-uiId=0 HTTP/1.1" 200 1241
0:0:0:0:0:0:0:1 - - [10/Jul/2018:12:24:16 -0400] "POST /myapplication/UIDL/?v-uiId=0 HTTP/1.1" 200 1241
0:0:0:0:0:0:0:1 - - [10/Jul/2018:12:24:35 -0400] "POST /myapplication/UIDL/?v-uiId=0 HTTP/1.1" 200 1241
0:0:0:0:0:0:0:1 - - [10/Jul/2018:12:25:01 -0400] "POST /myapplication/UIDL/?v-uiId=0 HTTP/1.1" 200 1241
0:0:0:0:0:0:0:1 - - [10/Jul/2018:12:26:39 -0400] "POST /myapplication/UIDL/?v-uiId=0 HTTP/1.1" 200 1241
0:0:0:0:0:0:0:1 - - [10/Jul/2018:12:26:41 -0400] "POST /myapplication/HEARTBEAT/?v-uiId=0 HTTP/1.1" 200 -
0:0:0:0:0:0:0:1 - - [10/Jul/2018:12:26:52 -0400] "POST /myapplication/UIDL/?v-uiId=0 HTTP/1.1" 200 205
0:0:0:0:0:0:0:1 - - [10/Jul/2018:12:26:54 -0400] "POST /myapplication/UIDL/?v-uiId=0 HTTP/1.1" 200 12543
0:0:0:0:0:0:0:1 - - [10/Jul/2018:12:26:56 -0400] "POST /myapplication/UIDL/?v-uiId=0 HTTP/1.1" 200 10876
0:0:0:0:0:0:0:1 - - [10/Jul/2018:12:26:56 -0400] "GET /myapplication/VAADIN/themes/mytheme/imagens/library/lupa.png HTTP/1.1" 200 871
0:0:0:0:0:0:0:1 - - [10/Jul/2018:12:26:59 -0400] "POST /myapplication/UIDL/?v-uiId=0 HTTP/1.1" 200 446
0:0:0:0:0:0:0:1 - - [10/Jul/2018:12:26:59 -0400] "POST /myapplication/UIDL/?v-uiId=0 HTTP/1.1" 200 1924
0:0:0:0:0:0:0:1 - - [10/Jul/2018:12:27:01 -0400] "POST /myapplication/UIDL/?v-uiId=0 HTTP/1.1" 200 708
0:0:0:0:0:0:0:1 - - [10/Jul/2018:12:27:02 -0400] "POST /myapplication/UIDL/?v-uiId=0 HTTP/1.1" 200 40848
0:0:0:0:0:0:0:1 - - [10/Jul/2018:12:27:12 -0400] "POST /myapplication/UIDL/?v-uiId=0 HTTP/1.1" 200 459
0:0:0:0:0:0:0:1 - - [10/Jul/2018:12:27:12 -0400] "POST /myapplication/UIDL/?v-uiId=0 HTTP/1.1" 200 141
0:0:0:0:0:0:0:1 - - [10/Jul/2018:12:27:14 -0400] "POST /myapplication/UIDL/?v-uiId=0 HTTP/1.1" 200 245
0:0:0:0:0:0:0:1 - - [10/Jul/2018:12:27:19 -0400] "POST /myapplication/UIDL/?v-uiId=0 HTTP/1.1" 200 208
0:0:0:0:0:0:0:1 - - [10/Jul/2018:12:27:19 -0400] "POST /myapplication/UIDL/?v-uiId=0 HTTP/1.1" 200 1605
0:0:0:0:0:0:0:1 - - [10/Jul/2018:12:27:21 -0400] "POST /myapplication/UIDL/?v-uiId=0 HTTP/1.1" 200 5451
0:0:0:0:0:0:0:1 - - [10/Jul/2018:12:27:21 -0400] "POST /myapplication/UIDL/?v-uiId=0 HTTP/1.1" 200 2528
0:0:0:0:0:0:0:1 - - [10/Jul/2018:12:27:22 -0400] "POST /myapplication/UIDL/?v-uiId=0 HTTP/1.1" 200 6826
0:0:0:0:0:0:0:1 - - [10/Jul/2018:12:27:22 -0400] "POST /myapplication/UIDL/?v-uiId=0 HTTP/1.1" 200 5284
0:0:0:0:0:0:0:1 - - [10/Jul/2018:12:27:23 -0400] "POST /myapplication/UIDL/?v-uiId=0 HTTP/1.1" 200 19279
0:0:0:0:0:0:0:1 - - [10/Jul/2018:12:27:24 -0400] "POST /myapplication/UIDL/?v-uiId=0 HTTP/1.1" 200 539
0:0:0:0:0:0:0:1 - - [10/Jul/2018:12:27:25 -0400] "POST /myapplication/UIDL/?v-uiId=0 HTTP/1.1" 200 6830
0:0:0:0:0:0:0:1 - - [10/Jul/2018:12:27:58 -0400] "POST /myapplication/UIDL/?v-uiId=0 HTTP/1.1" 200 1347
0:0:0:0:0:0:0:1 - - [10/Jul/2018:12:28:22 -0400] "POST /myapplication/UIDL/?v-uiId=0 HTTP/1.1" 200 1347
0:0:0:0:0:0:0:1 - - [10/Jul/2018:12:28:43 -0400] "POST /myapplication/UIDL/?v-uiId=0 HTTP/1.1" 200 1347
0:0:0:0:0:0:0:1 - - [10/Jul/2018:12:29:22 -0400] "POST /myapplication/UIDL/?v-uiId=0 HTTP/1.1" 200 1347
0:0:0:0:0:0:0:1 - - [10/Jul/2018:12:29:40 -0400] "POST /myapplication/UIDL/?v-uiId=0 HTTP/1.1" 200 1347
0:0:0:0:0:0:0:1 - - [10/Jul/2018:12:29:53 -0400] "POST /myapplication/UIDL/?v-uiId=0 HTTP/1.1" 200 205
0:0:0:0:0:0:0:1 - - [10/Jul/2018:12:29:54 -0400] "POST /myapplication/UIDL/?v-uiId=0 HTTP/1.1" 200 6944
0:0:0:0:0:0:0:1 - - [10/Jul/2018:12:29:55 -0400] "POST /myapplication/UIDL/?v-uiId=0 HTTP/1.1" 200 1193
0:0:0:0:0:0:0:1 - - [10/Jul/2018:12:29:56 -0400] "POST /myapplication/UIDL/?v-uiId=0 HTTP/1.1" 200 40912
0:0:0:0:0:0:0:1 - - [10/Jul/2018:12:30:03 -0400] "POST /myapplication/UIDL/?v-uiId=0 HTTP/1.1" 200 459
0:0:0:0:0:0:0:1 - - [10/Jul/2018:12:30:04 -0400] "POST /myapplication/UIDL/?v-uiId=0 HTTP/1.1" 200 1605
0:0:0:0:0:0:0:1 - - [10/Jul/2018:12:30:06 -0400] "POST /myapplication/UIDL/?v-uiId=0 HTTP/1.1" 200 5451
0:0:0:0:0:0:0:1 - - [10/Jul/2018:12:30:07 -0400] "POST /myapplication/UIDL/?v-uiId=0 HTTP/1.1" 200 2528
0:0:0:0:0:0:0:1 - - [10/Jul/2018:12:30:08 -0400] "POST /myapplication/UIDL/?v-uiId=0 HTTP/1.1" 200 6826
0:0:0:0:0:0:0:1 - - [10/Jul/2018:12:30:08 -0400] "POST /myapplication/UIDL/?v-uiId=0 HTTP/1.1" 200 5284
0:0:0:0:0:0:0:1 - - [10/Jul/2018:12:30:10 -0400] "POST /myapplication/UIDL/?v-uiId=0 HTTP/1.1" 200 19279
0:0:0:0:0:0:0:1 - - [10/Jul/2018:12:30:10 -0400] "POST /myapplication/UIDL/?v-uiId=0 HTTP/1.1" 200 539
0:0:0:0:0:0:0:1 - - [10/Jul/2018:12:30:11 -0400] "POST /myapplication/UIDL/?v-uiId=0 HTTP/1.1" 200 6830
0:0:0:0:0:0:0:1 - - [10/Jul/2018:12:30:29 -0400] "POST /myapplication/UIDL/?v-uiId=0 HTTP/1.1" 200 1347
0:0:0:0:0:0:0:1 - - [10/Jul/2018:12:31:41 -0400] "POST /myapplication/HEARTBEAT/?v-uiId=0 HTTP/1.1" 200 -
0:0:0:0:0:0:0:1 - - [10/Jul/2018:12:31:57 -0400] "POST /myapplication/UIDL/?v-uiId=0 HTTP/1.1" 200 1347
0:0:0:0:0:0:0:1 - - [10/Jul/2018:12:32:01 -0400] "POST /myapplication/UIDL/?v-uiId=0 HTTP/1.1" 200 205
0:0:0:0:0:0:0:1 - - [10/Jul/2018:12:32:02 -0400] "POST /myapplication/UIDL/?v-uiId=0 HTTP/1.1" 200 1058
0:0:0:0:0:0:0:1 - - [10/Jul/2018:12:32:03 -0400] "POST /myapplication/UIDL/?v-uiId=0 HTTP/1.1" 200 19279
0:0:0:0:0:0:0:1 - - [10/Jul/2018:12:32:04 -0400] "POST /myapplication/UIDL/?v-uiId=0 HTTP/1.1" 200 539
0:0:0:0:0:0:0:1 - - [10/Jul/2018:12:32:04 -0400] "POST /myapplication/UIDL/?v-uiId=0 HTTP/1.1" 200 6830
0:0:0:0:0:0:0:1 - - [10/Jul/2018:12:32:10 -0400] "POST /myapplication/UIDL/?v-uiId=0 HTTP/1.1" 200 205
0:0:0:0:0:0:0:1 - - [10/Jul/2018:12:32:11 -0400] "POST /myapplication/UIDL/?v-uiId=0 HTTP/1.1" 200 1068
0:0:0:0:0:0:0:1 - - [10/Jul/2018:12:32:12 -0400] "POST /myapplication/UIDL/?v-uiId=0 HTTP/1.1" 200 19345
0:0:0:0:0:0:0:1 - - [10/Jul/2018:12:32:12 -0400] "POST /myapplication/UIDL/?v-uiId=0 HTTP/1.1" 200 539
0:0:0:0:0:0:0:1 - - [10/Jul/2018:12:32:13 -0400] "POST /myapplication/UIDL/?v-uiId=0 HTTP/1.1" 200 6837
0:0:0:0:0:0:0:1 - - [10/Jul/2018:12:33:33 -0400] "POST /myapplication/UIDL/?v-uiId=0 HTTP/1.1" 200 205
0:0:0:0:0:0:0:1 - - [10/Jul/2018:12:33:35 -0400] "POST /myapplication/UIDL/?v-uiId=0 HTTP/1.1" 200 851
0:0:0:0:0:0:0:1 - - [10/Jul/2018:12:33:36 -0400] "POST /myapplication/UIDL/?v-uiId=0 HTTP/1.1" 200 13512
0:0:0:0:0:0:0:1 - - [10/Jul/2018:12:33:37 -0400] "POST /myapplication/UIDL/?v-uiId=0 HTTP/1.1" 200 25323
0:0:0:0:0:0:0:1 - - [10/Jul/2018:12:33:37 -0400] "GET /myapplication/VAADIN/themes/mytheme/imagens/library/money.png HTTP/1.1" 200 546
0:0:0:0:0:0:0:1 - - [10/Jul/2018:12:33:39 -0400] "POST /myapplication/UIDL/?v-uiId=0 HTTP/1.1" 200 586
0:0:0:0:0:0:0:1 - - [10/Jul/2018:12:33:39 -0400] "POST /myapplication/UIDL/?v-uiId=0 HTTP/1.1" 200 3305
0:0:0:0:0:0:0:1 - - [10/Jul/2018:12:33:39 -0400] "POST /myapplication/UIDL/?v-uiId=0 HTTP/1.1" 200 295
0:0:0:0:0:0:0:1 - - [10/Jul/2018:12:33:39 -0400] "POST /myapplication/UIDL/?v-uiId=0 HTTP/1.1" 200 3305
0:0:0:0:0:0:0:1 - - [10/Jul/2018:12:33:39 -0400] "POST /myapplication/UIDL/?v-uiId=0 HTTP/1.1" 200 295
0:0:0:0:0:0:0:1 - - [10/Jul/2018:12:33:39 -0400] "POST /myapplication/UIDL/?v-uiId=0 HTTP/1.1" 200 921
0:0:0:0:0:0:0:1 - - [10/Jul/2018:12:33:39 -0400] "POST /myapplication/UIDL/?v-uiId=0 HTTP/1.1" 200 296
0:0:0:0:0:0:0:1 - - [10/Jul/2018:12:33:39 -0400] "POST /myapplication/UIDL/?v-uiId=0 HTTP/1.1" 200 363
0:0:0:0:0:0:0:1 - - [10/Jul/2018:12:33:39 -0400] "POST /myapplication/UIDL/?v-uiId=0 HTTP/1.1" 200 297
0:0:0:0:0:0:0:1 - - [10/Jul/2018:12:33:39 -0400] "POST /myapplication/UIDL/?v-uiId=0 HTTP/1.1" 200 363
0:0:0:0:0:0:0:1 - - [10/Jul/2018:12:33:39 -0400] "POST /myapplication/UIDL/?v-uiId=0 HTTP/1.1" 200 298
0:0:0:0:0:0:0:1 - - [10/Jul/2018:12:33:39 -0400] "POST /myapplication/UIDL/?v-uiId=0 HTTP/1.1" 200 363
0:0:0:0:0:0:0:1 - - [10/Jul/2018:12:33:41 -0400] "POST /myapplication/UIDL/?v-uiId=0 HTTP/1.1" 200 732
0:0:0:0:0:0:0:1 - - [10/Jul/2018:12:33:42 -0400] "POST /myapplication/UIDL/?v-uiId=0 HTTP/1.1" 200 141
0:0:0:0:0:0:0:1 - - [10/Jul/2018:12:33:42 -0400] "POST /myapplication/UIDL/?v-uiId=0 HTTP/1.1" 200 294
0:0:0:0:0:0:0:1 - - [10/Jul/2018:12:33:42 -0400] "POST /myapplication/UIDL/?v-uiId=0 HTTP/1.1" 200 2478
0:0:0:0:0:0:0:1 - - [10/Jul/2018:12:33:42 -0400] "POST /myapplication/UIDL/?v-uiId=0 HTTP/1.1" 200 295
0:0:0:0:0:0:0:1 - - [10/Jul/2018:12:33:42 -0400] "POST /myapplication/UIDL/?v-uiId=0 HTTP/1.1" 200 1940
0:0:0:0:0:0:0:1 - - [10/Jul/2018:12:33:43 -0400] "POST /myapplication/UIDL/?v-uiId=0 HTTP/1.1" 200 296
0:0:0:0:0:0:0:1 - - [10/Jul/2018:12:33:43 -0400] "POST /myapplication/UIDL/?v-uiId=0 HTTP/1.1" 200 767
0:0:0:0:0:0:0:1 - - [10/Jul/2018:12:33:43 -0400] "POST /myapplication/UIDL/?v-uiId=0 HTTP/1.1" 200 451
0:0:0:0:0:0:0:1 - - [10/Jul/2018:12:33:44 -0400] "POST /myapplication/UIDL/?v-uiId=0 HTTP/1.1" 200 141
0:0:0:0:0:0:0:1 - - [10/Jul/2018:12:33:44 -0400] "POST /myapplication/UIDL/?v-uiId=0 HTTP/1.1" 200 8717
0:0:0:0:0:0:0:1 - - [10/Jul/2018:12:33:46 -0400] "POST /myapplication/UIDL/?v-uiId=0 HTTP/1.1" 200 141
0:0:0:0:0:0:0:1 - - [10/Jul/2018:12:33:46 -0400] "POST /myapplication/UIDL/?v-uiId=0 HTTP/1.1" 200 17112
0:0:0:0:0:0:0:1 - - [10/Jul/2018:12:33:46 -0400] "POST /myapplication/UIDL/?v-uiId=0 HTTP/1.1" 200 539
0:0:0:0:0:0:0:1 - - [10/Jul/2018:12:33:50 -0400] "POST /myapplication/UIDL/?v-uiId=0 HTTP/1.1" 200 374
0:0:0:0:0:0:0:1 - - [10/Jul/2018:12:33:50 -0400] "POST /myapplication/UIDL/?v-uiId=0 HTTP/1.1" 200 208
0:0:0:0:0:0:0:1 - - [10/Jul/2018:12:33:51 -0400] "POST /myapplication/UIDL/?v-uiId=0 HTTP/1.1" 200 141
0:0:0:0:0:0:0:1 - - [10/Jul/2018:12:33:52 -0400] "POST /myapplication/UIDL/?v-uiId=0 HTTP/1.1" 200 6467
0:0:0:0:0:0:0:1 - - [10/Jul/2018:12:33:59 -0400] "POST /myapplication/UIDL/?v-uiId=0 HTTP/1.1" 200 6944
0:0:0:0:0:0:0:1 - - [10/Jul/2018:12:33:59 -0400] "POST /myapplication/UIDL/?v-uiId=0 HTTP/1.1" 200 1193
0:0:0:0:0:0:0:1 - - [10/Jul/2018:12:34:01 -0400] "POST /myapplication/UIDL/?v-uiId=0 HTTP/1.1" 200 40937
0:0:0:0:0:0:0:1 - - [10/Jul/2018:12:34:04 -0400] "POST /myapplication/UIDL/?v-uiId=0 HTTP/1.1" 200 5640
0:0:0:0:0:0:0:1 - - [10/Jul/2018:12:34:07 -0400] "POST /myapplication/UIDL/?v-uiId=0 HTTP/1.1" 200 716
0:0:0:0:0:0:0:1 - - [10/Jul/2018:12:34:14 -0400] "POST /myapplication/UIDL/?v-uiId=0 HTTP/1.1" 200 5389
0:0:0:0:0:0:0:1 - - [10/Jul/2018:12:34:18 -0400] "POST /myapplication/UIDL/?v-uiId=0 HTTP/1.1" 200 712
0:0:0:0:0:0:0:1 - - [10/Jul/2018:12:34:19 -0400] "POST /myapplication/UIDL/?v-uiId=0 HTTP/1.1" 200 18105
0:0:0:0:0:0:0:1 - - [10/Jul/2018:12:34:28 -0400] "POST /myapplication/UIDL/?v-uiId=0 HTTP/1.1" 200 212
0:0:0:0:0:0:0:1 - - [10/Jul/2018:12:34:48 -0400] "POST /myapplication/UIDL/?v-uiId=0 HTTP/1.1" 200 21360
0:0:0:0:0:0:0:1 - - [10/Jul/2018:12:34:49 -0400] "POST /myapplication/UIDL/?v-uiId=0 HTTP/1.1" 200 539
0:0:0:0:0:0:0:1 - - [10/Jul/2018:12:34:54 -0400] "POST /myapplication/UIDL/?v-uiId=0 HTTP/1.1" 200 212
0:0:0:0:0:0:0:1 - - [10/Jul/2018:12:35:14 -0400] "POST /myapplication/UIDL/?v-uiId=0 HTTP/1.1" 200 1168
0:0:0:0:0:0:0:1 - - [10/Jul/2018:12:36:42 -0400] "POST /myapplication/HEARTBEAT/?v-uiId=0 HTTP/1.1" 200 -
0:0:0:0:0:0:0:1 - - [10/Jul/2018:12:41:42 -0400] "POST /myapplication/HEARTBEAT/?v-uiId=0 HTTP/1.1" 200 -
0:0:0:0:0:0:0:1 - - [10/Jul/2018:12:43:44 -0400] "POST /myapplication/UIDL/?v-uiId=0 HTTP/1.1" 200 235
0:0:0:0:0:0:0:1 - - [10/Jul/2018:12:43:46 -0400] "GET /myapplication/servlet/com.example.myapplication.MyUI$MyUIServlet HTTP/1.1" 200 1861
0:0:0:0:0:0:0:1 - - [10/Jul/2018:12:43:46 -0400] "GET /myapplication/VAADIN/vaadinBootstrap.js?v=8.4.0 HTTP/1.1" 200 3837
0:0:0:0:0:0:0:1 - - [10/Jul/2018:12:43:46 -0400] "GET /myapplication/VAADIN/widgetsets/com.vaadin.DefaultWidgetSet/com.vaadin.DefaultWidgetSet.nocache.js?1531241026766 HTTP/1.1" 200 3231
0:0:0:0:0:0:0:1 - - [10/Jul/2018:12:43:46 -0400] "GET /myapplication/VAADIN/themes/mytheme/styles.css?v=8.4.0 HTTP/1.1" 200 380611
0:0:0:0:0:0:0:1 - - [10/Jul/2018:12:43:46 -0400] "GET /myapplication/VAADIN/themes/valo/shared/img/spinner.gif HTTP/1.1" 200 7194
0:0:0:0:0:0:0:1 - - [10/Jul/2018:12:43:48 -0400] "POST /myapplication/servlet/com.example.myapplication.MyUI$MyUIServlet?v-1531241026766 HTTP/1.1" 200 6045
0:0:0:0:0:0:0:1 - - [10/Jul/2018:12:43:48 -0400] "POST /myapplication/UIDL/?v-uiId=0 HTTP/1.1" 200 137
0:0:0:0:0:0:0:1 - - [10/Jul/2018:12:43:50 -0400] "POST /myapplication/UIDL/?v-uiId=0 HTTP/1.1" 200 190
0:0:0:0:0:0:0:1 - - [10/Jul/2018:12:43:50 -0400] "POST /myapplication/UIDL/?v-uiId=0 HTTP/1.1" 200 137
0:0:0:0:0:0:0:1 - - [10/Jul/2018:12:43:51 -0400] "POST /myapplication/UIDL/?v-uiId=0 HTTP/1.1" 200 190
0:0:0:0:0:0:0:1 - - [10/Jul/2018:12:43:51 -0400] "POST /myapplication/UIDL/?v-uiId=0 HTTP/1.1" 200 5458
0:0:0:0:0:0:0:1 - - [10/Jul/2018:12:43:51 -0400] "GET /myapplication/VAADIN/themes/mytheme/imagens/logo-prosaude.png HTTP/1.1" 200 21928
0:0:0:0:0:0:0:1 - - [10/Jul/2018:12:43:54 -0400] "POST /myapplication/UIDL/?v-uiId=0 HTTP/1.1" 200 12920
0:0:0:0:0:0:0:1 - - [10/Jul/2018:12:43:54 -0400] "GET /myapplication/VAADIN/themes/mytheme/imagens/library/insert.png HTTP/1.1" 200 733
0:0:0:0:0:0:0:1 - - [10/Jul/2018:12:43:54 -0400] "GET /myapplication/VAADIN/themes/mytheme/imagens/library/update.png HTTP/1.1" 200 450
0:0:0:0:0:0:0:1 - - [10/Jul/2018:12:43:54 -0400] "GET /myapplication/VAADIN/themes/mytheme/imagens/library/find.png HTTP/1.1" 200 659
0:0:0:0:0:0:0:1 - - [10/Jul/2018:12:43:54 -0400] "GET /myapplication/VAADIN/themes/mytheme/imagens/library/print.png HTTP/1.1" 200 48290
0:0:0:0:0:0:0:1 - - [10/Jul/2018:12:43:58 -0400] "POST /myapplication/UIDL/?v-uiId=0 HTTP/1.1" 200 11658
0:0:0:0:0:0:0:1 - - [10/Jul/2018:12:43:58 -0400] "GET /myapplication/VAADIN/themes/mytheme/imagens/library/filter_del.png HTTP/1.1" 304 -
0:0:0:0:0:0:0:1 - - [10/Jul/2018:12:44:00 -0400] "POST /myapplication/UIDL/?v-uiId=0 HTTP/1.1" 200 439
0:0:0:0:0:0:0:1 - - [10/Jul/2018:12:44:01 -0400] "POST /myapplication/UIDL/?v-uiId=0 HTTP/1.1" 200 137
0:0:0:0:0:0:0:1 - - [10/Jul/2018:12:44:02 -0400] "POST /myapplication/UIDL/?v-uiId=0 HTTP/1.1" 200 1902
0:0:0:0:0:0:0:1 - - [10/Jul/2018:12:44:03 -0400] "POST /myapplication/UIDL/?v-uiId=0 HTTP/1.1" 200 699
0:0:0:0:0:0:0:1 - - [10/Jul/2018:12:44:03 -0400] "POST /myapplication/UIDL/?v-uiId=0 HTTP/1.1" 200 39722
0:0:0:0:0:0:0:1 - - [10/Jul/2018:12:44:05 -0400] "POST /myapplication/UIDL/?v-uiId=0 HTTP/1.1" 200 635
0:0:0:0:0:0:0:1 - - [10/Jul/2018:12:44:06 -0400] "POST /myapplication/UIDL/?v-uiId=0 HTTP/1.1" 200 392
0:0:0:0:0:0:0:1 - - [10/Jul/2018:12:44:09 -0400] "POST /myapplication/UIDL/?v-uiId=0 HTTP/1.1" 200 386
0:0:0:0:0:0:0:1 - - [10/Jul/2018:12:44:49 -0400] "POST /myapplication/UIDL/?v-uiId=0 HTTP/1.1" 200 690
0:0:0:0:0:0:0:1 - - [10/Jul/2018:12:44:50 -0400] "POST /myapplication/UIDL/?v-uiId=0 HTTP/1.1" 200 21519
0:0:0:0:0:0:0:1 - - [10/Jul/2018:12:44:50 -0400] "POST /myapplication/UIDL/?v-uiId=0 HTTP/1.1" 200 527
0:0:0:0:0:0:0:1 - - [10/Jul/2018:12:44:52 -0400] "POST /myapplication/UIDL/?v-uiId=0 HTTP/1.1" 200 209
0:0:0:0:0:0:0:1 - - [10/Jul/2018:12:44:53 -0400] "POST /myapplication/UIDL/?v-uiId=0 HTTP/1.1" 200 17598
0:0:0:0:0:0:0:1 - - [10/Jul/2018:12:44:58 -0400] "POST /myapplication/UIDL/?v-uiId=0 HTTP/1.1" 200 209
0:0:0:0:0:0:0:1 - - [10/Jul/2018:12:45:36 -0400] "POST /myapplication/UIDL/?v-uiId=0 HTTP/1.1" 200 203
0:0:0:0:0:0:0:1 - - [10/Jul/2018:12:45:38 -0400] "POST /myapplication/UIDL/?v-uiId=0 HTTP/1.1" 200 11936
0:0:0:0:0:0:0:1 - - [10/Jul/2018:12:45:41 -0400] "POST /myapplication/UIDL/?v-uiId=0 HTTP/1.1" 200 654
0:0:0:0:0:0:0:1 - - [10/Jul/2018:12:45:42 -0400] "POST /myapplication/UIDL/?v-uiId=0 HTTP/1.1" 200 18813
0:0:0:0:0:0:0:1 - - [10/Jul/2018:12:45:42 -0400] "POST /myapplication/UIDL/?v-uiId=0 HTTP/1.1" 200 527
0:0:0:0:0:0:0:1 - - [10/Jul/2018:12:45:51 -0400] "POST /myapplication/UIDL/?v-uiId=0 HTTP/1.1" 200 203
0:0:0:0:0:0:0:1 - - [10/Jul/2018:12:45:52 -0400] "POST /myapplication/UIDL/?v-uiId=0 HTTP/1.1" 200 1067
0:0:0:0:0:0:0:1 - - [10/Jul/2018:12:45:53 -0400] "POST /myapplication/UIDL/?v-uiId=0 HTTP/1.1" 200 19092
0:0:0:0:0:0:0:1 - - [10/Jul/2018:12:45:54 -0400] "POST /myapplication/UIDL/?v-uiId=0 HTTP/1.1" 200 531
0:0:0:0:0:0:0:1 - - [10/Jul/2018:12:46:01 -0400] "POST /myapplication/UIDL/?v-uiId=0 HTTP/1.1" 200 203
0:0:0:0:0:0:0:1 - - [10/Jul/2018:12:46:02 -0400] "POST /myapplication/UIDL/?v-uiId=0 HTTP/1.1" 200 1088
0:0:0:0:0:0:0:1 - - [10/Jul/2018:12:46:03 -0400] "POST /myapplication/UIDL/?v-uiId=0 HTTP/1.1" 200 19345
0:0:0:0:0:0:0:1 - - [10/Jul/2018:12:46:03 -0400] "POST /myapplication/UIDL/?v-uiId=0 HTTP/1.1" 200 537
0:0:0:0:0:0:0:1 - - [10/Jul/2018:12:46:09 -0400] "POST /myapplication/UIDL/?v-uiId=0 HTTP/1.1" 200 203
0:0:0:0:0:0:0:1 - - [10/Jul/2018:12:46:10 -0400] "POST /myapplication/UIDL/?v-uiId=0 HTTP/1.1" 200 1113
0:0:0:0:0:0:0:1 - - [10/Jul/2018:12:46:11 -0400] "POST /myapplication/UIDL/?v-uiId=0 HTTP/1.1" 200 19342
0:0:0:0:0:0:0:1 - - [10/Jul/2018:12:46:12 -0400] "POST /myapplication/UIDL/?v-uiId=0 HTTP/1.1" 200 537
0:0:0:0:0:0:0:1 - - [10/Jul/2018:12:46:18 -0400] "POST /myapplication/UIDL/?v-uiId=0 HTTP/1.1" 200 203
0:0:0:0:0:0:0:1 - - [10/Jul/2018:12:46:20 -0400] "POST /myapplication/UIDL/?v-uiId=0 HTTP/1.1" 200 1136
0:0:0:0:0:0:0:1 - - [10/Jul/2018:12:46:20 -0400] "POST /myapplication/UIDL/?v-uiId=0 HTTP/1.1" 200 19333
0:0:0:0:0:0:0:1 - - [10/Jul/2018:12:46:21 -0400] "POST /myapplication/UIDL/?v-uiId=0 HTTP/1.1" 200 537
0:0:0:0:0:0:0:1 - - [10/Jul/2018:12:46:55 -0400] "POST /myapplication/UIDL/?v-uiId=0 HTTP/1.1" 200 203
0:0:0:0:0:0:0:1 - - [10/Jul/2018:12:46:56 -0400] "POST /myapplication/UIDL/?v-uiId=0 HTTP/1.1" 200 1101
0:0:0:0:0:0:0:1 - - [10/Jul/2018:12:46:57 -0400] "POST /myapplication/UIDL/?v-uiId=0 HTTP/1.1" 200 19261
0:0:0:0:0:0:0:1 - - [10/Jul/2018:12:46:58 -0400] "POST /myapplication/UIDL/?v-uiId=0 HTTP/1.1" 200 537
0:0:0:0:0:0:0:1 - - [10/Jul/2018:12:47:01 -0400] "POST /myapplication/UIDL/?v-uiId=0 HTTP/1.1" 200 203
0:0:0:0:0:0:0:1 - - [10/Jul/2018:12:47:02 -0400] "POST /myapplication/UIDL/?v-uiId=0 HTTP/1.1" 200 4985
0:0:0:0:0:0:0:1 - - [10/Jul/2018:12:47:06 -0400] "POST /myapplication/UIDL/?v-uiId=0 HTTP/1.1" 200 4892
0:0:0:0:0:0:0:1 - - [10/Jul/2018:12:47:13 -0400] "POST /myapplication/UIDL/?v-uiId=0 HTTP/1.1" 200 4900
0:0:0:0:0:0:0:1 - - [10/Jul/2018:12:47:14 -0400] "POST /myapplication/UIDL/?v-uiId=0 HTTP/1.1" 200 4886
0:0:0:0:0:0:0:1 - - [10/Jul/2018:12:47:14 -0400] "POST /myapplication/UIDL/?v-uiId=0 HTTP/1.1" 200 4855
0:0:0:0:0:0:0:1 - - [10/Jul/2018:12:47:17 -0400] "POST /myapplication/UIDL/?v-uiId=0 HTTP/1.1" 200 4833
0:0:0:0:0:0:0:1 - - [10/Jul/2018:12:47:51 -0400] "POST /myapplication/UIDL/?v-uiId=0 HTTP/1.1" 200 19923
0:0:0:0:0:0:0:1 - - [10/Jul/2018:12:47:51 -0400] "GET /myapplication/VAADIN/themes/mytheme/imagens/library/cancel.png HTTP/1.1" 200 587
0:0:0:0:0:0:0:1 - - [10/Jul/2018:12:47:53 -0400] "POST /myapplication/UIDL/?v-uiId=0 HTTP/1.1" 200 203
0:0:0:0:0:0:0:1 - - [10/Jul/2018:12:47:54 -0400] "POST /myapplication/UIDL/?v-uiId=0 HTTP/1.1" 200 139
0:0:0:0:0:0:0:1 - - [10/Jul/2018:12:47:55 -0400] "POST /myapplication/UIDL/?v-uiId=0 HTTP/1.1" 200 19923
0:0:0:0:0:0:0:1 - - [10/Jul/2018:12:48:01 -0400] "POST /myapplication/UIDL/?v-uiId=0 HTTP/1.1" 200 457
0:0:0:0:0:0:0:1 - - [10/Jul/2018:12:48:01 -0400] "POST /myapplication/UIDL/?v-uiId=0 HTTP/1.1" 200 139
0:0:0:0:0:0:0:1 - - [10/Jul/2018:12:48:09 -0400] "POST /myapplication/UIDL/?v-uiId=0 HTTP/1.1" 200 139
0:0:0:0:0:0:0:1 - - [10/Jul/2018:12:48:09 -0400] "POST /myapplication/UIDL/?v-uiId=0 HTTP/1.1" 200 203
0:0:0:0:0:0:0:1 - - [10/Jul/2018:12:48:48 -0400] "POST /myapplication/HEARTBEAT/?v-uiId=0 HTTP/1.1" 410 1021
0:0:0:0:0:0:0:1 - - [10/Jul/2018:12:48:54 -0400] "GET /myapplication/servlet/com.example.myapplication.MyUI$MyUIServlet HTTP/1.1" 200 1861
0:0:0:0:0:0:0:1 - - [10/Jul/2018:12:48:54 -0400] "GET /myapplication/VAADIN/vaadinBootstrap.js?v=8.4.0 HTTP/1.1" 304 -
0:0:0:0:0:0:0:1 - - [10/Jul/2018:12:48:54 -0400] "GET /myapplication/VAADIN/themes/mytheme/styles.css?v=8.4.0 HTTP/1.1" 304 -
0:0:0:0:0:0:0:1 - - [10/Jul/2018:12:48:54 -0400] "GET /myapplication/VAADIN/widgetsets/com.vaadin.DefaultWidgetSet/com.vaadin.DefaultWidgetSet.nocache.js?1531241334118 HTTP/1.1" 200 3231
0:0:0:0:0:0:0:1 - - [10/Jul/2018:12:48:54 -0400] "GET /myapplication/VAADIN/themes/valo/shared/img/spinner.gif HTTP/1.1" 304 -
0:0:0:0:0:0:0:1 - - [10/Jul/2018:12:48:54 -0400] "GET /myapplication/VAADIN/widgetsets/com.vaadin.DefaultWidgetSet/5261D6BEE375FB843C1757C3A6B56D47.cache.js HTTP/1.1" 304 -
0:0:0:0:0:0:0:1 - - [10/Jul/2018:12:48:55 -0400] "POST /myapplication/servlet/com.example.myapplication.MyUI$MyUIServlet?v-1531241334118 HTTP/1.1" 200 6045
0:0:0:0:0:0:0:1 - - [10/Jul/2018:12:48:55 -0400] "POST /myapplication/UIDL/?v-uiId=0 HTTP/1.1" 200 137
0:0:0:0:0:0:0:1 - - [10/Jul/2018:12:48:58 -0400] "POST /myapplication/UIDL/?v-uiId=0 HTTP/1.1" 200 190
0:0:0:0:0:0:0:1 - - [10/Jul/2018:12:48:58 -0400] "POST /myapplication/UIDL/?v-uiId=0 HTTP/1.1" 200 137
0:0:0:0:0:0:0:1 - - [10/Jul/2018:12:48:59 -0400] "POST /myapplication/UIDL/?v-uiId=0 HTTP/1.1" 200 191
0:0:0:0:0:0:0:1 - - [10/Jul/2018:12:48:59 -0400] "POST /myapplication/UIDL/?v-uiId=0 HTTP/1.1" 200 5458
0:0:0:0:0:0:0:1 - - [10/Jul/2018:12:48:59 -0400] "GET /myapplication/VAADIN/themes/mytheme/imagens/logo-prosaude.png HTTP/1.1" 304 -
0:0:0:0:0:0:0:1 - - [10/Jul/2018:12:49:01 -0400] "POST /myapplication/UIDL/?v-uiId=0 HTTP/1.1" 200 12551
0:0:0:0:0:0:0:1 - - [10/Jul/2018:12:49:01 -0400] "GET /myapplication/VAADIN/themes/mytheme/imagens/library/insert.png HTTP/1.1" 304 -
0:0:0:0:0:0:0:1 - - [10/Jul/2018:12:49:01 -0400] "GET /myapplication/VAADIN/themes/mytheme/imagens/library/update.png HTTP/1.1" 304 -
0:0:0:0:0:0:0:1 - - [10/Jul/2018:12:49:01 -0400] "GET /myapplication/VAADIN/themes/mytheme/imagens/library/find.png HTTP/1.1" 304 -
0:0:0:0:0:0:0:1 - - [10/Jul/2018:12:49:01 -0400] "GET /myapplication/VAADIN/themes/mytheme/imagens/library/print.png HTTP/1.1" 304 -
0:0:0:0:0:0:0:1 - - [10/Jul/2018:12:49:02 -0400] "POST /myapplication/UIDL/?v-uiId=0 HTTP/1.1" 200 23615
0:0:0:0:0:0:0:1 - - [10/Jul/2018:12:49:03 -0400] "GET /myapplication/VAADIN/themes/mytheme/imagens/library/cancel.png HTTP/1.1" 304 -
0:0:0:0:0:0:0:1 - - [10/Jul/2018:12:49:03 -0400] "GET /myapplication/VAADIN/themes/mytheme/imagens/library/disk.png HTTP/1.1" 304 -
0:0:0:0:0:0:0:1 - - [10/Jul/2018:12:49:03 -0400] "POST /myapplication/UIDL/?v-uiId=0 HTTP/1.1" 200 523
0:0:0:0:0:0:0:1 - - [10/Jul/2018:12:49:03 -0400] "POST /myapplication/UIDL/?v-uiId=0 HTTP/1.1" 200 201
0:0:0:0:0:0:0:1 - - [10/Jul/2018:12:49:04 -0400] "POST /myapplication/UIDL/?v-uiId=0 HTTP/1.1" 200 19539
0:0:0:0:0:0:0:1 - - [10/Jul/2018:12:49:04 -0400] "GET /myapplication/VAADIN/themes/mytheme/imagens/library/filter_del.png HTTP/1.1" 304 -
0:0:0:0:0:0:0:1 - - [10/Jul/2018:12:49:11 -0400] "POST /myapplication/UIDL/?v-uiId=0 HTTP/1.1" 200 203
0:0:0:0:0:0:0:1 - - [10/Jul/2018:12:50:40 -0400] "GET /myapplication/servlet/com.example.myapplication.MyUI$MyUIServlet HTTP/1.1" 200 1861
0:0:0:0:0:0:0:1 - - [10/Jul/2018:12:50:40 -0400] "GET /myapplication/VAADIN/widgetsets/com.vaadin.DefaultWidgetSet/com.vaadin.DefaultWidgetSet.nocache.js?1531241440892 HTTP/1.1" 200 3231
0:0:0:0:0:0:0:1 - - [10/Jul/2018:12:50:42 -0400] "POST /myapplication/servlet/com.example.myapplication.MyUI$MyUIServlet?v-1531241440892 HTTP/1.1" 200 6046
0:0:0:0:0:0:0:1 - - [10/Jul/2018:12:50:42 -0400] "POST /myapplication/UIDL/?v-uiId=0 HTTP/1.1" 200 137
0:0:0:0:0:0:0:1 - - [10/Jul/2018:12:51:40 -0400] "POST /myapplication/UIDL/?v-uiId=0 HTTP/1.1" 200 191
0:0:0:0:0:0:0:1 - - [10/Jul/2018:12:51:40 -0400] "POST /myapplication/UIDL/?v-uiId=0 HTTP/1.1" 200 137
0:0:0:0:0:0:0:1 - - [10/Jul/2018:12:51:41 -0400] "POST /myapplication/UIDL/?v-uiId=0 HTTP/1.1" 200 191
0:0:0:0:0:0:0:1 - - [10/Jul/2018:12:51:41 -0400] "POST /myapplication/UIDL/?v-uiId=0 HTTP/1.1" 200 5458
0:0:0:0:0:0:0:1 - - [10/Jul/2018:12:51:41 -0400] "GET /myapplication/VAADIN/themes/valo/fonts/themeicons-webfont/themeicons-webfont.woff HTTP/1.1" 200 7868
0:0:0:0:0:0:0:1 - - [10/Jul/2018:12:51:41 -0400] "GET /myapplication/VAADIN/themes/valo/fonts/open-sans/OpenSans-Semibold-webfont.woff HTTP/1.1" 200 22908
0:0:0:0:0:0:0:1 - - [10/Jul/2018:12:51:43 -0400] "POST /myapplication/UIDL/?v-uiId=0 HTTP/1.1" 200 12551
0:0:0:0:0:0:0:1 - - [10/Jul/2018:12:51:43 -0400] "GET /myapplication/VAADIN/themes/valo/fonts/fontawesome-webfont/fontawesome-webfont.woff HTTP/1.1" 304 -
0:0:0:0:0:0:0:1 - - [10/Jul/2018:12:51:47 -0400] "POST /myapplication/UIDL/?v-uiId=0 HTTP/1.1" 200 20798
0:0:0:0:0:0:0:1 - - [10/Jul/2018:12:51:47 -0400] "POST /myapplication/UIDL/?v-uiId=0 HTTP/1.1" 200 523
0:0:0:0:0:0:0:1 - - [10/Jul/2018:12:51:49 -0400] "POST /myapplication/UIDL/?v-uiId=0 HTTP/1.1" 200 284
0:0:0:0:0:0:0:1 - - [10/Jul/2018:12:51:49 -0400] "POST /myapplication/UIDL/?v-uiId=0 HTTP/1.1" 200 3300
0:0:0:0:0:0:0:1 - - [10/Jul/2018:12:51:49 -0400] "POST /myapplication/UIDL/?v-uiId=0 HTTP/1.1" 200 286
0:0:0:0:0:0:0:1 - - [10/Jul/2018:12:51:49 -0400] "POST /myapplication/UIDL/?v-uiId=0 HTTP/1.1" 200 3300
0:0:0:0:0:0:0:1 - - [10/Jul/2018:12:51:49 -0400] "POST /myapplication/UIDL/?v-uiId=0 HTTP/1.1" 200 286
0:0:0:0:0:0:0:1 - - [10/Jul/2018:12:51:49 -0400] "POST /myapplication/UIDL/?v-uiId=0 HTTP/1.1" 200 916
0:0:0:0:0:0:0:1 - - [10/Jul/2018:12:51:50 -0400] "POST /myapplication/UIDL/?v-uiId=0 HTTP/1.1" 200 286
0:0:0:0:0:0:0:1 - - [10/Jul/2018:12:51:50 -0400] "POST /myapplication/UIDL/?v-uiId=0 HTTP/1.1" 200 358
0:0:0:0:0:0:0:1 - - [10/Jul/2018:12:51:50 -0400] "POST /myapplication/UIDL/?v-uiId=0 HTTP/1.1" 200 301
0:0:0:0:0:0:0:1 - - [10/Jul/2018:12:51:51 -0400] "POST /myapplication/UIDL/?v-uiId=0 HTTP/1.1" 200 139
0:0:0:0:0:0:0:1 - - [10/Jul/2018:12:51:53 -0400] "POST /myapplication/UIDL/?v-uiId=0 HTTP/1.1" 200 284
0:0:0:0:0:0:0:1 - - [10/Jul/2018:12:51:53 -0400] "POST /myapplication/UIDL/?v-uiId=0 HTTP/1.1" 200 281
0:0:0:0:0:0:0:1 - - [10/Jul/2018:12:51:53 -0400] "POST /myapplication/UIDL/?v-uiId=0 HTTP/1.1" 200 285
0:0:0:0:0:0:0:1 - - [10/Jul/2018:12:51:53 -0400] "POST /myapplication/UIDL/?v-uiId=0 HTTP/1.1" 200 281
0:0:0:0:0:0:0:1 - - [10/Jul/2018:12:51:53 -0400] "POST /myapplication/UIDL/?v-uiId=0 HTTP/1.1" 200 286
0:0:0:0:0:0:0:1 - - [10/Jul/2018:12:51:53 -0400] "POST /myapplication/UIDL/?v-uiId=0 HTTP/1.1" 200 281
0:0:0:0:0:0:0:1 - - [10/Jul/2018:12:51:54 -0400] "POST /myapplication/UIDL/?v-uiId=0 HTTP/1.1" 200 285
0:0:0:0:0:0:0:1 - - [10/Jul/2018:12:51:54 -0400] "POST /myapplication/UIDL/?v-uiId=0 HTTP/1.1" 200 281
0:0:0:0:0:0:0:1 - - [10/Jul/2018:12:51:54 -0400] "POST /myapplication/UIDL/?v-uiId=0 HTTP/1.1" 200 284
0:0:0:0:0:0:0:1 - - [10/Jul/2018:12:51:54 -0400] "POST /myapplication/UIDL/?v-uiId=0 HTTP/1.1" 200 281
0:0:0:0:0:0:0:1 - - [10/Jul/2018:12:51:54 -0400] "POST /myapplication/UIDL/?v-uiId=0 HTTP/1.1" 200 283
0:0:0:0:0:0:0:1 - - [10/Jul/2018:12:51:54 -0400] "POST /myapplication/UIDL/?v-uiId=0 HTTP/1.1" 200 300
0:0:0:0:0:0:0:1 - - [10/Jul/2018:12:51:55 -0400] "POST /myapplication/UIDL/?v-uiId=0 HTTP/1.1" 200 282
0:0:0:0:0:0:0:1 - - [10/Jul/2018:12:51:55 -0400] "POST /myapplication/UIDL/?v-uiId=0 HTTP/1.1" 200 300
0:0:0:0:0:0:0:1 - - [10/Jul/2018:12:52:19 -0400] "POST /myapplication/UIDL/?v-uiId=0 HTTP/1.1" 200 303
0:0:0:0:0:0:0:1 - - [10/Jul/2018:12:52:22 -0400] "POST /myapplication/UIDL/?v-uiId=0 HTTP/1.1" 200 139
0:0:0:0:0:0:0:1 - - [10/Jul/2018:12:52:22 -0400] "POST /myapplication/UIDL/?v-uiId=0 HTTP/1.1" 200 1369
0:0:0:0:0:0:0:1 - - [10/Jul/2018:12:52:24 -0400] "POST /myapplication/UIDL/?v-uiId=0 HTTP/1.1" 200 648
0:0:0:0:0:0:0:1 - - [10/Jul/2018:12:55:22 -0400] "POST /myapplication/UIDL/?v-uiId=0 HTTP/1.1" 200 18823
0:0:0:0:0:0:0:1 - - [10/Jul/2018:12:55:22 -0400] "POST /myapplication/UIDL/?v-uiId=0 HTTP/1.1" 200 525
0:0:0:0:0:0:0:1 - - [10/Jul/2018:12:55:42 -0400] "POST /myapplication/HEARTBEAT/?v-uiId=0 HTTP/1.1" 200 -
0:0:0:0:0:0:0:1 - - [10/Jul/2018:12:59:22 -0400] "POST /myapplication/UIDL/?v-uiId=0 HTTP/1.1" 200 203
0:0:0:0:0:0:0:1 - - [10/Jul/2018:12:59:24 -0400] "POST /myapplication/UIDL/?v-uiId=0 HTTP/1.1" 200 18825
0:0:0:0:0:0:0:1 - - [10/Jul/2018:12:59:24 -0400] "POST /myapplication/UIDL/?v-uiId=0 HTTP/1.1" 200 527
0:0:0:0:0:0:0:1 - - [10/Jul/2018:12:59:25 -0400] "POST /myapplication/UIDL/?v-uiId=0 HTTP/1.1" 200 203
0:0:0:0:0:0:0:1 - - [10/Jul/2018:12:59:27 -0400] "POST /myapplication/UIDL/?v-uiId=0 HTTP/1.1" 200 12294
0:0:0:0:0:0:0:1 - - [10/Jul/2018:13:00:42 -0400] "POST /myapplication/HEARTBEAT/?v-uiId=0 HTTP/1.1" 200 -
0:0:0:0:0:0:0:1 - - [10/Jul/2018:13:05:42 -0400] "POST /myapplication/HEARTBEAT/?v-uiId=0 HTTP/1.1" 200 -
0:0:0:0:0:0:0:1 - - [10/Jul/2018:13:10:43 -0400] "POST /myapplication/HEARTBEAT/?v-uiId=0 HTTP/1.1" 200 -
0:0:0:0:0:0:0:1 - - [10/Jul/2018:13:15:43 -0400] "POST /myapplication/HEARTBEAT/?v-uiId=0 HTTP/1.1" 200 -
0:0:0:0:0:0:0:1 - - [10/Jul/2018:13:17:52 -0400] "POST /myapplication/UIDL/?v-uiId=0 HTTP/1.1" 200 714
0:0:0:0:0:0:0:1 - - [10/Jul/2018:13:17:53 -0400] "POST /myapplication/UIDL/?v-uiId=0 HTTP/1.1" 200 36686
0:0:0:0:0:0:0:1 - - [10/Jul/2018:13:18:01 -0400] "POST /myapplication/UIDL/?v-uiId=0 HTTP/1.1" 200 203
0:0:0:0:0:0:0:1 - - [10/Jul/2018:13:18:59 -0400] "POST /myapplication/UIDL/?v-uiId=0 HTTP/1.1" 200 7281
0:0:0:0:0:0:0:1 - - [10/Jul/2018:13:18:59 -0400] "POST /myapplication/UIDL/?v-uiId=0 HTTP/1.1" 200 647
0:0:0:0:0:0:0:1 - - [10/Jul/2018:13:19:03 -0400] "POST /myapplication/UIDL/?v-uiId=0 HTTP/1.1" 200 17355
0:0:0:0:0:0:0:1 - - [10/Jul/2018:13:19:03 -0400] "POST /myapplication/UIDL/?v-uiId=0 HTTP/1.1" 200 527
0:0:0:0:0:0:0:1 - - [10/Jul/2018:13:19:08 -0400] "POST /myapplication/UIDL/?v-uiId=0 HTTP/1.1" 200 192
0:0:0:0:0:0:0:1 - - [10/Jul/2018:13:19:10 -0400] "POST /myapplication/UIDL/?v-uiId=0 HTTP/1.1" 200 139
0:0:0:0:0:0:0:1 - - [10/Jul/2018:13:19:10 -0400] "POST /myapplication/UIDL/?v-uiId=0 HTTP/1.1" 200 1140
0:0:0:0:0:0:0:1 - - [10/Jul/2018:13:19:11 -0400] "POST /myapplication/UIDL/?v-uiId=0 HTTP/1.1" 200 17355
0:0:0:0:0:0:0:1 - - [10/Jul/2018:13:19:12 -0400] "POST /myapplication/UIDL/?v-uiId=0 HTTP/1.1" 200 527
0:0:0:0:0:0:0:1 - - [10/Jul/2018:13:19:13 -0400] "POST /myapplication/UIDL/?v-uiId=0 HTTP/1.1" 200 192
0:0:0:0:0:0:0:1 - - [10/Jul/2018:13:19:19 -0400] "POST /myapplication/UIDL/?v-uiId=0 HTTP/1.1" 200 203
0:0:0:0:0:0:0:1 - - [10/Jul/2018:13:19:20 -0400] "POST /myapplication/UIDL/?v-uiId=0 HTTP/1.1" 200 17653
0:0:0:0:0:0:0:1 - - [10/Jul/2018:13:19:20 -0400] "POST /myapplication/UIDL/?v-uiId=0 HTTP/1.1" 200 531
0:0:0:0:0:0:0:1 - - [10/Jul/2018:13:19:22 -0400] "POST /myapplication/UIDL/?v-uiId=0 HTTP/1.1" 200 196
0:0:0:0:0:0:0:1 - - [10/Jul/2018:13:19:27 -0400] "POST /myapplication/UIDL/?v-uiId=0 HTTP/1.1" 200 203
0:0:0:0:0:0:0:1 - - [10/Jul/2018:13:19:28 -0400] "POST /myapplication/UIDL/?v-uiId=0 HTTP/1.1" 200 22848
0:0:0:0:0:0:0:1 - - [10/Jul/2018:13:19:28 -0400] "POST /myapplication/UIDL/?v-uiId=0 HTTP/1.1" 200 537
0:0:0:0:0:0:0:1 - - [10/Jul/2018:13:19:31 -0400] "POST /myapplication/UIDL/?v-uiId=0 HTTP/1.1" 200 290
0:0:0:0:0:0:0:1 - - [10/Jul/2018:13:19:32 -0400] "POST /myapplication/UIDL/?v-uiId=0 HTTP/1.1" 200 303
0:0:0:0:0:0:0:1 - - [10/Jul/2018:13:19:35 -0400] "POST /myapplication/UIDL/?v-uiId=0 HTTP/1.1" 200 203
0:0:0:0:0:0:0:1 - - [10/Jul/2018:13:19:36 -0400] "POST /myapplication/UIDL/?v-uiId=0 HTTP/1.1" 200 17715
0:0:0:0:0:0:0:1 - - [10/Jul/2018:13:19:36 -0400] "POST /myapplication/UIDL/?v-uiId=0 HTTP/1.1" 200 537
0:0:0:0:0:0:0:1 - - [10/Jul/2018:13:19:42 -0400] "POST /myapplication/UIDL/?v-uiId=0 HTTP/1.1" 200 290
0:0:0:0:0:0:0:1 - - [10/Jul/2018:13:19:42 -0400] "POST /myapplication/UIDL/?v-uiId=0 HTTP/1.1" 200 303
0:0:0:0:0:0:0:1 - - [10/Jul/2018:13:19:45 -0400] "POST /myapplication/UIDL/?v-uiId=0 HTTP/1.1" 200 203
0:0:0:0:0:0:0:1 - - [10/Jul/2018:13:19:46 -0400] "POST /myapplication/UIDL/?v-uiId=0 HTTP/1.1" 200 17715
0:0:0:0:0:0:0:1 - - [10/Jul/2018:13:19:47 -0400] "POST /myapplication/UIDL/?v-uiId=0 HTTP/1.1" 200 537
0:0:0:0:0:0:0:1 - - [10/Jul/2018:13:19:48 -0400] "POST /myapplication/UIDL/?v-uiId=0 HTTP/1.1" 200 5126
0:0:0:0:0:0:0:1 - - [10/Jul/2018:13:19:49 -0400] "POST /myapplication/UIDL/?v-uiId=0 HTTP/1.1" 200 19941
0:0:0:0:0:0:0:1 - - [10/Jul/2018:13:19:49 -0400] "POST /myapplication/UIDL/?v-uiId=0 HTTP/1.1" 200 537
0:0:0:0:0:0:0:1 - - [10/Jul/2018:13:19:51 -0400] "POST /myapplication/UIDL/?v-uiId=0 HTTP/1.1" 200 290
0:0:0:0:0:0:0:1 - - [10/Jul/2018:13:19:51 -0400] "POST /myapplication/UIDL/?v-uiId=0 HTTP/1.1" 200 303
0:0:0:0:0:0:0:1 - - [10/Jul/2018:13:19:51 -0400] "POST /myapplication/UIDL/?v-uiId=0 HTTP/1.1" 200 291
0:0:0:0:0:0:0:1 - - [10/Jul/2018:13:19:51 -0400] "POST /myapplication/UIDL/?v-uiId=0 HTTP/1.1" 200 279
0:0:0:0:0:0:0:1 - - [10/Jul/2018:13:19:51 -0400] "POST /myapplication/UIDL/?v-uiId=0 HTTP/1.1" 200 292
0:0:0:0:0:0:0:1 - - [10/Jul/2018:13:19:51 -0400] "POST /myapplication/UIDL/?v-uiId=0 HTTP/1.1" 200 279
0:0:0:0:0:0:0:1 - - [10/Jul/2018:13:19:52 -0400] "POST /myapplication/UIDL/?v-uiId=0 HTTP/1.1" 200 335
0:0:0:0:0:0:0:1 - - [10/Jul/2018:13:19:54 -0400] "POST /myapplication/UIDL/?v-uiId=0 HTTP/1.1" 200 139
0:0:0:0:0:0:0:1 - - [10/Jul/2018:13:19:55 -0400] "POST /myapplication/UIDL/?v-uiId=0 HTTP/1.1" 200 203
0:0:0:0:0:0:0:1 - - [10/Jul/2018:13:19:56 -0400] "POST /myapplication/UIDL/?v-uiId=0 HTTP/1.1" 200 20010
0:0:0:0:0:0:0:1 - - [10/Jul/2018:13:19:56 -0400] "POST /myapplication/UIDL/?v-uiId=0 HTTP/1.1" 200 537
0:0:0:0:0:0:0:1 - - [10/Jul/2018:13:19:58 -0400] "POST /myapplication/UIDL/?v-uiId=0 HTTP/1.1" 200 293
0:0:0:0:0:0:0:1 - - [10/Jul/2018:13:19:58 -0400] "POST /myapplication/UIDL/?v-uiId=0 HTTP/1.1" 200 3303
0:0:0:0:0:0:0:1 - - [10/Jul/2018:13:19:58 -0400] "POST /myapplication/UIDL/?v-uiId=0 HTTP/1.1" 200 293
0:0:0:0:0:0:0:1 - - [10/Jul/2018:13:19:58 -0400] "POST /myapplication/UIDL/?v-uiId=0 HTTP/1.1" 200 919
0:0:0:0:0:0:0:1 - - [10/Jul/2018:13:19:58 -0400] "POST /myapplication/UIDL/?v-uiId=0 HTTP/1.1" 200 294
0:0:0:0:0:0:0:1 - - [10/Jul/2018:13:19:58 -0400] "POST /myapplication/UIDL/?v-uiId=0 HTTP/1.1" 200 361
0:0:0:0:0:0:0:1 - - [10/Jul/2018:13:19:58 -0400] "POST /myapplication/UIDL/?v-uiId=0 HTTP/1.1" 200 296
0:0:0:0:0:0:0:1 - - [10/Jul/2018:13:19:58 -0400] "POST /myapplication/UIDL/?v-uiId=0 HTTP/1.1" 200 361
0:0:0:0:0:0:0:1 - - [10/Jul/2018:13:19:59 -0400] "POST /myapplication/UIDL/?v-uiId=0 HTTP/1.1" 200 310
0:0:0:0:0:0:0:1 - - [10/Jul/2018:13:20:01 -0400] "POST /myapplication/UIDL/?v-uiId=0 HTTP/1.1" 200 139
0:0:0:0:0:0:0:1 - - [10/Jul/2018:13:20:01 -0400] "POST /myapplication/UIDL/?v-uiId=0 HTTP/1.1" 200 1821
0:0:0:0:0:0:0:1 - - [10/Jul/2018:13:20:08 -0400] "POST /myapplication/UIDL/?v-uiId=0 HTTP/1.1" 200 17757
0:0:0:0:0:0:0:1 - - [10/Jul/2018:13:20:08 -0400] "POST /myapplication/UIDL/?v-uiId=0 HTTP/1.1" 200 539
0:0:0:0:0:0:0:1 - - [10/Jul/2018:13:20:19 -0400] "POST /myapplication/UIDL/?v-uiId=0 HTTP/1.1" 200 205
